<?xml version="1.0" standalone="no"?>
 <!DOCTYPE svg PUBLIC "-//W3C//DTD SVG 1.1//EN" 
 "http://www.w3.org/Graphics/SVG/1.1/DTD/svg11.dtd"> 
<svg
  xmlns:svg="http://www.w3.org/2000/svg"
  xmlns="http://www.w3.org/2000/svg"
  xmlns:xlink="http://www.w3.org/1999/xlink"
  version="1.1"
  width="29.700220cm" height="21.000720cm" viewBox="0 0 116930 82680">
<title>SVG Picture created as diy_-Eco2_User.svg date 2020/09/26 21:29:37 </title>
  <desc>Picture generated by PCBNEW </desc>
<g style="fill:#000000; fill-opacity:1;stroke:#000000; stroke-opacity:1;
stroke-linecap:round; stroke-linejoin:round;"
 transform="translate(0 0) scale(1 1)">
</g>
<g style="fill:#000000; fill-opacity:0.0; 
stroke:#000000; stroke-width:-0.000393701; stroke-opacity:1; 
stroke-linecap:round; stroke-linejoin:round;">
</g>
<g style="fill:#000000; fill-opacity:0.0; 
stroke:#000000; stroke-width:39.3701; stroke-opacity:1; 
stroke-linecap:round; stroke-linejoin:round;">
</g>
<g style="fill:#000000; fill-opacity:0.0; 
stroke:#000000; stroke-width:59.0551; stroke-opacity:1; 
stroke-linecap:round; stroke-linejoin:round;">
<rect x="69685.9" y="65357.2" width="42519.7" height="12598.4" rx="0" />
</g>
<g style="fill:#000000; fill-opacity:0.0; 
stroke:#000000; stroke-width:39.3701; stroke-opacity:1; 
stroke-linecap:round; stroke-linejoin:round;">
</g>
<g style="fill:#000000; fill-opacity:0.0; 
stroke:#000000; stroke-width:59.0551; stroke-opacity:1; 
stroke-linecap:round; stroke-linejoin:round;">
<rect x="3937.01" y="3937.01" width="109056" height="74806" rx="0" />
</g>
<g style="fill:#000000; fill-opacity:0.0; 
stroke:#000000; stroke-width:39.3701; stroke-opacity:1; 
stroke-linecap:round; stroke-linejoin:round;">
</g>
<g style="fill:#000000; fill-opacity:0.0; 
stroke:#000000; stroke-width:59.0551; stroke-opacity:1; 
stroke-linecap:round; stroke-linejoin:round;">
<rect x="4724.41" y="4724.41" width="107481" height="73231.2" rx="0" />
</g>
<g style="fill:#000000; fill-opacity:0.0; 
stroke:#000000; stroke-width:39.3701; stroke-opacity:1; 
stroke-linecap:round; stroke-linejoin:round;">
</g>
<g style="fill:#000000; fill-opacity:0.0; 
stroke:#000000; stroke-width:59.0551; stroke-opacity:1; 
stroke-linecap:round; stroke-linejoin:round;">
<path d="M23622 4724
L23622 3937
" />
</g>
<g style="fill:#000000; fill-opacity:0.0; 
stroke:#000000; stroke-width:39.3701; stroke-opacity:1; 
stroke-linecap:round; stroke-linejoin:round;">
</g>
<g style="fill:#000000; fill-opacity:0.0; 
stroke:#000000; stroke-width:59.0551; stroke-opacity:1; 
stroke-linecap:round; stroke-linejoin:round;">
<path d="M43307 4724
L43307 3937
" />
</g>
<g style="fill:#000000; fill-opacity:0.0; 
stroke:#000000; stroke-width:39.3701; stroke-opacity:1; 
stroke-linecap:round; stroke-linejoin:round;">
</g>
<g style="fill:#000000; fill-opacity:0.0; 
stroke:#000000; stroke-width:59.0551; stroke-opacity:1; 
stroke-linecap:round; stroke-linejoin:round;">
<path d="M62992 4724
L62992 3937
" />
</g>
<g style="fill:#000000; fill-opacity:0.0; 
stroke:#000000; stroke-width:39.3701; stroke-opacity:1; 
stroke-linecap:round; stroke-linejoin:round;">
</g>
<g style="fill:#000000; fill-opacity:0.0; 
stroke:#000000; stroke-width:59.0551; stroke-opacity:1; 
stroke-linecap:round; stroke-linejoin:round;">
<path d="M82677 4724
L82677 3937
" />
</g>
<g style="fill:#000000; fill-opacity:0.0; 
stroke:#000000; stroke-width:39.3701; stroke-opacity:1; 
stroke-linecap:round; stroke-linejoin:round;">
</g>
<g style="fill:#000000; fill-opacity:0.0; 
stroke:#000000; stroke-width:59.0551; stroke-opacity:1; 
stroke-linecap:round; stroke-linejoin:round;">
<path d="M102362 4724
L102362 3937
" />
</g>
<g style="fill:#000000; fill-opacity:0.0; 
stroke:#000000; stroke-width:39.3701; stroke-opacity:1; 
stroke-linecap:round; stroke-linejoin:round;">
</g>
<g style="fill:#000000; fill-opacity:0.0; 
stroke:#000000; stroke-width:59.0551; stroke-opacity:1; 
stroke-linecap:round; stroke-linejoin:round;">
<text x="13779.5" y="4586.61"
textLength="546.494" font-size="682.415" lengthAdjust="spacingAndGlyphs"
text-anchor="start" opacity="0">1</text>
<path d="M14199 4562
L13906 4562
" />
<path d="M14052 4562
L14052 4050
L14004 4123
L13955 4172
L13906 4196
" />
</g>
<g style="fill:#000000; fill-opacity:0.0; 
stroke:#000000; stroke-width:39.3701; stroke-opacity:1; 
stroke-linecap:round; stroke-linejoin:round;">
</g>
<g style="fill:#000000; fill-opacity:0.0; 
stroke:#000000; stroke-width:59.0551; stroke-opacity:1; 
stroke-linecap:round; stroke-linejoin:round;">
<text x="33464.6" y="4586.61"
textLength="546.494" font-size="682.415" lengthAdjust="spacingAndGlyphs"
text-anchor="start" opacity="0">2</text>
<path d="M33591 4099
L33615 4074
L33664 4050
L33786 4050
L33835 4074
L33859 4099
L33884 4147
L33884 4196
L33859 4269
L33567 4562
L33884 4562
" />
</g>
<g style="fill:#000000; fill-opacity:0.0; 
stroke:#000000; stroke-width:39.3701; stroke-opacity:1; 
stroke-linecap:round; stroke-linejoin:round;">
</g>
<g style="fill:#000000; fill-opacity:0.0; 
stroke:#000000; stroke-width:59.0551; stroke-opacity:1; 
stroke-linecap:round; stroke-linejoin:round;">
<text x="53149.6" y="4586.61"
textLength="546.494" font-size="682.415" lengthAdjust="spacingAndGlyphs"
text-anchor="start" opacity="0">3</text>
<path d="M53252 4050
L53569 4050
L53398 4245
L53471 4245
L53520 4269
L53544 4294
L53569 4342
L53569 4464
L53544 4513
L53520 4537
L53471 4562
L53325 4562
L53276 4537
L53252 4513
" />
</g>
<g style="fill:#000000; fill-opacity:0.0; 
stroke:#000000; stroke-width:39.3701; stroke-opacity:1; 
stroke-linecap:round; stroke-linejoin:round;">
</g>
<g style="fill:#000000; fill-opacity:0.0; 
stroke:#000000; stroke-width:59.0551; stroke-opacity:1; 
stroke-linecap:round; stroke-linejoin:round;">
<text x="72834.6" y="4586.61"
textLength="546.494" font-size="682.415" lengthAdjust="spacingAndGlyphs"
text-anchor="start" opacity="0">4</text>
<path d="M73205 4221
L73205 4562
" />
<path d="M73083 4026
L72961 4391
L73278 4391
" />
</g>
<g style="fill:#000000; fill-opacity:0.0; 
stroke:#000000; stroke-width:39.3701; stroke-opacity:1; 
stroke-linecap:round; stroke-linejoin:round;">
</g>
<g style="fill:#000000; fill-opacity:0.0; 
stroke:#000000; stroke-width:59.0551; stroke-opacity:1; 
stroke-linecap:round; stroke-linejoin:round;">
<text x="92519.7" y="4586.61"
textLength="546.494" font-size="682.415" lengthAdjust="spacingAndGlyphs"
text-anchor="start" opacity="0">5</text>
<path d="M92914 4050
L92671 4050
L92646 4294
L92671 4269
L92719 4245
L92841 4245
L92890 4269
L92914 4294
L92939 4342
L92939 4464
L92914 4513
L92890 4537
L92841 4562
L92719 4562
L92671 4537
L92646 4513
" />
</g>
<g style="fill:#000000; fill-opacity:0.0; 
stroke:#000000; stroke-width:39.3701; stroke-opacity:1; 
stroke-linecap:round; stroke-linejoin:round;">
</g>
<g style="fill:#000000; fill-opacity:0.0; 
stroke:#000000; stroke-width:59.0551; stroke-opacity:1; 
stroke-linecap:round; stroke-linejoin:round;">
<text x="112205" y="4586.61"
textLength="546.494" font-size="682.415" lengthAdjust="spacingAndGlyphs"
text-anchor="start" opacity="0">6</text>
<path d="M112575 4050
L112477 4050
L112429 4074
L112404 4099
L112356 4172
L112331 4269
L112331 4464
L112356 4513
L112380 4537
L112429 4562
L112526 4562
L112575 4537
L112599 4513
L112624 4464
L112624 4342
L112599 4294
L112575 4269
L112526 4245
L112429 4245
L112380 4269
L112356 4294
L112331 4342
" />
</g>
<g style="fill:#000000; fill-opacity:0.0; 
stroke:#000000; stroke-width:39.3701; stroke-opacity:1; 
stroke-linecap:round; stroke-linejoin:round;">
</g>
<g style="fill:#000000; fill-opacity:0.0; 
stroke:#000000; stroke-width:59.0551; stroke-opacity:1; 
stroke-linecap:round; stroke-linejoin:round;">
<path d="M23622 77955
L23622 78742
" />
</g>
<g style="fill:#000000; fill-opacity:0.0; 
stroke:#000000; stroke-width:39.3701; stroke-opacity:1; 
stroke-linecap:round; stroke-linejoin:round;">
</g>
<g style="fill:#000000; fill-opacity:0.0; 
stroke:#000000; stroke-width:59.0551; stroke-opacity:1; 
stroke-linecap:round; stroke-linejoin:round;">
<path d="M43307 77955
L43307 78742
" />
</g>
<g style="fill:#000000; fill-opacity:0.0; 
stroke:#000000; stroke-width:39.3701; stroke-opacity:1; 
stroke-linecap:round; stroke-linejoin:round;">
</g>
<g style="fill:#000000; fill-opacity:0.0; 
stroke:#000000; stroke-width:59.0551; stroke-opacity:1; 
stroke-linecap:round; stroke-linejoin:round;">
<path d="M62992 77955
L62992 78742
" />
</g>
<g style="fill:#000000; fill-opacity:0.0; 
stroke:#000000; stroke-width:39.3701; stroke-opacity:1; 
stroke-linecap:round; stroke-linejoin:round;">
</g>
<g style="fill:#000000; fill-opacity:0.0; 
stroke:#000000; stroke-width:59.0551; stroke-opacity:1; 
stroke-linecap:round; stroke-linejoin:round;">
<path d="M82677 77955
L82677 78742
" />
</g>
<g style="fill:#000000; fill-opacity:0.0; 
stroke:#000000; stroke-width:39.3701; stroke-opacity:1; 
stroke-linecap:round; stroke-linejoin:round;">
</g>
<g style="fill:#000000; fill-opacity:0.0; 
stroke:#000000; stroke-width:59.0551; stroke-opacity:1; 
stroke-linecap:round; stroke-linejoin:round;">
<path d="M102362 77955
L102362 78742
" />
</g>
<g style="fill:#000000; fill-opacity:0.0; 
stroke:#000000; stroke-width:39.3701; stroke-opacity:1; 
stroke-linecap:round; stroke-linejoin:round;">
</g>
<g style="fill:#000000; fill-opacity:0.0; 
stroke:#000000; stroke-width:59.0551; stroke-opacity:1; 
stroke-linecap:round; stroke-linejoin:round;">
<text x="13779.5" y="78605.2"
textLength="546.494" font-size="682.415" lengthAdjust="spacingAndGlyphs"
text-anchor="start" opacity="0">1</text>
<path d="M14199 78580
L13906 78580
" />
<path d="M14052 78580
L14052 78069
L14004 78142
L13955 78190
L13906 78215
" />
</g>
<g style="fill:#000000; fill-opacity:0.0; 
stroke:#000000; stroke-width:39.3701; stroke-opacity:1; 
stroke-linecap:round; stroke-linejoin:round;">
</g>
<g style="fill:#000000; fill-opacity:0.0; 
stroke:#000000; stroke-width:59.0551; stroke-opacity:1; 
stroke-linecap:round; stroke-linejoin:round;">
<text x="33464.6" y="78605.2"
textLength="546.494" font-size="682.415" lengthAdjust="spacingAndGlyphs"
text-anchor="start" opacity="0">2</text>
<path d="M33591 78117
L33615 78093
L33664 78069
L33786 78069
L33835 78093
L33859 78117
L33884 78166
L33884 78215
L33859 78288
L33567 78580
L33884 78580
" />
</g>
<g style="fill:#000000; fill-opacity:0.0; 
stroke:#000000; stroke-width:39.3701; stroke-opacity:1; 
stroke-linecap:round; stroke-linejoin:round;">
</g>
<g style="fill:#000000; fill-opacity:0.0; 
stroke:#000000; stroke-width:59.0551; stroke-opacity:1; 
stroke-linecap:round; stroke-linejoin:round;">
<text x="53149.6" y="78605.2"
textLength="546.494" font-size="682.415" lengthAdjust="spacingAndGlyphs"
text-anchor="start" opacity="0">3</text>
<path d="M53252 78069
L53569 78069
L53398 78263
L53471 78263
L53520 78288
L53544 78312
L53569 78361
L53569 78483
L53544 78532
L53520 78556
L53471 78580
L53325 78580
L53276 78556
L53252 78532
" />
</g>
<g style="fill:#000000; fill-opacity:0.0; 
stroke:#000000; stroke-width:39.3701; stroke-opacity:1; 
stroke-linecap:round; stroke-linejoin:round;">
</g>
<g style="fill:#000000; fill-opacity:0.0; 
stroke:#000000; stroke-width:59.0551; stroke-opacity:1; 
stroke-linecap:round; stroke-linejoin:round;">
<text x="72834.6" y="78605.2"
textLength="546.494" font-size="682.415" lengthAdjust="spacingAndGlyphs"
text-anchor="start" opacity="0">4</text>
<path d="M73205 78239
L73205 78580
" />
<path d="M73083 78044
L72961 78410
L73278 78410
" />
</g>
<g style="fill:#000000; fill-opacity:0.0; 
stroke:#000000; stroke-width:39.3701; stroke-opacity:1; 
stroke-linecap:round; stroke-linejoin:round;">
</g>
<g style="fill:#000000; fill-opacity:0.0; 
stroke:#000000; stroke-width:59.0551; stroke-opacity:1; 
stroke-linecap:round; stroke-linejoin:round;">
<text x="92519.7" y="78605.2"
textLength="546.494" font-size="682.415" lengthAdjust="spacingAndGlyphs"
text-anchor="start" opacity="0">5</text>
<path d="M92914 78069
L92671 78069
L92646 78312
L92671 78288
L92719 78263
L92841 78263
L92890 78288
L92914 78312
L92939 78361
L92939 78483
L92914 78532
L92890 78556
L92841 78580
L92719 78580
L92671 78556
L92646 78532
" />
</g>
<g style="fill:#000000; fill-opacity:0.0; 
stroke:#000000; stroke-width:39.3701; stroke-opacity:1; 
stroke-linecap:round; stroke-linejoin:round;">
</g>
<g style="fill:#000000; fill-opacity:0.0; 
stroke:#000000; stroke-width:59.0551; stroke-opacity:1; 
stroke-linecap:round; stroke-linejoin:round;">
<text x="112205" y="78605.2"
textLength="546.494" font-size="682.415" lengthAdjust="spacingAndGlyphs"
text-anchor="start" opacity="0">6</text>
<path d="M112575 78069
L112477 78069
L112429 78093
L112404 78117
L112356 78190
L112331 78288
L112331 78483
L112356 78532
L112380 78556
L112429 78580
L112526 78580
L112575 78556
L112599 78532
L112624 78483
L112624 78361
L112599 78312
L112575 78288
L112526 78263
L112429 78263
L112380 78288
L112356 78312
L112331 78361
" />
</g>
<g style="fill:#000000; fill-opacity:0.0; 
stroke:#000000; stroke-width:39.3701; stroke-opacity:1; 
stroke-linecap:round; stroke-linejoin:round;">
</g>
<g style="fill:#000000; fill-opacity:0.0; 
stroke:#000000; stroke-width:59.0551; stroke-opacity:1; 
stroke-linecap:round; stroke-linejoin:round;">
<path d="M3937 23622
L4724 23622
" />
</g>
<g style="fill:#000000; fill-opacity:0.0; 
stroke:#000000; stroke-width:39.3701; stroke-opacity:1; 
stroke-linecap:round; stroke-linejoin:round;">
</g>
<g style="fill:#000000; fill-opacity:0.0; 
stroke:#000000; stroke-width:59.0551; stroke-opacity:1; 
stroke-linecap:round; stroke-linejoin:round;">
<path d="M3937 43307
L4724 43307
" />
</g>
<g style="fill:#000000; fill-opacity:0.0; 
stroke:#000000; stroke-width:39.3701; stroke-opacity:1; 
stroke-linecap:round; stroke-linejoin:round;">
</g>
<g style="fill:#000000; fill-opacity:0.0; 
stroke:#000000; stroke-width:59.0551; stroke-opacity:1; 
stroke-linecap:round; stroke-linejoin:round;">
<path d="M3937 62992
L4724 62992
" />
</g>
<g style="fill:#000000; fill-opacity:0.0; 
stroke:#000000; stroke-width:39.3701; stroke-opacity:1; 
stroke-linecap:round; stroke-linejoin:round;">
</g>
<g style="fill:#000000; fill-opacity:0.0; 
stroke:#000000; stroke-width:59.0551; stroke-opacity:1; 
stroke-linecap:round; stroke-linejoin:round;">
<text x="4330.71" y="14035.4"
textLength="497.75" font-size="682.415" lengthAdjust="spacingAndGlyphs"
text-anchor="middle" opacity="0">A</text>
<path d="M4208 13864
L4452 13864
" />
<path d="M4160 14011
L4330 13499
L4501 14011
" />
</g>
<g style="fill:#000000; fill-opacity:0.0; 
stroke:#000000; stroke-width:39.3701; stroke-opacity:1; 
stroke-linecap:round; stroke-linejoin:round;">
</g>
<g style="fill:#000000; fill-opacity:0.0; 
stroke:#000000; stroke-width:59.0551; stroke-opacity:1; 
stroke-linecap:round; stroke-linejoin:round;">
<text x="4330.71" y="33720.5"
textLength="570.866" font-size="682.415" lengthAdjust="spacingAndGlyphs"
text-anchor="middle" opacity="0">B</text>
<path d="M4367 33428
L4440 33452
L4464 33476
L4489 33525
L4489 33598
L4464 33647
L4440 33671
L4391 33696
L4196 33696
L4196 33184
L4367 33184
L4416 33208
L4440 33233
L4464 33281
L4464 33330
L4440 33379
L4416 33403
L4367 33428
L4196 33428
" />
</g>
<g style="fill:#000000; fill-opacity:0.0; 
stroke:#000000; stroke-width:39.3701; stroke-opacity:1; 
stroke-linecap:round; stroke-linejoin:round;">
</g>
<g style="fill:#000000; fill-opacity:0.0; 
stroke:#000000; stroke-width:59.0551; stroke-opacity:1; 
stroke-linecap:round; stroke-linejoin:round;">
<text x="4330.71" y="53405.5"
textLength="570.866" font-size="682.415" lengthAdjust="spacingAndGlyphs"
text-anchor="middle" opacity="0">C</text>
<path d="M4489 53332
L4464 53356
L4391 53381
L4342 53381
L4269 53356
L4221 53308
L4196 53259
L4172 53161
L4172 53088
L4196 52991
L4221 52942
L4269 52893
L4342 52869
L4391 52869
L4464 52893
L4489 52918
" />
</g>
<g style="fill:#000000; fill-opacity:0.0; 
stroke:#000000; stroke-width:39.3701; stroke-opacity:1; 
stroke-linecap:round; stroke-linejoin:round;">
</g>
<g style="fill:#000000; fill-opacity:0.0; 
stroke:#000000; stroke-width:59.0551; stroke-opacity:1; 
stroke-linecap:round; stroke-linejoin:round;">
<text x="4330.71" y="73090.6"
textLength="570.866" font-size="682.415" lengthAdjust="spacingAndGlyphs"
text-anchor="middle" opacity="0">D</text>
<path d="M4196 73066
L4196 72554
L4318 72554
L4391 72578
L4440 72627
L4464 72676
L4489 72773
L4489 72846
L4464 72944
L4440 72993
L4391 73041
L4318 73066
L4196 73066
" />
</g>
<g style="fill:#000000; fill-opacity:0.0; 
stroke:#000000; stroke-width:39.3701; stroke-opacity:1; 
stroke-linecap:round; stroke-linejoin:round;">
</g>
<g style="fill:#000000; fill-opacity:0.0; 
stroke:#000000; stroke-width:59.0551; stroke-opacity:1; 
stroke-linecap:round; stroke-linejoin:round;">
<path d="M112992 23622
L112205 23622
" />
</g>
<g style="fill:#000000; fill-opacity:0.0; 
stroke:#000000; stroke-width:39.3701; stroke-opacity:1; 
stroke-linecap:round; stroke-linejoin:round;">
</g>
<g style="fill:#000000; fill-opacity:0.0; 
stroke:#000000; stroke-width:59.0551; stroke-opacity:1; 
stroke-linecap:round; stroke-linejoin:round;">
<path d="M112992 43307
L112205 43307
" />
</g>
<g style="fill:#000000; fill-opacity:0.0; 
stroke:#000000; stroke-width:39.3701; stroke-opacity:1; 
stroke-linecap:round; stroke-linejoin:round;">
</g>
<g style="fill:#000000; fill-opacity:0.0; 
stroke:#000000; stroke-width:59.0551; stroke-opacity:1; 
stroke-linecap:round; stroke-linejoin:round;">
<path d="M112992 62992
L112205 62992
" />
</g>
<g style="fill:#000000; fill-opacity:0.0; 
stroke:#000000; stroke-width:39.3701; stroke-opacity:1; 
stroke-linecap:round; stroke-linejoin:round;">
</g>
<g style="fill:#000000; fill-opacity:0.0; 
stroke:#000000; stroke-width:59.0551; stroke-opacity:1; 
stroke-linecap:round; stroke-linejoin:round;">
<text x="112599" y="14035.4"
textLength="497.75" font-size="682.415" lengthAdjust="spacingAndGlyphs"
text-anchor="middle" opacity="0">A</text>
<path d="M112477 13864
L112721 13864
" />
<path d="M112428 14011
L112599 13499
L112769 14011
" />
</g>
<g style="fill:#000000; fill-opacity:0.0; 
stroke:#000000; stroke-width:39.3701; stroke-opacity:1; 
stroke-linecap:round; stroke-linejoin:round;">
</g>
<g style="fill:#000000; fill-opacity:0.0; 
stroke:#000000; stroke-width:59.0551; stroke-opacity:1; 
stroke-linecap:round; stroke-linejoin:round;">
<text x="112599" y="33720.5"
textLength="570.866" font-size="682.415" lengthAdjust="spacingAndGlyphs"
text-anchor="middle" opacity="0">B</text>
<path d="M112635 33428
L112708 33452
L112733 33476
L112757 33525
L112757 33598
L112733 33647
L112708 33671
L112660 33696
L112465 33696
L112465 33184
L112635 33184
L112684 33208
L112708 33233
L112733 33281
L112733 33330
L112708 33379
L112684 33403
L112635 33428
L112465 33428
" />
</g>
<g style="fill:#000000; fill-opacity:0.0; 
stroke:#000000; stroke-width:39.3701; stroke-opacity:1; 
stroke-linecap:round; stroke-linejoin:round;">
</g>
<g style="fill:#000000; fill-opacity:0.0; 
stroke:#000000; stroke-width:59.0551; stroke-opacity:1; 
stroke-linecap:round; stroke-linejoin:round;">
<text x="112599" y="53405.5"
textLength="570.866" font-size="682.415" lengthAdjust="spacingAndGlyphs"
text-anchor="middle" opacity="0">C</text>
<path d="M112757 53332
L112733 53356
L112660 53381
L112611 53381
L112538 53356
L112489 53308
L112465 53259
L112440 53161
L112440 53088
L112465 52991
L112489 52942
L112538 52893
L112611 52869
L112660 52869
L112733 52893
L112757 52918
" />
</g>
<g style="fill:#000000; fill-opacity:0.0; 
stroke:#000000; stroke-width:39.3701; stroke-opacity:1; 
stroke-linecap:round; stroke-linejoin:round;">
</g>
<g style="fill:#000000; fill-opacity:0.0; 
stroke:#000000; stroke-width:59.0551; stroke-opacity:1; 
stroke-linecap:round; stroke-linejoin:round;">
<text x="112599" y="73090.6"
textLength="570.866" font-size="682.415" lengthAdjust="spacingAndGlyphs"
text-anchor="middle" opacity="0">D</text>
<path d="M112465 73066
L112465 72554
L112587 72554
L112660 72578
L112708 72627
L112733 72676
L112757 72773
L112757 72846
L112733 72944
L112708 72993
L112660 73041
L112587 73066
L112465 73066
" />
</g>
<g style="fill:#000000; fill-opacity:0.0; 
stroke:#000000; stroke-width:39.3701; stroke-opacity:1; 
stroke-linecap:round; stroke-linejoin:round;">
</g>
<g style="fill:#000000; fill-opacity:0.0; 
stroke:#000000; stroke-width:59.0551; stroke-opacity:1; 
stroke-linecap:round; stroke-linejoin:round;">
<text x="78741" y="76321.7"
textLength="2758.72" font-size="787.402" lengthAdjust="spacingAndGlyphs"
text-anchor="start" opacity="0">Date: </text>
<path d="M78911 76293
L78911 75703
L79051 75703
L79136 75731
L79192 75787
L79220 75843
L79248 75956
L79248 76040
L79220 76153
L79192 76209
L79136 76265
L79051 76293
L78911 76293
" />
<path d="M79754 76293
L79754 75984
L79726 75928
L79670 75899
L79557 75899
L79501 75928
" />
<path d="M79754 76265
L79698 76293
L79557 76293
L79501 76265
L79473 76209
L79473 76153
L79501 76096
L79557 76068
L79698 76068
L79754 76040
" />
<path d="M79951 75899
L80176 75899
" />
<path d="M80036 75703
L80036 76209
L80064 76265
L80120 76293
L80176 76293
" />
<path d="M80598 76265
L80542 76293
L80429 76293
L80373 76265
L80345 76209
L80345 75984
L80373 75928
L80429 75899
L80542 75899
L80598 75928
L80626 75984
L80626 76040
L80345 76096
" />
<path d="M80879 76237
L80907 76265
L80879 76293
L80851 76265
L80879 76237
L80879 76293
" />
<path d="M80879 75928
L80907 75956
L80879 75984
L80851 75956
L80879 75928
L80879 75984
" />
</g>
<g style="fill:#000000; fill-opacity:0.0; 
stroke:#000000; stroke-width:39.3701; stroke-opacity:1; 
stroke-linecap:round; stroke-linejoin:round;">
</g>
<g style="fill:#000000; fill-opacity:0.0; 
stroke:#000000; stroke-width:59.0551; stroke-opacity:1; 
stroke-linecap:round; stroke-linejoin:round;">
<path d="M69685 76577
L112205 76577
" />
</g>
<g style="fill:#000000; fill-opacity:0.0; 
stroke:#000000; stroke-width:39.3701; stroke-opacity:1; 
stroke-linecap:round; stroke-linejoin:round;">
</g>
<g style="fill:#000000; fill-opacity:0.0; 
stroke:#000000; stroke-width:59.0551; stroke-opacity:1; 
stroke-linecap:round; stroke-linejoin:round;">
<text x="70079.6" y="77424.1"
textLength="19940.9" font-size="787.402" lengthAdjust="spacingAndGlyphs"
text-anchor="start" opacity="0">KiCad E.D.A.  kicad 5.1.6+dfsg1-1~bpo10+1</text>
<path d="M70249 77395
L70249 76805
" />
<path d="M70587 77395
L70334 77058
" />
<path d="M70587 76805
L70249 77142
" />
<path d="M70840 77395
L70840 77002
" />
<path d="M70840 76805
L70812 76833
L70840 76861
L70868 76833
L70840 76805
L70840 76861
" />
<path d="M71458 77339
L71430 77367
L71346 77395
L71290 77395
L71205 77367
L71149 77311
L71121 77255
L71093 77142
L71093 77058
L71121 76946
L71149 76889
L71205 76833
L71290 76805
L71346 76805
L71430 76833
L71458 76861
" />
<path d="M71965 77395
L71965 77086
L71937 77030
L71880 77002
L71768 77002
L71712 77030
" />
<path d="M71965 77367
L71908 77395
L71768 77395
L71712 77367
L71683 77311
L71683 77255
L71712 77199
L71768 77171
L71908 77171
L71965 77142
" />
<path d="M72499 77395
L72499 76805
" />
<path d="M72499 77367
L72443 77395
L72330 77395
L72274 77367
L72246 77339
L72218 77283
L72218 77114
L72246 77058
L72274 77030
L72330 77002
L72443 77002
L72499 77030
" />
<path d="M73230 77086
L73427 77086
" />
<path d="M73511 77395
L73230 77395
L73230 76805
L73511 76805
" />
<path d="M73764 77339
L73793 77367
L73764 77395
L73736 77367
L73764 77339
L73764 77395
" />
<path d="M74046 77395
L74046 76805
L74186 76805
L74271 76833
L74327 76889
L74355 76946
L74383 77058
L74383 77142
L74355 77255
L74327 77311
L74271 77367
L74186 77395
L74046 77395
" />
<path d="M74636 77339
L74664 77367
L74636 77395
L74608 77367
L74636 77339
L74636 77395
" />
<path d="M74889 77227
L75171 77227
" />
<path d="M74833 77395
L75030 76805
L75227 77395
" />
<path d="M75424 77339
L75452 77367
L75424 77395
L75395 77367
L75424 77339
L75424 77395
" />
<path d="M76605 77395
L76605 76805
" />
<path d="M76661 77171
L76830 77395
" />
<path d="M76830 77002
L76605 77227
" />
<path d="M77083 77395
L77083 77002
" />
<path d="M77083 76805
L77055 76833
L77083 76861
L77111 76833
L77083 76805
L77083 76861
" />
<path d="M77617 77367
L77561 77395
L77448 77395
L77392 77367
L77364 77339
L77336 77283
L77336 77114
L77364 77058
L77392 77030
L77448 77002
L77561 77002
L77617 77030
" />
<path d="M78123 77395
L78123 77086
L78095 77030
L78039 77002
L77926 77002
L77870 77030
" />
<path d="M78123 77367
L78067 77395
L77926 77395
L77870 77367
L77842 77311
L77842 77255
L77870 77199
L77926 77171
L78067 77171
L78123 77142
" />
<path d="M78658 77395
L78658 76805
" />
<path d="M78658 77367
L78601 77395
L78489 77395
L78433 77367
L78404 77339
L78376 77283
L78376 77114
L78404 77058
L78433 77030
L78489 77002
L78601 77002
L78658 77030
" />
<path d="M79670 76805
L79389 76805
L79361 77086
L79389 77058
L79445 77030
L79586 77030
L79642 77058
L79670 77086
L79698 77142
L79698 77283
L79670 77339
L79642 77367
L79586 77395
L79445 77395
L79389 77367
L79361 77339
" />
<path d="M79951 77339
L79979 77367
L79951 77395
L79923 77367
L79951 77339
L79951 77395
" />
<path d="M80542 77395
L80204 77395
" />
<path d="M80373 77395
L80373 76805
L80317 76889
L80260 76946
L80204 76974
" />
<path d="M80795 77339
L80823 77367
L80795 77395
L80767 77367
L80795 77339
L80795 77395
" />
<path d="M81329 76805
L81217 76805
L81160 76833
L81132 76861
L81076 76946
L81048 77058
L81048 77283
L81076 77339
L81104 77367
L81160 77395
L81273 77395
L81329 77367
L81357 77339
L81385 77283
L81385 77142
L81357 77086
L81329 77058
L81273 77030
L81160 77030
L81104 77058
L81076 77086
L81048 77142
" />
<path d="M81638 77171
L82088 77171
" />
<path d="M81863 77395
L81863 76946
" />
<path d="M82623 77395
L82623 76805
" />
<path d="M82623 77367
L82566 77395
L82454 77395
L82398 77367
L82370 77339
L82341 77283
L82341 77114
L82370 77058
L82398 77030
L82454 77002
L82566 77002
L82623 77030
" />
<path d="M82820 77002
L83045 77002
" />
<path d="M82904 77395
L82904 76889
L82932 76833
L82988 76805
L83045 76805
" />
<path d="M83213 77367
L83269 77395
L83382 77395
L83438 77367
L83466 77311
L83466 77283
L83438 77227
L83382 77199
L83298 77199
L83241 77171
L83213 77114
L83213 77086
L83241 77030
L83298 77002
L83382 77002
L83438 77030
" />
<path d="M83973 77002
L83973 77480
L83944 77536
L83916 77564
L83860 77592
L83776 77592
L83719 77564
" />
<path d="M83973 77367
L83916 77395
L83804 77395
L83748 77367
L83719 77339
L83691 77283
L83691 77114
L83719 77058
L83748 77030
L83804 77002
L83916 77002
L83973 77030
" />
<path d="M84563 77395
L84226 77395
" />
<path d="M84394 77395
L84394 76805
L84338 76889
L84282 76946
L84226 76974
" />
<path d="M84816 77171
L85266 77171
" />
<path d="M85857 77395
L85519 77395
" />
<path d="M85688 77395
L85688 76805
L85632 76889
L85575 76946
L85519 76974
" />
<path d="M85969 76644
L86503 76644
" />
<path d="M86110 77395
L86110 76805
" />
<path d="M86110 77030
L86166 77002
L86278 77002
L86335 77030
L86363 77058
L86391 77114
L86391 77283
L86363 77339
L86335 77367
L86278 77395
L86166 77395
L86110 77367
" />
<path d="M86503 76644
L87038 76644
" />
<path d="M86644 77002
L86644 77592
" />
<path d="M86644 77030
L86700 77002
L86813 77002
L86869 77030
L86897 77058
L86925 77114
L86925 77283
L86897 77339
L86869 77367
L86813 77395
L86700 77395
L86644 77367
" />
<path d="M87038 76644
L87572 76644
" />
<path d="M87263 77395
L87206 77367
L87178 77339
L87150 77283
L87150 77114
L87178 77058
L87206 77030
L87263 77002
L87347 77002
L87403 77030
L87431 77058
L87460 77114
L87460 77283
L87431 77339
L87403 77367
L87347 77395
L87263 77395
" />
<path d="M87572 76644
L88135 76644
" />
<path d="M88022 77395
L87685 77395
" />
<path d="M87853 77395
L87853 76805
L87797 76889
L87741 76946
L87685 76974
" />
<path d="M88135 76644
L88697 76644
" />
<path d="M88388 76805
L88444 76805
L88500 76833
L88528 76861
L88556 76917
L88584 77030
L88584 77171
L88556 77283
L88528 77339
L88500 77367
L88444 77395
L88388 77395
L88331 77367
L88303 77339
L88275 77283
L88247 77171
L88247 77030
L88275 76917
L88303 76861
L88331 76833
L88388 76805
" />
<path d="M88697 76644
L89428 76644
" />
<path d="M88838 77171
L89287 77171
" />
<path d="M89063 77395
L89063 76946
" />
<path d="M89428 76644
L89991 76644
" />
<path d="M89878 77395
L89541 77395
" />
<path d="M89709 77395
L89709 76805
L89653 76889
L89597 76946
L89541 76974
" />
</g>
<g style="fill:#000000; fill-opacity:0.0; 
stroke:#000000; stroke-width:39.3701; stroke-opacity:1; 
stroke-linecap:round; stroke-linejoin:round;">
</g>
<g style="fill:#000000; fill-opacity:0.0; 
stroke:#000000; stroke-width:59.0551; stroke-opacity:1; 
stroke-linecap:round; stroke-linejoin:round;">
<path d="M69685 75396
L112205 75396
" />
</g>
<g style="fill:#000000; fill-opacity:0.0; 
stroke:#000000; stroke-width:39.3701; stroke-opacity:1; 
stroke-linecap:round; stroke-linejoin:round;">
</g>
<g style="fill:#000000; fill-opacity:0.0; 
stroke:#000000; stroke-width:118.11; stroke-opacity:1; 
stroke-linecap:round; stroke-linejoin:round;">
<text x="103544" y="76321.7"
textLength="2336.9" font-size="787.402" lengthAdjust="spacingAndGlyphs"
text-anchor="start" opacity="0">Rev: </text>
<path d="M104099 76293
L103902 76012
" />
<path d="M103761 76293
L103761 75703
L103986 75703
L104042 75731
L104070 75759
L104099 75815
L104099 75899
L104070 75956
L104042 75984
L103986 76012
L103761 76012
" />
<path d="M104577 76265
L104520 76293
L104408 76293
L104352 76265
L104323 76209
L104323 75984
L104352 75928
L104408 75899
L104520 75899
L104577 75928
L104605 75984
L104605 76040
L104323 76096
" />
<path d="M104802 75899
L104942 76293
L105083 75899
" />
<path d="M105308 76237
L105336 76265
L105308 76293
L105280 76265
L105308 76237
L105308 76293
" />
<path d="M105308 75928
L105336 75956
L105308 75984
L105280 75956
L105308 75928
L105308 75984
" />
</g>
<g style="fill:#000000; fill-opacity:0.0; 
stroke:#000000; stroke-width:39.3701; stroke-opacity:1; 
stroke-linecap:round; stroke-linejoin:round;">
</g>
<g style="fill:#000000; fill-opacity:0.0; 
stroke:#000000; stroke-width:59.0551; stroke-opacity:1; 
stroke-linecap:round; stroke-linejoin:round;">
<text x="70079.6" y="76321.7"
textLength="3781.21" font-size="787.402" lengthAdjust="spacingAndGlyphs"
text-anchor="start" opacity="0">Size: A4</text>
<path d="M70221 76265
L70305 76293
L70446 76293
L70502 76265
L70530 76237
L70559 76181
L70559 76124
L70530 76068
L70502 76040
L70446 76012
L70334 75984
L70277 75956
L70249 75928
L70221 75871
L70221 75815
L70249 75759
L70277 75731
L70334 75703
L70474 75703
L70559 75731
" />
<path d="M70812 76293
L70812 75899
" />
<path d="M70812 75703
L70784 75731
L70812 75759
L70840 75731
L70812 75703
L70812 75759
" />
<path d="M71037 75899
L71346 75899
L71037 76293
L71346 76293
" />
<path d="M71796 76265
L71740 76293
L71627 76293
L71571 76265
L71543 76209
L71543 75984
L71571 75928
L71627 75899
L71740 75899
L71796 75928
L71824 75984
L71824 76040
L71543 76096
" />
<path d="M72077 76237
L72105 76265
L72077 76293
L72049 76265
L72077 76237
L72077 76293
" />
<path d="M72077 75928
L72105 75956
L72077 75984
L72049 75956
L72077 75928
L72077 75984
" />
<path d="M72780 76124
L73061 76124
" />
<path d="M72724 76293
L72921 75703
L73118 76293
" />
<path d="M73568 75899
L73568 76293
" />
<path d="M73427 75674
L73286 76096
L73652 76096
" />
</g>
<g style="fill:#000000; fill-opacity:0.0; 
stroke:#000000; stroke-width:39.3701; stroke-opacity:1; 
stroke-linecap:round; stroke-linejoin:round;">
</g>
<g style="fill:#000000; fill-opacity:0.0; 
stroke:#000000; stroke-width:59.0551; stroke-opacity:1; 
stroke-linecap:round; stroke-linejoin:round;">
<text x="103544" y="77424.1"
textLength="3349.27" font-size="787.402" lengthAdjust="spacingAndGlyphs"
text-anchor="start" opacity="0">Id: 1/1</text>
<path d="M103714 77395
L103714 76805
" />
<path d="M104248 77395
L104248 76805
" />
<path d="M104248 77367
L104192 77395
L104079 77395
L104023 77367
L103995 77339
L103967 77283
L103967 77114
L103995 77058
L104023 77030
L104079 77002
L104192 77002
L104248 77030
" />
<path d="M104529 77339
L104557 77367
L104529 77395
L104501 77367
L104529 77339
L104529 77395
" />
<path d="M104529 77030
L104557 77058
L104529 77086
L104501 77058
L104529 77030
L104529 77086
" />
<path d="M105570 77395
L105232 77395
" />
<path d="M105401 77395
L105401 76805
L105345 76889
L105289 76946
L105232 76974
" />
<path d="M106245 76777
L105739 77536
" />
<path d="M106751 77395
L106413 77395
" />
<path d="M106582 77395
L106582 76805
L106526 76889
L106470 76946
L106413 76974
" />
</g>
<g style="fill:#000000; fill-opacity:0.0; 
stroke:#000000; stroke-width:39.3701; stroke-opacity:1; 
stroke-linecap:round; stroke-linejoin:round;">
</g>
<g style="fill:#000000; fill-opacity:0.0; 
stroke:#000000; stroke-width:59.0551; stroke-opacity:1; 
stroke-linecap:round; stroke-linejoin:round;">
<path d="M69685 73821
L112205 73821
" />
</g>
<g style="fill:#000000; fill-opacity:0.0; 
stroke:#000000; stroke-width:39.3701; stroke-opacity:1; 
stroke-linecap:round; stroke-linejoin:round;">
</g>
<g style="fill:#000000; fill-opacity:0.0; 
stroke:#000000; stroke-width:157.48; stroke-opacity:1; 
stroke-linecap:round; stroke-linejoin:round;">
<text x="70079.6" y="74924.1"
textLength="3701.14" font-size="1049.87" lengthAdjust="spacingAndGlyphs"
text-anchor="start" opacity="0">Title: </text>
<path d="M70360 74099
L70810 74099
" />
<path d="M70486 74886
L70585 74099
" />
<path d="M70974 74886
L71039 74361
" />
<path d="M71072 74099
L71030 74136
L71063 74174
L71105 74136
L71072 74099
L71063 74174
" />
<path d="M71302 74361
L71602 74361
" />
<path d="M71447 74099
L71363 74774
L71391 74849
L71461 74886
L71536 74886
" />
<path d="M71911 74886
L71841 74849
L71813 74774
L71897 74099
" />
<path d="M72516 74849
L72436 74886
L72286 74886
L72216 74849
L72187 74774
L72225 74474
L72272 74399
L72352 74361
L72501 74361
L72572 74399
L72600 74474
L72591 74549
L72206 74624
" />
<path d="M72895 74811
L72928 74849
L72886 74886
L72853 74849
L72895 74811
L72886 74886
" />
<path d="M72947 74399
L72980 74436
L72937 74474
L72905 74436
L72947 74399
L72937 74474
" />
</g>
<g style="fill:#000000; fill-opacity:0.0; 
stroke:#000000; stroke-width:39.3701; stroke-opacity:1; 
stroke-linecap:round; stroke-linejoin:round;">
</g>
<g style="fill:#000000; fill-opacity:0.0; 
stroke:#000000; stroke-width:59.0551; stroke-opacity:1; 
stroke-linecap:round; stroke-linejoin:round;">
<text x="70079.6" y="73408.3"
textLength="8894.26" font-size="787.402" lengthAdjust="spacingAndGlyphs"
text-anchor="start" opacity="0">File: diy_.kicad_pcb</text>
<path d="M70446 73070
L70249 73070
" />
<path d="M70249 73380
L70249 72789
L70530 72789
" />
<path d="M70755 73380
L70755 72986
" />
<path d="M70755 72789
L70727 72817
L70755 72845
L70784 72817
L70755 72789
L70755 72845
" />
<path d="M71121 73380
L71065 73352
L71037 73295
L71037 72789
" />
<path d="M71571 73352
L71515 73380
L71402 73380
L71346 73352
L71318 73295
L71318 73070
L71346 73014
L71402 72986
L71515 72986
L71571 73014
L71599 73070
L71599 73127
L71318 73183
" />
<path d="M71852 73323
L71880 73352
L71852 73380
L71824 73352
L71852 73323
L71852 73380
" />
<path d="M71852 73014
L71880 73042
L71852 73070
L71824 73042
L71852 73014
L71852 73070
" />
<path d="M72836 73380
L72836 72789
" />
<path d="M72836 73352
L72780 73380
L72668 73380
L72611 73352
L72583 73323
L72555 73267
L72555 73099
L72583 73042
L72611 73014
L72668 72986
L72780 72986
L72836 73014
" />
<path d="M73118 73380
L73118 72986
" />
<path d="M73118 72789
L73090 72817
L73118 72845
L73146 72817
L73118 72789
L73118 72845
" />
<path d="M73343 72986
L73483 73380
" />
<path d="M73624 72986
L73483 73380
L73427 73520
L73399 73548
L73343 73577
" />
<path d="M73708 73436
L74158 73436
" />
<path d="M74299 73323
L74327 73352
L74299 73380
L74271 73352
L74299 73323
L74299 73380
" />
<path d="M74580 73380
L74580 72789
" />
<path d="M74636 73155
L74805 73380
" />
<path d="M74805 72986
L74580 73211
" />
<path d="M75058 73380
L75058 72986
" />
<path d="M75058 72789
L75030 72817
L75058 72845
L75086 72817
L75058 72789
L75058 72845
" />
<path d="M75592 73352
L75536 73380
L75424 73380
L75367 73352
L75339 73323
L75311 73267
L75311 73099
L75339 73042
L75367 73014
L75424 72986
L75536 72986
L75592 73014
" />
<path d="M76099 73380
L76099 73070
L76070 73014
L76014 72986
L75902 72986
L75845 73014
" />
<path d="M76099 73352
L76042 73380
L75902 73380
L75845 73352
L75817 73295
L75817 73239
L75845 73183
L75902 73155
L76042 73155
L76099 73127
" />
<path d="M76633 73380
L76633 72789
" />
<path d="M76633 73352
L76577 73380
L76464 73380
L76408 73352
L76380 73323
L76352 73267
L76352 73099
L76380 73042
L76408 73014
L76464 72986
L76577 72986
L76633 73014
" />
<path d="M76773 73436
L77223 73436
" />
<path d="M77364 72986
L77364 73577
" />
<path d="M77364 73014
L77420 72986
L77533 72986
L77589 73014
L77617 73042
L77645 73099
L77645 73267
L77617 73323
L77589 73352
L77533 73380
L77420 73380
L77364 73352
" />
<path d="M78151 73352
L78095 73380
L77983 73380
L77926 73352
L77898 73323
L77870 73267
L77870 73099
L77898 73042
L77926 73014
L77983 72986
L78095 72986
L78151 73014
" />
<path d="M78404 73380
L78404 72789
" />
<path d="M78404 73014
L78461 72986
L78573 72986
L78629 73014
L78658 73042
L78686 73099
L78686 73267
L78658 73323
L78629 73352
L78573 73380
L78461 73380
L78404 73352
" />
</g>
<g style="fill:#000000; fill-opacity:0.0; 
stroke:#000000; stroke-width:39.3701; stroke-opacity:1; 
stroke-linecap:round; stroke-linejoin:round;">
</g>
<g style="fill:#000000; fill-opacity:0.0; 
stroke:#000000; stroke-width:59.0551; stroke-opacity:1; 
stroke-linecap:round; stroke-linejoin:round;">
<path d="M69685 71459
L112205 71459
" />
</g>
<g style="fill:#000000; fill-opacity:0.0; 
stroke:#000000; stroke-width:39.3701; stroke-opacity:1; 
stroke-linecap:round; stroke-linejoin:round;">
</g>
<g style="fill:#000000; fill-opacity:0.0; 
stroke:#000000; stroke-width:59.0551; stroke-opacity:1; 
stroke-linecap:round; stroke-linejoin:round;">
<text x="70079.6" y="72345.4"
textLength="3236.78" font-size="787.402" lengthAdjust="spacingAndGlyphs"
text-anchor="start" opacity="0">Sheet: </text>
<path d="M70221 72289
L70305 72317
L70446 72317
L70502 72289
L70530 72260
L70559 72204
L70559 72148
L70530 72092
L70502 72064
L70446 72036
L70334 72007
L70277 71979
L70249 71951
L70221 71895
L70221 71839
L70249 71782
L70277 71754
L70334 71726
L70474 71726
L70559 71754
" />
<path d="M70812 72317
L70812 71726
" />
<path d="M71065 72317
L71065 72007
L71037 71951
L70980 71923
L70896 71923
L70840 71951
L70812 71979
" />
<path d="M71571 72289
L71515 72317
L71402 72317
L71346 72289
L71318 72232
L71318 72007
L71346 71951
L71402 71923
L71515 71923
L71571 71951
L71599 72007
L71599 72064
L71318 72120
" />
<path d="M72077 72289
L72021 72317
L71908 72317
L71852 72289
L71824 72232
L71824 72007
L71852 71951
L71908 71923
L72021 71923
L72077 71951
L72105 72007
L72105 72064
L71824 72120
" />
<path d="M72274 71923
L72499 71923
" />
<path d="M72358 71726
L72358 72232
L72386 72289
L72443 72317
L72499 72317
" />
<path d="M72696 72260
L72724 72289
L72696 72317
L72668 72289
L72696 72260
L72696 72317
" />
<path d="M72696 71951
L72724 71979
L72696 72007
L72668 71979
L72696 71951
L72696 72007
" />
</g>
<g style="fill:#000000; fill-opacity:0.0; 
stroke:#000000; stroke-width:39.3701; stroke-opacity:1; 
stroke-linecap:round; stroke-linejoin:round;">
</g>
<g style="fill:#000000; fill-opacity:0.0; 
stroke:#000000; stroke-width:59.0551; stroke-opacity:1; 
stroke-linecap:round; stroke-linejoin:round;">
<path d="M77559 75396
L77559 76577
" />
</g>
<g style="fill:#000000; fill-opacity:0.0; 
stroke:#000000; stroke-width:39.3701; stroke-opacity:1; 
stroke-linecap:round; stroke-linejoin:round;">
</g>
<g style="fill:#000000; fill-opacity:0.0; 
stroke:#000000; stroke-width:59.0551; stroke-opacity:1; 
stroke-linecap:round; stroke-linejoin:round;">
<path d="M102756 75396
L102756 77955
" />
</g>
<g style="fill:#C2C200; fill-opacity:0.0; 
stroke:#C2C200; stroke-width:59.0551; stroke-opacity:1; 
stroke-linecap:round; stroke-linejoin:round;">
<text x="35700" y="33108.7"
textLength="3471.13" font-size="524.934" lengthAdjust="spacingAndGlyphs"
text-anchor="middle" opacity="0">28.956 mm</text>
<path d="M34068 32733
L34087 32714
L34125 32696
L34218 32696
L34256 32714
L34275 32733
L34293 32771
L34293 32808
L34275 32864
L34050 33089
L34293 33089
" />
<path d="M34518 32864
L34481 32846
L34462 32827
L34443 32789
L34443 32771
L34462 32733
L34481 32714
L34518 32696
L34593 32696
L34631 32714
L34650 32733
L34668 32771
L34668 32789
L34650 32827
L34631 32846
L34593 32864
L34518 32864
L34481 32883
L34462 32902
L34443 32939
L34443 33014
L34462 33052
L34481 33071
L34518 33089
L34593 33089
L34631 33071
L34650 33052
L34668 33014
L34668 32939
L34650 32902
L34631 32883
L34593 32864
" />
<path d="M34837 33052
L34856 33071
L34837 33089
L34818 33071
L34837 33052
L34837 33089
" />
<path d="M35043 33089
L35118 33089
L35156 33071
L35175 33052
L35212 32996
L35231 32921
L35231 32771
L35212 32733
L35193 32714
L35156 32696
L35081 32696
L35043 32714
L35025 32733
L35006 32771
L35006 32864
L35025 32902
L35043 32921
L35081 32939
L35156 32939
L35193 32921
L35212 32902
L35231 32864
" />
<path d="M35587 32696
L35400 32696
L35381 32883
L35400 32864
L35437 32846
L35531 32846
L35568 32864
L35587 32883
L35606 32921
L35606 33014
L35587 33052
L35568 33071
L35531 33089
L35437 33089
L35400 33071
L35381 33052
" />
<path d="M35943 32696
L35868 32696
L35831 32714
L35812 32733
L35774 32789
L35756 32864
L35756 33014
L35774 33052
L35793 33071
L35831 33089
L35906 33089
L35943 33071
L35962 33052
L35981 33014
L35981 32921
L35962 32883
L35943 32864
L35906 32846
L35831 32846
L35793 32864
L35774 32883
L35756 32921
" />
<path d="M36449 33089
L36449 32827
" />
<path d="M36449 32864
L36468 32846
L36506 32827
L36562 32827
L36599 32846
L36618 32883
L36618 33089
" />
<path d="M36618 32883
L36637 32846
L36674 32827
L36731 32827
L36768 32846
L36787 32883
L36787 33089
" />
<path d="M36974 33089
L36974 32827
" />
<path d="M36974 32864
L36993 32846
L37031 32827
L37087 32827
L37124 32846
L37143 32883
L37143 33089
" />
<path d="M37143 32883
L37162 32846
L37199 32827
L37256 32827
L37293 32846
L37312 32883
L37312 33089
" />
<path d="M30000 32400
L41400 32400
" />
<path d="M30000 32000
L30000 32630
" />
<path d="M41400 32000
L41400 32630
" />
<path d="M41400 32400
L40956 32630
" />
<path d="M41400 32400
L40956 32169
" />
<path d="M30000 32400
L30443 32630
" />
<path d="M30000 32400
L30443 32169
" />
<g transform="rotate(-270 28888.2 34900)">
<text x="28888.2" y="35096.9"
textLength="3113.89" font-size="524.934" lengthAdjust="spacingAndGlyphs"
text-anchor="middle" opacity="0">4.064 mm</text>
</g>
<path d="M28972 33643
L28710 33643
" />
<path d="M29122 33550
L28841 33456
L28841 33700
" />
<path d="M28747 33850
L28728 33868
L28710 33850
L28728 33831
L28747 33850
L28710 33850
" />
<path d="M29103 34112
L29103 34150
L29085 34187
L29066 34206
L29028 34225
L28953 34243
L28860 34243
L28785 34225
L28747 34206
L28728 34187
L28710 34150
L28710 34112
L28728 34075
L28747 34056
L28785 34037
L28860 34018
L28953 34018
L29028 34037
L29066 34056
L29085 34075
L29103 34112
" />
<path d="M29103 34581
L29103 34506
L29085 34468
L29066 34450
L29010 34412
L28935 34393
L28785 34393
L28747 34412
L28728 34431
L28710 34468
L28710 34543
L28728 34581
L28747 34600
L28785 34618
L28878 34618
L28916 34600
L28935 34581
L28953 34543
L28953 34468
L28935 34431
L28916 34412
L28878 34393
" />
<path d="M28972 34956
L28710 34956
" />
<path d="M29122 34862
L28841 34768
L28841 35012
" />
<path d="M28710 35462
L28972 35462
" />
<path d="M28935 35462
L28953 35481
L28972 35518
L28972 35574
L28953 35612
L28916 35631
L28710 35631
" />
<path d="M28916 35631
L28953 35649
L28972 35687
L28972 35743
L28953 35781
L28916 35799
L28710 35799
" />
<path d="M28710 35987
L28972 35987
" />
<path d="M28935 35987
L28953 36006
L28972 36043
L28972 36099
L28953 36137
L28916 36156
L28710 36156
" />
<path d="M28916 36156
L28953 36174
L28972 36212
L28972 36268
L28953 36306
L28916 36324
L28710 36324
" />
<path d="M29400 34100
L29400 35700
" />
<path d="M29700 34100
L29169 34100
" />
<path d="M29700 35700
L29169 35700
" />
<path d="M29400 35700
L29169 35256
" />
<path d="M29400 35700
L29630 35256
" />
<path d="M29400 34100
L29169 34543
" />
<path d="M29400 34100
L29630 34543
" />
<text x="30800" y="33285"
textLength="3113.89" font-size="524.934" lengthAdjust="spacingAndGlyphs"
text-anchor="middle" opacity="0">4.064 mm</text>
<path d="M29543 33003
L29543 33266
" />
<path d="M29450 32853
L29356 33135
L29600 33135
" />
<path d="M29750 33228
L29768 33247
L29750 33266
L29731 33247
L29750 33228
L29750 33266
" />
<path d="M30012 32872
L30050 32872
L30087 32891
L30106 32910
L30125 32947
L30143 33022
L30143 33116
L30125 33191
L30106 33228
L30087 33247
L30050 33266
L30012 33266
L29975 33247
L29956 33228
L29937 33191
L29918 33116
L29918 33022
L29937 32947
L29956 32910
L29975 32891
L30012 32872
" />
<path d="M30481 32872
L30406 32872
L30368 32891
L30350 32910
L30312 32966
L30293 33041
L30293 33191
L30312 33228
L30331 33247
L30368 33266
L30443 33266
L30481 33247
L30500 33228
L30518 33191
L30518 33097
L30500 33060
L30481 33041
L30443 33022
L30368 33022
L30331 33041
L30312 33060
L30293 33097
" />
<path d="M30856 33003
L30856 33266
" />
<path d="M30762 32853
L30668 33135
L30912 33135
" />
<path d="M31362 33266
L31362 33003
" />
<path d="M31362 33041
L31381 33022
L31418 33003
L31474 33003
L31512 33022
L31531 33060
L31531 33266
" />
<path d="M31531 33060
L31549 33022
L31587 33003
L31643 33003
L31681 33022
L31699 33060
L31699 33266
" />
<path d="M31887 33266
L31887 33003
" />
<path d="M31887 33041
L31906 33022
L31943 33003
L31999 33003
L32037 33022
L32056 33060
L32056 33266
" />
<path d="M32056 33060
L32074 33022
L32112 33003
L32168 33003
L32206 33022
L32224 33060
L32224 33266
" />
<path d="M30000 33600
L31600 33600
" />
<path d="M30000 33800
L30000 33369
" />
<path d="M31600 33800
L31600 33369
" />
<path d="M31600 33600
L31156 33830
" />
<path d="M31600 33600
L31156 33369
" />
<path d="M30000 33600
L30443 33830
" />
<path d="M30000 33600
L30443 33369
" />
<text x="52000" y="33085"
textLength="3113.89" font-size="524.934" lengthAdjust="spacingAndGlyphs"
text-anchor="middle" opacity="0">6.096 mm</text>
<path d="M50743 32672
L50668 32672
L50631 32691
L50612 32710
L50575 32766
L50556 32841
L50556 32991
L50575 33028
L50593 33047
L50631 33066
L50706 33066
L50743 33047
L50762 33028
L50781 32991
L50781 32897
L50762 32860
L50743 32841
L50706 32822
L50631 32822
L50593 32841
L50575 32860
L50556 32897
" />
<path d="M50950 33028
L50968 33047
L50950 33066
L50931 33047
L50950 33028
L50950 33066
" />
<path d="M51212 32672
L51250 32672
L51287 32691
L51306 32710
L51325 32747
L51343 32822
L51343 32916
L51325 32991
L51306 33028
L51287 33047
L51250 33066
L51212 33066
L51175 33047
L51156 33028
L51137 32991
L51118 32916
L51118 32822
L51137 32747
L51156 32710
L51175 32691
L51212 32672
" />
<path d="M51531 33066
L51606 33066
L51643 33047
L51662 33028
L51700 32972
L51718 32897
L51718 32747
L51700 32710
L51681 32691
L51643 32672
L51568 32672
L51531 32691
L51512 32710
L51493 32747
L51493 32841
L51512 32878
L51531 32897
L51568 32916
L51643 32916
L51681 32897
L51700 32878
L51718 32841
" />
<path d="M52056 32672
L51981 32672
L51943 32691
L51925 32710
L51887 32766
L51868 32841
L51868 32991
L51887 33028
L51906 33047
L51943 33066
L52018 33066
L52056 33047
L52074 33028
L52093 32991
L52093 32897
L52074 32860
L52056 32841
L52018 32822
L51943 32822
L51906 32841
L51887 32860
L51868 32897
" />
<path d="M52562 33066
L52562 32803
" />
<path d="M52562 32841
L52581 32822
L52618 32803
L52674 32803
L52712 32822
L52731 32860
L52731 33066
" />
<path d="M52731 32860
L52749 32822
L52787 32803
L52843 32803
L52881 32822
L52899 32860
L52899 33066
" />
<path d="M53087 33066
L53087 32803
" />
<path d="M53087 32841
L53106 32822
L53143 32803
L53199 32803
L53237 32822
L53256 32860
L53256 33066
" />
<path d="M53256 32860
L53274 32822
L53312 32803
L53368 32803
L53406 32822
L53424 32860
L53424 33066
" />
<path d="M53200 33400
L50800 33400
" />
<path d="M53200 34000
L53200 33169
" />
<path d="M50800 34000
L50800 33169
" />
<path d="M50800 33400
L51243 33169
" />
<path d="M50800 33400
L51243 33630
" />
<path d="M53200 33400
L52756 33169
" />
<path d="M53200 33400
L52756 33630
" />
<g transform="rotate(-270 56311.8 34800)">
<text x="56311.8" y="34996.9"
textLength="3113.89" font-size="524.934" lengthAdjust="spacingAndGlyphs"
text-anchor="middle" opacity="0">3.556 mm</text>
</g>
<path d="M56527 33337
L56527 33581
L56377 33450
L56377 33506
L56358 33543
L56339 33562
L56302 33581
L56208 33581
L56171 33562
L56152 33543
L56133 33506
L56133 33393
L56152 33356
L56171 33337
" />
<path d="M56171 33750
L56152 33768
L56133 33750
L56152 33731
L56171 33750
L56133 33750
" />
<path d="M56527 34125
L56527 33937
L56339 33918
L56358 33937
L56377 33975
L56377 34068
L56358 34106
L56339 34125
L56302 34143
L56208 34143
L56171 34125
L56152 34106
L56133 34068
L56133 33975
L56152 33937
L56171 33918
" />
<path d="M56527 34500
L56527 34312
L56339 34293
L56358 34312
L56377 34350
L56377 34443
L56358 34481
L56339 34500
L56302 34518
L56208 34518
L56171 34500
L56152 34481
L56133 34443
L56133 34350
L56152 34312
L56171 34293
" />
<path d="M56527 34856
L56527 34781
L56508 34743
L56489 34725
L56433 34687
L56358 34668
L56208 34668
L56171 34687
L56152 34706
L56133 34743
L56133 34818
L56152 34856
L56171 34874
L56208 34893
L56302 34893
L56339 34874
L56358 34856
L56377 34818
L56377 34743
L56358 34706
L56339 34687
L56302 34668
" />
<path d="M56133 35362
L56396 35362
" />
<path d="M56358 35362
L56377 35381
L56396 35418
L56396 35474
L56377 35512
L56339 35531
L56133 35531
" />
<path d="M56339 35531
L56377 35549
L56396 35587
L56396 35643
L56377 35681
L56339 35699
L56133 35699
" />
<path d="M56133 35887
L56396 35887
" />
<path d="M56358 35887
L56377 35906
L56396 35943
L56396 35999
L56377 36037
L56339 36056
L56133 36056
" />
<path d="M56339 36056
L56377 36074
L56396 36112
L56396 36168
L56377 36206
L56339 36224
L56133 36224
" />
<path d="M55800 34100
L55800 35500
" />
<path d="M55400 34100
L56030 34100
" />
<path d="M55400 35500
L56030 35500
" />
<path d="M55800 35500
L55569 35056
" />
<path d="M55800 35500
L56030 35056
" />
<path d="M55800 34100
L55569 34543
" />
<path d="M55800 34100
L56030 34543
" />
<g transform="rotate(-90 57311.8 41550)">
<text x="57311.8" y="41746.9"
textLength="3488.85" font-size="524.934" lengthAdjust="spacingAndGlyphs"
text-anchor="middle" opacity="0">37.846 mm</text>
</g>
<path d="M57096 43199
L57096 42956
L57246 43087
L57246 43031
L57264 42993
L57283 42974
L57321 42956
L57414 42956
L57452 42974
L57471 42993
L57489 43031
L57489 43143
L57471 43181
L57452 43199
" />
<path d="M57096 42824
L57096 42562
L57489 42731
" />
<path d="M57452 42412
L57471 42393
L57489 42412
L57471 42431
L57452 42412
L57489 42412
" />
<path d="M57264 42168
L57246 42206
L57227 42224
L57189 42243
L57171 42243
L57133 42224
L57114 42206
L57096 42168
L57096 42093
L57114 42056
L57133 42037
L57171 42018
L57189 42018
L57227 42037
L57246 42056
L57264 42093
L57264 42168
L57283 42206
L57302 42224
L57339 42243
L57414 42243
L57452 42224
L57471 42206
L57489 42168
L57489 42093
L57471 42056
L57452 42037
L57414 42018
L57339 42018
L57302 42037
L57283 42056
L57264 42093
" />
<path d="M57227 41681
L57489 41681
" />
<path d="M57077 41774
L57358 41868
L57358 41624
" />
<path d="M57096 41306
L57096 41381
L57114 41418
L57133 41437
L57189 41475
L57264 41493
L57414 41493
L57452 41475
L57471 41456
L57489 41418
L57489 41343
L57471 41306
L57452 41287
L57414 41268
L57321 41268
L57283 41287
L57264 41306
L57246 41343
L57246 41418
L57264 41456
L57283 41475
L57321 41493
" />
<path d="M57489 40800
L57227 40800
" />
<path d="M57264 40800
L57246 40781
L57227 40743
L57227 40687
L57246 40650
L57283 40631
L57489 40631
" />
<path d="M57283 40631
L57246 40612
L57227 40575
L57227 40518
L57246 40481
L57283 40462
L57489 40462
" />
<path d="M57489 40275
L57227 40275
" />
<path d="M57264 40275
L57246 40256
L57227 40218
L57227 40162
L57246 40125
L57283 40106
L57489 40106
" />
<path d="M57283 40106
L57246 40087
L57227 40050
L57227 39993
L57246 39956
L57283 39937
L57489 39937
" />
<path d="M56800 49000
L56800 34100
" />
<path d="M56000 49000
L57030 49000
" />
<path d="M56000 34100
L57030 34100
" />
<path d="M56800 34100
L57030 34543
" />
<path d="M56800 34100
L56569 34543
" />
<path d="M56800 49000
L57030 48556
" />
<path d="M56800 49000
L56569 48556
" />
<text x="52400" y="50308.7"
textLength="3113.89" font-size="524.934" lengthAdjust="spacingAndGlyphs"
text-anchor="middle" opacity="0">4.064 mm</text>
<path d="M51143 50027
L51143 50289
" />
<path d="M51050 49877
L50956 50158
L51200 50158
" />
<path d="M51350 50252
L51368 50271
L51350 50289
L51331 50271
L51350 50252
L51350 50289
" />
<path d="M51612 49896
L51650 49896
L51687 49914
L51706 49933
L51725 49971
L51743 50046
L51743 50139
L51725 50214
L51706 50252
L51687 50271
L51650 50289
L51612 50289
L51575 50271
L51556 50252
L51537 50214
L51518 50139
L51518 50046
L51537 49971
L51556 49933
L51575 49914
L51612 49896
" />
<path d="M52081 49896
L52006 49896
L51968 49914
L51950 49933
L51912 49989
L51893 50064
L51893 50214
L51912 50252
L51931 50271
L51968 50289
L52043 50289
L52081 50271
L52100 50252
L52118 50214
L52118 50121
L52100 50083
L52081 50064
L52043 50046
L51968 50046
L51931 50064
L51912 50083
L51893 50121
" />
<path d="M52456 50027
L52456 50289
" />
<path d="M52362 49877
L52268 50158
L52512 50158
" />
<path d="M52962 50289
L52962 50027
" />
<path d="M52962 50064
L52981 50046
L53018 50027
L53074 50027
L53112 50046
L53131 50083
L53131 50289
" />
<path d="M53131 50083
L53149 50046
L53187 50027
L53243 50027
L53281 50046
L53299 50083
L53299 50289
" />
<path d="M53487 50289
L53487 50027
" />
<path d="M53487 50064
L53506 50046
L53543 50027
L53599 50027
L53637 50046
L53656 50083
L53656 50289
" />
<path d="M53656 50083
L53674 50046
L53712 50027
L53768 50027
L53806 50046
L53824 50083
L53824 50289
" />
<path d="M53200 49600
L51600 49600
" />
<path d="M53200 49100
L53200 49830
" />
<path d="M51600 49100
L51600 49830
" />
<path d="M51600 49600
L52043 49369
" />
<path d="M51600 49600
L52043 49830
" />
<path d="M53200 49600
L52756 49369
" />
<path d="M53200 49600
L52756 49830
" />
<g transform="rotate(-90 55311.8 48200)">
<text x="55311.8" y="48396.9"
textLength="3113.89" font-size="524.934" lengthAdjust="spacingAndGlyphs"
text-anchor="middle" opacity="0">4.064 mm</text>
</g>
<path d="M55227 49456
L55489 49456
" />
<path d="M55077 49549
L55358 49643
L55358 49399
" />
<path d="M55452 49249
L55471 49231
L55489 49249
L55471 49268
L55452 49249
L55489 49249
" />
<path d="M55096 48987
L55096 48949
L55114 48912
L55133 48893
L55171 48874
L55246 48856
L55339 48856
L55414 48874
L55452 48893
L55471 48912
L55489 48949
L55489 48987
L55471 49024
L55452 49043
L55414 49062
L55339 49081
L55246 49081
L55171 49062
L55133 49043
L55114 49024
L55096 48987
" />
<path d="M55096 48518
L55096 48593
L55114 48631
L55133 48649
L55189 48687
L55264 48706
L55414 48706
L55452 48687
L55471 48668
L55489 48631
L55489 48556
L55471 48518
L55452 48499
L55414 48481
L55321 48481
L55283 48499
L55264 48518
L55246 48556
L55246 48631
L55264 48668
L55283 48687
L55321 48706
" />
<path d="M55227 48143
L55489 48143
" />
<path d="M55077 48237
L55358 48331
L55358 48087
" />
<path d="M55489 47637
L55227 47637
" />
<path d="M55264 47637
L55246 47618
L55227 47581
L55227 47525
L55246 47487
L55283 47468
L55489 47468
" />
<path d="M55283 47468
L55246 47450
L55227 47412
L55227 47356
L55246 47318
L55283 47300
L55489 47300
" />
<path d="M55489 47112
L55227 47112
" />
<path d="M55264 47112
L55246 47093
L55227 47056
L55227 47000
L55246 46962
L55283 46943
L55489 46943
" />
<path d="M55283 46943
L55246 46925
L55227 46887
L55227 46831
L55246 46793
L55283 46775
L55489 46775
" />
<path d="M54800 49000
L54800 47400
" />
<path d="M54000 49000
L55030 49000
" />
<path d="M54000 47400
L55030 47400
" />
<path d="M54800 47400
L55030 47843
" />
<path d="M54800 47400
L54569 47843
" />
<path d="M54800 49000
L55030 48556
" />
<path d="M54800 49000
L54569 48556
" />
<text x="41600" y="51708.7"
textLength="3488.85" font-size="524.934" lengthAdjust="spacingAndGlyphs"
text-anchor="middle" opacity="0">58.928 mm</text>
<path d="M40175 51296
L39987 51296
L39968 51483
L39987 51464
L40025 51446
L40118 51446
L40156 51464
L40175 51483
L40193 51521
L40193 51614
L40175 51652
L40156 51671
L40118 51689
L40025 51689
L39987 51671
L39968 51652
" />
<path d="M40418 51464
L40381 51446
L40362 51427
L40343 51389
L40343 51371
L40362 51333
L40381 51314
L40418 51296
L40493 51296
L40531 51314
L40550 51333
L40568 51371
L40568 51389
L40550 51427
L40531 51446
L40493 51464
L40418 51464
L40381 51483
L40362 51502
L40343 51539
L40343 51614
L40362 51652
L40381 51671
L40418 51689
L40493 51689
L40531 51671
L40550 51652
L40568 51614
L40568 51539
L40550 51502
L40531 51483
L40493 51464
" />
<path d="M40737 51652
L40756 51671
L40737 51689
L40718 51671
L40737 51652
L40737 51689
" />
<path d="M40943 51689
L41018 51689
L41056 51671
L41075 51652
L41112 51596
L41131 51521
L41131 51371
L41112 51333
L41093 51314
L41056 51296
L40981 51296
L40943 51314
L40925 51333
L40906 51371
L40906 51464
L40925 51502
L40943 51521
L40981 51539
L41056 51539
L41093 51521
L41112 51502
L41131 51464
" />
<path d="M41281 51333
L41300 51314
L41337 51296
L41431 51296
L41468 51314
L41487 51333
L41506 51371
L41506 51408
L41487 51464
L41262 51689
L41506 51689
" />
<path d="M41731 51464
L41693 51446
L41674 51427
L41656 51389
L41656 51371
L41674 51333
L41693 51314
L41731 51296
L41806 51296
L41843 51314
L41862 51333
L41881 51371
L41881 51389
L41862 51427
L41843 51446
L41806 51464
L41731 51464
L41693 51483
L41674 51502
L41656 51539
L41656 51614
L41674 51652
L41693 51671
L41731 51689
L41806 51689
L41843 51671
L41862 51652
L41881 51614
L41881 51539
L41862 51502
L41843 51483
L41806 51464
" />
<path d="M42349 51689
L42349 51427
" />
<path d="M42349 51464
L42368 51446
L42406 51427
L42462 51427
L42499 51446
L42518 51483
L42518 51689
" />
<path d="M42518 51483
L42537 51446
L42574 51427
L42631 51427
L42668 51446
L42687 51483
L42687 51689
" />
<path d="M42874 51689
L42874 51427
" />
<path d="M42874 51464
L42893 51446
L42931 51427
L42987 51427
L43024 51446
L43043 51483
L43043 51689
" />
<path d="M43043 51483
L43062 51446
L43099 51427
L43156 51427
L43193 51446
L43212 51483
L43212 51689
" />
<path d="M30000 51000
L53200 51000
" />
<path d="M30000 50000
L30000 51230
" />
<path d="M53200 50000
L53200 51230
" />
<path d="M53200 51000
L52756 51230
" />
<path d="M53200 51000
L52756 50769
" />
<path d="M30000 51000
L30443 51230
" />
<path d="M30000 51000
L30443 50769
" />
<g >
</g>
<g >
</g>
<g >
</g>
<g >
</g>
<g >
</g>
<g >
</g>
<g >
</g>
<g >
</g>
<g >
</g>
<g >
</g>
<g >
</g>
<g >
</g>
<g >
</g>
<g >
</g>
<g >
</g>
<g >
</g>
<g >
</g>
<g >
</g>
<g >
</g>
<g >
</g>
<g >
</g>
<g >
</g>
<g >
</g>
<g >
</g>
<g >
</g>
<g >
</g>
<g >
</g>
<g >
</g>
<g >
</g>
<g >
</g>
<g >
</g>
<g >
</g>
<g >
</g>
<g >
</g>
<g >
</g>
<g >
</g>
<g >
</g>
<g >
</g>
<g >
</g>
<g >
</g>
<g >
</g>
<g >
</g>
<g >
</g>
<g >
</g>
<g >
</g>
</g>
<g style="fill:#000000; fill-opacity:0.0; 
stroke:#000000; stroke-width:59.0551; stroke-opacity:1; 
stroke-linecap:round; stroke-linejoin:round;">
</g>
<g style="fill:#C2C200; fill-opacity:0.0; 
stroke:#C2C200; stroke-width:59.0551; stroke-opacity:1; 
stroke-linecap:round; stroke-linejoin:round;">
</g>
<g style="fill:#C2C200; fill-opacity:0.0; 
stroke:#C2C200; stroke-width:19.685; stroke-opacity:1; 
stroke-linecap:round; stroke-linejoin:round;">
<circle cx="31600" cy="35700" r="656.168" /> 
<path d="M30615 35700
L32584 35700
" />
<path d="M31600 34715
L31600 36684
" />
<path d="M30000 49000
L53200 49000
" />
<path d="M30000 34100
L30000 49000
" />
<path d="M53200 34100
L30000 34100
" />
<path d="M53200 49000
L53200 34100
" />
<g >
</g>
<g >
</g>
<g >
</g>
<g >
</g>
<g >
</g>
<g >
</g>
<g >
</g>
<g >
</g>
<g >
</g>
<g >
</g>
<g >
</g>
<g >
</g>
<g >
</g>
<g >
</g>
<g >
</g>
<g >
</g>
<g >
</g>
<g >
</g>
<g >
</g>
<g >
</g>
<g >
</g>
<g >
</g>
<g >
</g>
<g >
</g>
<g >
</g>
<g >
</g>
<g >
</g>
<g >
</g>
<g >
</g>
<g >
</g>
<g >
</g>
<g >
</g>
<g >
</g>
<g >
</g>
<g >
</g>
<g >
</g>
<g >
</g>
<g >
</g>
<g >
</g>
<g >
</g>
<g >
</g>
<g >
</g>
<g >
</g>
<g >
</g>
<g >
</g>
</g> 
</svg>
