<?xml version="1.0" standalone="no"?>
 <!DOCTYPE svg PUBLIC "-//W3C//DTD SVG 1.1//EN" 
 "http://www.w3.org/Graphics/SVG/1.1/DTD/svg11.dtd"> 
<svg
  xmlns:svg="http://www.w3.org/2000/svg"
  xmlns="http://www.w3.org/2000/svg"
  xmlns:xlink="http://www.w3.org/1999/xlink"
  version="1.1"
  width="29.700220cm" height="21.000720cm" viewBox="0 0 116930 82680">
<title>SVG Picture created as diy_-B_Paste.svg date 2020/09/26 21:29:37 </title>
  <desc>Picture generated by PCBNEW </desc>
<g style="fill:#000000; fill-opacity:1;stroke:#000000; stroke-opacity:1;
stroke-linecap:round; stroke-linejoin:round;"
 transform="translate(0 0) scale(1 1)">
</g>
<g style="fill:#000000; fill-opacity:0.0; 
stroke:#000000; stroke-width:-0.000393701; stroke-opacity:1; 
stroke-linecap:round; stroke-linejoin:round;">
</g>
<g style="fill:#000000; fill-opacity:0.0; 
stroke:#000000; stroke-width:39.3701; stroke-opacity:1; 
stroke-linecap:round; stroke-linejoin:round;">
</g>
<g style="fill:#000000; fill-opacity:0.0; 
stroke:#000000; stroke-width:59.0551; stroke-opacity:1; 
stroke-linecap:round; stroke-linejoin:round;">
<rect x="69685.9" y="65357.2" width="42519.7" height="12598.4" rx="0" />
</g>
<g style="fill:#000000; fill-opacity:0.0; 
stroke:#000000; stroke-width:39.3701; stroke-opacity:1; 
stroke-linecap:round; stroke-linejoin:round;">
</g>
<g style="fill:#000000; fill-opacity:0.0; 
stroke:#000000; stroke-width:59.0551; stroke-opacity:1; 
stroke-linecap:round; stroke-linejoin:round;">
<rect x="3937.01" y="3937.01" width="109056" height="74806" rx="0" />
</g>
<g style="fill:#000000; fill-opacity:0.0; 
stroke:#000000; stroke-width:39.3701; stroke-opacity:1; 
stroke-linecap:round; stroke-linejoin:round;">
</g>
<g style="fill:#000000; fill-opacity:0.0; 
stroke:#000000; stroke-width:59.0551; stroke-opacity:1; 
stroke-linecap:round; stroke-linejoin:round;">
<rect x="4724.41" y="4724.41" width="107481" height="73231.2" rx="0" />
</g>
<g style="fill:#000000; fill-opacity:0.0; 
stroke:#000000; stroke-width:39.3701; stroke-opacity:1; 
stroke-linecap:round; stroke-linejoin:round;">
</g>
<g style="fill:#000000; fill-opacity:0.0; 
stroke:#000000; stroke-width:59.0551; stroke-opacity:1; 
stroke-linecap:round; stroke-linejoin:round;">
<path d="M23622 4724
L23622 3937
" />
</g>
<g style="fill:#000000; fill-opacity:0.0; 
stroke:#000000; stroke-width:39.3701; stroke-opacity:1; 
stroke-linecap:round; stroke-linejoin:round;">
</g>
<g style="fill:#000000; fill-opacity:0.0; 
stroke:#000000; stroke-width:59.0551; stroke-opacity:1; 
stroke-linecap:round; stroke-linejoin:round;">
<path d="M43307 4724
L43307 3937
" />
</g>
<g style="fill:#000000; fill-opacity:0.0; 
stroke:#000000; stroke-width:39.3701; stroke-opacity:1; 
stroke-linecap:round; stroke-linejoin:round;">
</g>
<g style="fill:#000000; fill-opacity:0.0; 
stroke:#000000; stroke-width:59.0551; stroke-opacity:1; 
stroke-linecap:round; stroke-linejoin:round;">
<path d="M62992 4724
L62992 3937
" />
</g>
<g style="fill:#000000; fill-opacity:0.0; 
stroke:#000000; stroke-width:39.3701; stroke-opacity:1; 
stroke-linecap:round; stroke-linejoin:round;">
</g>
<g style="fill:#000000; fill-opacity:0.0; 
stroke:#000000; stroke-width:59.0551; stroke-opacity:1; 
stroke-linecap:round; stroke-linejoin:round;">
<path d="M82677 4724
L82677 3937
" />
</g>
<g style="fill:#000000; fill-opacity:0.0; 
stroke:#000000; stroke-width:39.3701; stroke-opacity:1; 
stroke-linecap:round; stroke-linejoin:round;">
</g>
<g style="fill:#000000; fill-opacity:0.0; 
stroke:#000000; stroke-width:59.0551; stroke-opacity:1; 
stroke-linecap:round; stroke-linejoin:round;">
<path d="M102362 4724
L102362 3937
" />
</g>
<g style="fill:#000000; fill-opacity:0.0; 
stroke:#000000; stroke-width:39.3701; stroke-opacity:1; 
stroke-linecap:round; stroke-linejoin:round;">
</g>
<g style="fill:#000000; fill-opacity:0.0; 
stroke:#000000; stroke-width:59.0551; stroke-opacity:1; 
stroke-linecap:round; stroke-linejoin:round;">
<text x="13779.5" y="4586.61"
textLength="546.494" font-size="682.415" lengthAdjust="spacingAndGlyphs"
text-anchor="start" opacity="0">1</text>
<path d="M14199 4562
L13906 4562
" />
<path d="M14052 4562
L14052 4050
L14004 4123
L13955 4172
L13906 4196
" />
</g>
<g style="fill:#000000; fill-opacity:0.0; 
stroke:#000000; stroke-width:39.3701; stroke-opacity:1; 
stroke-linecap:round; stroke-linejoin:round;">
</g>
<g style="fill:#000000; fill-opacity:0.0; 
stroke:#000000; stroke-width:59.0551; stroke-opacity:1; 
stroke-linecap:round; stroke-linejoin:round;">
<text x="33464.6" y="4586.61"
textLength="546.494" font-size="682.415" lengthAdjust="spacingAndGlyphs"
text-anchor="start" opacity="0">2</text>
<path d="M33591 4099
L33615 4074
L33664 4050
L33786 4050
L33835 4074
L33859 4099
L33884 4147
L33884 4196
L33859 4269
L33567 4562
L33884 4562
" />
</g>
<g style="fill:#000000; fill-opacity:0.0; 
stroke:#000000; stroke-width:39.3701; stroke-opacity:1; 
stroke-linecap:round; stroke-linejoin:round;">
</g>
<g style="fill:#000000; fill-opacity:0.0; 
stroke:#000000; stroke-width:59.0551; stroke-opacity:1; 
stroke-linecap:round; stroke-linejoin:round;">
<text x="53149.6" y="4586.61"
textLength="546.494" font-size="682.415" lengthAdjust="spacingAndGlyphs"
text-anchor="start" opacity="0">3</text>
<path d="M53252 4050
L53569 4050
L53398 4245
L53471 4245
L53520 4269
L53544 4294
L53569 4342
L53569 4464
L53544 4513
L53520 4537
L53471 4562
L53325 4562
L53276 4537
L53252 4513
" />
</g>
<g style="fill:#000000; fill-opacity:0.0; 
stroke:#000000; stroke-width:39.3701; stroke-opacity:1; 
stroke-linecap:round; stroke-linejoin:round;">
</g>
<g style="fill:#000000; fill-opacity:0.0; 
stroke:#000000; stroke-width:59.0551; stroke-opacity:1; 
stroke-linecap:round; stroke-linejoin:round;">
<text x="72834.6" y="4586.61"
textLength="546.494" font-size="682.415" lengthAdjust="spacingAndGlyphs"
text-anchor="start" opacity="0">4</text>
<path d="M73205 4221
L73205 4562
" />
<path d="M73083 4026
L72961 4391
L73278 4391
" />
</g>
<g style="fill:#000000; fill-opacity:0.0; 
stroke:#000000; stroke-width:39.3701; stroke-opacity:1; 
stroke-linecap:round; stroke-linejoin:round;">
</g>
<g style="fill:#000000; fill-opacity:0.0; 
stroke:#000000; stroke-width:59.0551; stroke-opacity:1; 
stroke-linecap:round; stroke-linejoin:round;">
<text x="92519.7" y="4586.61"
textLength="546.494" font-size="682.415" lengthAdjust="spacingAndGlyphs"
text-anchor="start" opacity="0">5</text>
<path d="M92914 4050
L92671 4050
L92646 4294
L92671 4269
L92719 4245
L92841 4245
L92890 4269
L92914 4294
L92939 4342
L92939 4464
L92914 4513
L92890 4537
L92841 4562
L92719 4562
L92671 4537
L92646 4513
" />
</g>
<g style="fill:#000000; fill-opacity:0.0; 
stroke:#000000; stroke-width:39.3701; stroke-opacity:1; 
stroke-linecap:round; stroke-linejoin:round;">
</g>
<g style="fill:#000000; fill-opacity:0.0; 
stroke:#000000; stroke-width:59.0551; stroke-opacity:1; 
stroke-linecap:round; stroke-linejoin:round;">
<text x="112205" y="4586.61"
textLength="546.494" font-size="682.415" lengthAdjust="spacingAndGlyphs"
text-anchor="start" opacity="0">6</text>
<path d="M112575 4050
L112477 4050
L112429 4074
L112404 4099
L112356 4172
L112331 4269
L112331 4464
L112356 4513
L112380 4537
L112429 4562
L112526 4562
L112575 4537
L112599 4513
L112624 4464
L112624 4342
L112599 4294
L112575 4269
L112526 4245
L112429 4245
L112380 4269
L112356 4294
L112331 4342
" />
</g>
<g style="fill:#000000; fill-opacity:0.0; 
stroke:#000000; stroke-width:39.3701; stroke-opacity:1; 
stroke-linecap:round; stroke-linejoin:round;">
</g>
<g style="fill:#000000; fill-opacity:0.0; 
stroke:#000000; stroke-width:59.0551; stroke-opacity:1; 
stroke-linecap:round; stroke-linejoin:round;">
<path d="M23622 77955
L23622 78742
" />
</g>
<g style="fill:#000000; fill-opacity:0.0; 
stroke:#000000; stroke-width:39.3701; stroke-opacity:1; 
stroke-linecap:round; stroke-linejoin:round;">
</g>
<g style="fill:#000000; fill-opacity:0.0; 
stroke:#000000; stroke-width:59.0551; stroke-opacity:1; 
stroke-linecap:round; stroke-linejoin:round;">
<path d="M43307 77955
L43307 78742
" />
</g>
<g style="fill:#000000; fill-opacity:0.0; 
stroke:#000000; stroke-width:39.3701; stroke-opacity:1; 
stroke-linecap:round; stroke-linejoin:round;">
</g>
<g style="fill:#000000; fill-opacity:0.0; 
stroke:#000000; stroke-width:59.0551; stroke-opacity:1; 
stroke-linecap:round; stroke-linejoin:round;">
<path d="M62992 77955
L62992 78742
" />
</g>
<g style="fill:#000000; fill-opacity:0.0; 
stroke:#000000; stroke-width:39.3701; stroke-opacity:1; 
stroke-linecap:round; stroke-linejoin:round;">
</g>
<g style="fill:#000000; fill-opacity:0.0; 
stroke:#000000; stroke-width:59.0551; stroke-opacity:1; 
stroke-linecap:round; stroke-linejoin:round;">
<path d="M82677 77955
L82677 78742
" />
</g>
<g style="fill:#000000; fill-opacity:0.0; 
stroke:#000000; stroke-width:39.3701; stroke-opacity:1; 
stroke-linecap:round; stroke-linejoin:round;">
</g>
<g style="fill:#000000; fill-opacity:0.0; 
stroke:#000000; stroke-width:59.0551; stroke-opacity:1; 
stroke-linecap:round; stroke-linejoin:round;">
<path d="M102362 77955
L102362 78742
" />
</g>
<g style="fill:#000000; fill-opacity:0.0; 
stroke:#000000; stroke-width:39.3701; stroke-opacity:1; 
stroke-linecap:round; stroke-linejoin:round;">
</g>
<g style="fill:#000000; fill-opacity:0.0; 
stroke:#000000; stroke-width:59.0551; stroke-opacity:1; 
stroke-linecap:round; stroke-linejoin:round;">
<text x="13779.5" y="78605.2"
textLength="546.494" font-size="682.415" lengthAdjust="spacingAndGlyphs"
text-anchor="start" opacity="0">1</text>
<path d="M14199 78580
L13906 78580
" />
<path d="M14052 78580
L14052 78069
L14004 78142
L13955 78190
L13906 78215
" />
</g>
<g style="fill:#000000; fill-opacity:0.0; 
stroke:#000000; stroke-width:39.3701; stroke-opacity:1; 
stroke-linecap:round; stroke-linejoin:round;">
</g>
<g style="fill:#000000; fill-opacity:0.0; 
stroke:#000000; stroke-width:59.0551; stroke-opacity:1; 
stroke-linecap:round; stroke-linejoin:round;">
<text x="33464.6" y="78605.2"
textLength="546.494" font-size="682.415" lengthAdjust="spacingAndGlyphs"
text-anchor="start" opacity="0">2</text>
<path d="M33591 78117
L33615 78093
L33664 78069
L33786 78069
L33835 78093
L33859 78117
L33884 78166
L33884 78215
L33859 78288
L33567 78580
L33884 78580
" />
</g>
<g style="fill:#000000; fill-opacity:0.0; 
stroke:#000000; stroke-width:39.3701; stroke-opacity:1; 
stroke-linecap:round; stroke-linejoin:round;">
</g>
<g style="fill:#000000; fill-opacity:0.0; 
stroke:#000000; stroke-width:59.0551; stroke-opacity:1; 
stroke-linecap:round; stroke-linejoin:round;">
<text x="53149.6" y="78605.2"
textLength="546.494" font-size="682.415" lengthAdjust="spacingAndGlyphs"
text-anchor="start" opacity="0">3</text>
<path d="M53252 78069
L53569 78069
L53398 78263
L53471 78263
L53520 78288
L53544 78312
L53569 78361
L53569 78483
L53544 78532
L53520 78556
L53471 78580
L53325 78580
L53276 78556
L53252 78532
" />
</g>
<g style="fill:#000000; fill-opacity:0.0; 
stroke:#000000; stroke-width:39.3701; stroke-opacity:1; 
stroke-linecap:round; stroke-linejoin:round;">
</g>
<g style="fill:#000000; fill-opacity:0.0; 
stroke:#000000; stroke-width:59.0551; stroke-opacity:1; 
stroke-linecap:round; stroke-linejoin:round;">
<text x="72834.6" y="78605.2"
textLength="546.494" font-size="682.415" lengthAdjust="spacingAndGlyphs"
text-anchor="start" opacity="0">4</text>
<path d="M73205 78239
L73205 78580
" />
<path d="M73083 78044
L72961 78410
L73278 78410
" />
</g>
<g style="fill:#000000; fill-opacity:0.0; 
stroke:#000000; stroke-width:39.3701; stroke-opacity:1; 
stroke-linecap:round; stroke-linejoin:round;">
</g>
<g style="fill:#000000; fill-opacity:0.0; 
stroke:#000000; stroke-width:59.0551; stroke-opacity:1; 
stroke-linecap:round; stroke-linejoin:round;">
<text x="92519.7" y="78605.2"
textLength="546.494" font-size="682.415" lengthAdjust="spacingAndGlyphs"
text-anchor="start" opacity="0">5</text>
<path d="M92914 78069
L92671 78069
L92646 78312
L92671 78288
L92719 78263
L92841 78263
L92890 78288
L92914 78312
L92939 78361
L92939 78483
L92914 78532
L92890 78556
L92841 78580
L92719 78580
L92671 78556
L92646 78532
" />
</g>
<g style="fill:#000000; fill-opacity:0.0; 
stroke:#000000; stroke-width:39.3701; stroke-opacity:1; 
stroke-linecap:round; stroke-linejoin:round;">
</g>
<g style="fill:#000000; fill-opacity:0.0; 
stroke:#000000; stroke-width:59.0551; stroke-opacity:1; 
stroke-linecap:round; stroke-linejoin:round;">
<text x="112205" y="78605.2"
textLength="546.494" font-size="682.415" lengthAdjust="spacingAndGlyphs"
text-anchor="start" opacity="0">6</text>
<path d="M112575 78069
L112477 78069
L112429 78093
L112404 78117
L112356 78190
L112331 78288
L112331 78483
L112356 78532
L112380 78556
L112429 78580
L112526 78580
L112575 78556
L112599 78532
L112624 78483
L112624 78361
L112599 78312
L112575 78288
L112526 78263
L112429 78263
L112380 78288
L112356 78312
L112331 78361
" />
</g>
<g style="fill:#000000; fill-opacity:0.0; 
stroke:#000000; stroke-width:39.3701; stroke-opacity:1; 
stroke-linecap:round; stroke-linejoin:round;">
</g>
<g style="fill:#000000; fill-opacity:0.0; 
stroke:#000000; stroke-width:59.0551; stroke-opacity:1; 
stroke-linecap:round; stroke-linejoin:round;">
<path d="M3937 23622
L4724 23622
" />
</g>
<g style="fill:#000000; fill-opacity:0.0; 
stroke:#000000; stroke-width:39.3701; stroke-opacity:1; 
stroke-linecap:round; stroke-linejoin:round;">
</g>
<g style="fill:#000000; fill-opacity:0.0; 
stroke:#000000; stroke-width:59.0551; stroke-opacity:1; 
stroke-linecap:round; stroke-linejoin:round;">
<path d="M3937 43307
L4724 43307
" />
</g>
<g style="fill:#000000; fill-opacity:0.0; 
stroke:#000000; stroke-width:39.3701; stroke-opacity:1; 
stroke-linecap:round; stroke-linejoin:round;">
</g>
<g style="fill:#000000; fill-opacity:0.0; 
stroke:#000000; stroke-width:59.0551; stroke-opacity:1; 
stroke-linecap:round; stroke-linejoin:round;">
<path d="M3937 62992
L4724 62992
" />
</g>
<g style="fill:#000000; fill-opacity:0.0; 
stroke:#000000; stroke-width:39.3701; stroke-opacity:1; 
stroke-linecap:round; stroke-linejoin:round;">
</g>
<g style="fill:#000000; fill-opacity:0.0; 
stroke:#000000; stroke-width:59.0551; stroke-opacity:1; 
stroke-linecap:round; stroke-linejoin:round;">
<text x="4330.71" y="14035.4"
textLength="497.75" font-size="682.415" lengthAdjust="spacingAndGlyphs"
text-anchor="middle" opacity="0">A</text>
<path d="M4208 13864
L4452 13864
" />
<path d="M4160 14011
L4330 13499
L4501 14011
" />
</g>
<g style="fill:#000000; fill-opacity:0.0; 
stroke:#000000; stroke-width:39.3701; stroke-opacity:1; 
stroke-linecap:round; stroke-linejoin:round;">
</g>
<g style="fill:#000000; fill-opacity:0.0; 
stroke:#000000; stroke-width:59.0551; stroke-opacity:1; 
stroke-linecap:round; stroke-linejoin:round;">
<text x="4330.71" y="33720.5"
textLength="570.866" font-size="682.415" lengthAdjust="spacingAndGlyphs"
text-anchor="middle" opacity="0">B</text>
<path d="M4367 33428
L4440 33452
L4464 33476
L4489 33525
L4489 33598
L4464 33647
L4440 33671
L4391 33696
L4196 33696
L4196 33184
L4367 33184
L4416 33208
L4440 33233
L4464 33281
L4464 33330
L4440 33379
L4416 33403
L4367 33428
L4196 33428
" />
</g>
<g style="fill:#000000; fill-opacity:0.0; 
stroke:#000000; stroke-width:39.3701; stroke-opacity:1; 
stroke-linecap:round; stroke-linejoin:round;">
</g>
<g style="fill:#000000; fill-opacity:0.0; 
stroke:#000000; stroke-width:59.0551; stroke-opacity:1; 
stroke-linecap:round; stroke-linejoin:round;">
<text x="4330.71" y="53405.5"
textLength="570.866" font-size="682.415" lengthAdjust="spacingAndGlyphs"
text-anchor="middle" opacity="0">C</text>
<path d="M4489 53332
L4464 53356
L4391 53381
L4342 53381
L4269 53356
L4221 53308
L4196 53259
L4172 53161
L4172 53088
L4196 52991
L4221 52942
L4269 52893
L4342 52869
L4391 52869
L4464 52893
L4489 52918
" />
</g>
<g style="fill:#000000; fill-opacity:0.0; 
stroke:#000000; stroke-width:39.3701; stroke-opacity:1; 
stroke-linecap:round; stroke-linejoin:round;">
</g>
<g style="fill:#000000; fill-opacity:0.0; 
stroke:#000000; stroke-width:59.0551; stroke-opacity:1; 
stroke-linecap:round; stroke-linejoin:round;">
<text x="4330.71" y="73090.6"
textLength="570.866" font-size="682.415" lengthAdjust="spacingAndGlyphs"
text-anchor="middle" opacity="0">D</text>
<path d="M4196 73066
L4196 72554
L4318 72554
L4391 72578
L4440 72627
L4464 72676
L4489 72773
L4489 72846
L4464 72944
L4440 72993
L4391 73041
L4318 73066
L4196 73066
" />
</g>
<g style="fill:#000000; fill-opacity:0.0; 
stroke:#000000; stroke-width:39.3701; stroke-opacity:1; 
stroke-linecap:round; stroke-linejoin:round;">
</g>
<g style="fill:#000000; fill-opacity:0.0; 
stroke:#000000; stroke-width:59.0551; stroke-opacity:1; 
stroke-linecap:round; stroke-linejoin:round;">
<path d="M112992 23622
L112205 23622
" />
</g>
<g style="fill:#000000; fill-opacity:0.0; 
stroke:#000000; stroke-width:39.3701; stroke-opacity:1; 
stroke-linecap:round; stroke-linejoin:round;">
</g>
<g style="fill:#000000; fill-opacity:0.0; 
stroke:#000000; stroke-width:59.0551; stroke-opacity:1; 
stroke-linecap:round; stroke-linejoin:round;">
<path d="M112992 43307
L112205 43307
" />
</g>
<g style="fill:#000000; fill-opacity:0.0; 
stroke:#000000; stroke-width:39.3701; stroke-opacity:1; 
stroke-linecap:round; stroke-linejoin:round;">
</g>
<g style="fill:#000000; fill-opacity:0.0; 
stroke:#000000; stroke-width:59.0551; stroke-opacity:1; 
stroke-linecap:round; stroke-linejoin:round;">
<path d="M112992 62992
L112205 62992
" />
</g>
<g style="fill:#000000; fill-opacity:0.0; 
stroke:#000000; stroke-width:39.3701; stroke-opacity:1; 
stroke-linecap:round; stroke-linejoin:round;">
</g>
<g style="fill:#000000; fill-opacity:0.0; 
stroke:#000000; stroke-width:59.0551; stroke-opacity:1; 
stroke-linecap:round; stroke-linejoin:round;">
<text x="112599" y="14035.4"
textLength="497.75" font-size="682.415" lengthAdjust="spacingAndGlyphs"
text-anchor="middle" opacity="0">A</text>
<path d="M112477 13864
L112721 13864
" />
<path d="M112428 14011
L112599 13499
L112769 14011
" />
</g>
<g style="fill:#000000; fill-opacity:0.0; 
stroke:#000000; stroke-width:39.3701; stroke-opacity:1; 
stroke-linecap:round; stroke-linejoin:round;">
</g>
<g style="fill:#000000; fill-opacity:0.0; 
stroke:#000000; stroke-width:59.0551; stroke-opacity:1; 
stroke-linecap:round; stroke-linejoin:round;">
<text x="112599" y="33720.5"
textLength="570.866" font-size="682.415" lengthAdjust="spacingAndGlyphs"
text-anchor="middle" opacity="0">B</text>
<path d="M112635 33428
L112708 33452
L112733 33476
L112757 33525
L112757 33598
L112733 33647
L112708 33671
L112660 33696
L112465 33696
L112465 33184
L112635 33184
L112684 33208
L112708 33233
L112733 33281
L112733 33330
L112708 33379
L112684 33403
L112635 33428
L112465 33428
" />
</g>
<g style="fill:#000000; fill-opacity:0.0; 
stroke:#000000; stroke-width:39.3701; stroke-opacity:1; 
stroke-linecap:round; stroke-linejoin:round;">
</g>
<g style="fill:#000000; fill-opacity:0.0; 
stroke:#000000; stroke-width:59.0551; stroke-opacity:1; 
stroke-linecap:round; stroke-linejoin:round;">
<text x="112599" y="53405.5"
textLength="570.866" font-size="682.415" lengthAdjust="spacingAndGlyphs"
text-anchor="middle" opacity="0">C</text>
<path d="M112757 53332
L112733 53356
L112660 53381
L112611 53381
L112538 53356
L112489 53308
L112465 53259
L112440 53161
L112440 53088
L112465 52991
L112489 52942
L112538 52893
L112611 52869
L112660 52869
L112733 52893
L112757 52918
" />
</g>
<g style="fill:#000000; fill-opacity:0.0; 
stroke:#000000; stroke-width:39.3701; stroke-opacity:1; 
stroke-linecap:round; stroke-linejoin:round;">
</g>
<g style="fill:#000000; fill-opacity:0.0; 
stroke:#000000; stroke-width:59.0551; stroke-opacity:1; 
stroke-linecap:round; stroke-linejoin:round;">
<text x="112599" y="73090.6"
textLength="570.866" font-size="682.415" lengthAdjust="spacingAndGlyphs"
text-anchor="middle" opacity="0">D</text>
<path d="M112465 73066
L112465 72554
L112587 72554
L112660 72578
L112708 72627
L112733 72676
L112757 72773
L112757 72846
L112733 72944
L112708 72993
L112660 73041
L112587 73066
L112465 73066
" />
</g>
<g style="fill:#000000; fill-opacity:0.0; 
stroke:#000000; stroke-width:39.3701; stroke-opacity:1; 
stroke-linecap:round; stroke-linejoin:round;">
</g>
<g style="fill:#000000; fill-opacity:0.0; 
stroke:#000000; stroke-width:59.0551; stroke-opacity:1; 
stroke-linecap:round; stroke-linejoin:round;">
<text x="78741" y="76321.7"
textLength="2758.72" font-size="787.402" lengthAdjust="spacingAndGlyphs"
text-anchor="start" opacity="0">Date: </text>
<path d="M78911 76293
L78911 75703
L79051 75703
L79136 75731
L79192 75787
L79220 75843
L79248 75956
L79248 76040
L79220 76153
L79192 76209
L79136 76265
L79051 76293
L78911 76293
" />
<path d="M79754 76293
L79754 75984
L79726 75928
L79670 75899
L79557 75899
L79501 75928
" />
<path d="M79754 76265
L79698 76293
L79557 76293
L79501 76265
L79473 76209
L79473 76153
L79501 76096
L79557 76068
L79698 76068
L79754 76040
" />
<path d="M79951 75899
L80176 75899
" />
<path d="M80036 75703
L80036 76209
L80064 76265
L80120 76293
L80176 76293
" />
<path d="M80598 76265
L80542 76293
L80429 76293
L80373 76265
L80345 76209
L80345 75984
L80373 75928
L80429 75899
L80542 75899
L80598 75928
L80626 75984
L80626 76040
L80345 76096
" />
<path d="M80879 76237
L80907 76265
L80879 76293
L80851 76265
L80879 76237
L80879 76293
" />
<path d="M80879 75928
L80907 75956
L80879 75984
L80851 75956
L80879 75928
L80879 75984
" />
</g>
<g style="fill:#000000; fill-opacity:0.0; 
stroke:#000000; stroke-width:39.3701; stroke-opacity:1; 
stroke-linecap:round; stroke-linejoin:round;">
</g>
<g style="fill:#000000; fill-opacity:0.0; 
stroke:#000000; stroke-width:59.0551; stroke-opacity:1; 
stroke-linecap:round; stroke-linejoin:round;">
<path d="M69685 76577
L112205 76577
" />
</g>
<g style="fill:#000000; fill-opacity:0.0; 
stroke:#000000; stroke-width:39.3701; stroke-opacity:1; 
stroke-linecap:round; stroke-linejoin:round;">
</g>
<g style="fill:#000000; fill-opacity:0.0; 
stroke:#000000; stroke-width:59.0551; stroke-opacity:1; 
stroke-linecap:round; stroke-linejoin:round;">
<text x="70079.6" y="77424.1"
textLength="19940.9" font-size="787.402" lengthAdjust="spacingAndGlyphs"
text-anchor="start" opacity="0">KiCad E.D.A.  kicad 5.1.6+dfsg1-1~bpo10+1</text>
<path d="M70249 77395
L70249 76805
" />
<path d="M70587 77395
L70334 77058
" />
<path d="M70587 76805
L70249 77142
" />
<path d="M70840 77395
L70840 77002
" />
<path d="M70840 76805
L70812 76833
L70840 76861
L70868 76833
L70840 76805
L70840 76861
" />
<path d="M71458 77339
L71430 77367
L71346 77395
L71290 77395
L71205 77367
L71149 77311
L71121 77255
L71093 77142
L71093 77058
L71121 76946
L71149 76889
L71205 76833
L71290 76805
L71346 76805
L71430 76833
L71458 76861
" />
<path d="M71965 77395
L71965 77086
L71937 77030
L71880 77002
L71768 77002
L71712 77030
" />
<path d="M71965 77367
L71908 77395
L71768 77395
L71712 77367
L71683 77311
L71683 77255
L71712 77199
L71768 77171
L71908 77171
L71965 77142
" />
<path d="M72499 77395
L72499 76805
" />
<path d="M72499 77367
L72443 77395
L72330 77395
L72274 77367
L72246 77339
L72218 77283
L72218 77114
L72246 77058
L72274 77030
L72330 77002
L72443 77002
L72499 77030
" />
<path d="M73230 77086
L73427 77086
" />
<path d="M73511 77395
L73230 77395
L73230 76805
L73511 76805
" />
<path d="M73764 77339
L73793 77367
L73764 77395
L73736 77367
L73764 77339
L73764 77395
" />
<path d="M74046 77395
L74046 76805
L74186 76805
L74271 76833
L74327 76889
L74355 76946
L74383 77058
L74383 77142
L74355 77255
L74327 77311
L74271 77367
L74186 77395
L74046 77395
" />
<path d="M74636 77339
L74664 77367
L74636 77395
L74608 77367
L74636 77339
L74636 77395
" />
<path d="M74889 77227
L75171 77227
" />
<path d="M74833 77395
L75030 76805
L75227 77395
" />
<path d="M75424 77339
L75452 77367
L75424 77395
L75395 77367
L75424 77339
L75424 77395
" />
<path d="M76605 77395
L76605 76805
" />
<path d="M76661 77171
L76830 77395
" />
<path d="M76830 77002
L76605 77227
" />
<path d="M77083 77395
L77083 77002
" />
<path d="M77083 76805
L77055 76833
L77083 76861
L77111 76833
L77083 76805
L77083 76861
" />
<path d="M77617 77367
L77561 77395
L77448 77395
L77392 77367
L77364 77339
L77336 77283
L77336 77114
L77364 77058
L77392 77030
L77448 77002
L77561 77002
L77617 77030
" />
<path d="M78123 77395
L78123 77086
L78095 77030
L78039 77002
L77926 77002
L77870 77030
" />
<path d="M78123 77367
L78067 77395
L77926 77395
L77870 77367
L77842 77311
L77842 77255
L77870 77199
L77926 77171
L78067 77171
L78123 77142
" />
<path d="M78658 77395
L78658 76805
" />
<path d="M78658 77367
L78601 77395
L78489 77395
L78433 77367
L78404 77339
L78376 77283
L78376 77114
L78404 77058
L78433 77030
L78489 77002
L78601 77002
L78658 77030
" />
<path d="M79670 76805
L79389 76805
L79361 77086
L79389 77058
L79445 77030
L79586 77030
L79642 77058
L79670 77086
L79698 77142
L79698 77283
L79670 77339
L79642 77367
L79586 77395
L79445 77395
L79389 77367
L79361 77339
" />
<path d="M79951 77339
L79979 77367
L79951 77395
L79923 77367
L79951 77339
L79951 77395
" />
<path d="M80542 77395
L80204 77395
" />
<path d="M80373 77395
L80373 76805
L80317 76889
L80260 76946
L80204 76974
" />
<path d="M80795 77339
L80823 77367
L80795 77395
L80767 77367
L80795 77339
L80795 77395
" />
<path d="M81329 76805
L81217 76805
L81160 76833
L81132 76861
L81076 76946
L81048 77058
L81048 77283
L81076 77339
L81104 77367
L81160 77395
L81273 77395
L81329 77367
L81357 77339
L81385 77283
L81385 77142
L81357 77086
L81329 77058
L81273 77030
L81160 77030
L81104 77058
L81076 77086
L81048 77142
" />
<path d="M81638 77171
L82088 77171
" />
<path d="M81863 77395
L81863 76946
" />
<path d="M82623 77395
L82623 76805
" />
<path d="M82623 77367
L82566 77395
L82454 77395
L82398 77367
L82370 77339
L82341 77283
L82341 77114
L82370 77058
L82398 77030
L82454 77002
L82566 77002
L82623 77030
" />
<path d="M82820 77002
L83045 77002
" />
<path d="M82904 77395
L82904 76889
L82932 76833
L82988 76805
L83045 76805
" />
<path d="M83213 77367
L83269 77395
L83382 77395
L83438 77367
L83466 77311
L83466 77283
L83438 77227
L83382 77199
L83298 77199
L83241 77171
L83213 77114
L83213 77086
L83241 77030
L83298 77002
L83382 77002
L83438 77030
" />
<path d="M83973 77002
L83973 77480
L83944 77536
L83916 77564
L83860 77592
L83776 77592
L83719 77564
" />
<path d="M83973 77367
L83916 77395
L83804 77395
L83748 77367
L83719 77339
L83691 77283
L83691 77114
L83719 77058
L83748 77030
L83804 77002
L83916 77002
L83973 77030
" />
<path d="M84563 77395
L84226 77395
" />
<path d="M84394 77395
L84394 76805
L84338 76889
L84282 76946
L84226 76974
" />
<path d="M84816 77171
L85266 77171
" />
<path d="M85857 77395
L85519 77395
" />
<path d="M85688 77395
L85688 76805
L85632 76889
L85575 76946
L85519 76974
" />
<path d="M85969 76644
L86503 76644
" />
<path d="M86110 77395
L86110 76805
" />
<path d="M86110 77030
L86166 77002
L86278 77002
L86335 77030
L86363 77058
L86391 77114
L86391 77283
L86363 77339
L86335 77367
L86278 77395
L86166 77395
L86110 77367
" />
<path d="M86503 76644
L87038 76644
" />
<path d="M86644 77002
L86644 77592
" />
<path d="M86644 77030
L86700 77002
L86813 77002
L86869 77030
L86897 77058
L86925 77114
L86925 77283
L86897 77339
L86869 77367
L86813 77395
L86700 77395
L86644 77367
" />
<path d="M87038 76644
L87572 76644
" />
<path d="M87263 77395
L87206 77367
L87178 77339
L87150 77283
L87150 77114
L87178 77058
L87206 77030
L87263 77002
L87347 77002
L87403 77030
L87431 77058
L87460 77114
L87460 77283
L87431 77339
L87403 77367
L87347 77395
L87263 77395
" />
<path d="M87572 76644
L88135 76644
" />
<path d="M88022 77395
L87685 77395
" />
<path d="M87853 77395
L87853 76805
L87797 76889
L87741 76946
L87685 76974
" />
<path d="M88135 76644
L88697 76644
" />
<path d="M88388 76805
L88444 76805
L88500 76833
L88528 76861
L88556 76917
L88584 77030
L88584 77171
L88556 77283
L88528 77339
L88500 77367
L88444 77395
L88388 77395
L88331 77367
L88303 77339
L88275 77283
L88247 77171
L88247 77030
L88275 76917
L88303 76861
L88331 76833
L88388 76805
" />
<path d="M88697 76644
L89428 76644
" />
<path d="M88838 77171
L89287 77171
" />
<path d="M89063 77395
L89063 76946
" />
<path d="M89428 76644
L89991 76644
" />
<path d="M89878 77395
L89541 77395
" />
<path d="M89709 77395
L89709 76805
L89653 76889
L89597 76946
L89541 76974
" />
</g>
<g style="fill:#000000; fill-opacity:0.0; 
stroke:#000000; stroke-width:39.3701; stroke-opacity:1; 
stroke-linecap:round; stroke-linejoin:round;">
</g>
<g style="fill:#000000; fill-opacity:0.0; 
stroke:#000000; stroke-width:59.0551; stroke-opacity:1; 
stroke-linecap:round; stroke-linejoin:round;">
<path d="M69685 75396
L112205 75396
" />
</g>
<g style="fill:#000000; fill-opacity:0.0; 
stroke:#000000; stroke-width:39.3701; stroke-opacity:1; 
stroke-linecap:round; stroke-linejoin:round;">
</g>
<g style="fill:#000000; fill-opacity:0.0; 
stroke:#000000; stroke-width:118.11; stroke-opacity:1; 
stroke-linecap:round; stroke-linejoin:round;">
<text x="103544" y="76321.7"
textLength="2336.9" font-size="787.402" lengthAdjust="spacingAndGlyphs"
text-anchor="start" opacity="0">Rev: </text>
<path d="M104099 76293
L103902 76012
" />
<path d="M103761 76293
L103761 75703
L103986 75703
L104042 75731
L104070 75759
L104099 75815
L104099 75899
L104070 75956
L104042 75984
L103986 76012
L103761 76012
" />
<path d="M104577 76265
L104520 76293
L104408 76293
L104352 76265
L104323 76209
L104323 75984
L104352 75928
L104408 75899
L104520 75899
L104577 75928
L104605 75984
L104605 76040
L104323 76096
" />
<path d="M104802 75899
L104942 76293
L105083 75899
" />
<path d="M105308 76237
L105336 76265
L105308 76293
L105280 76265
L105308 76237
L105308 76293
" />
<path d="M105308 75928
L105336 75956
L105308 75984
L105280 75956
L105308 75928
L105308 75984
" />
</g>
<g style="fill:#000000; fill-opacity:0.0; 
stroke:#000000; stroke-width:39.3701; stroke-opacity:1; 
stroke-linecap:round; stroke-linejoin:round;">
</g>
<g style="fill:#000000; fill-opacity:0.0; 
stroke:#000000; stroke-width:59.0551; stroke-opacity:1; 
stroke-linecap:round; stroke-linejoin:round;">
<text x="70079.6" y="76321.7"
textLength="3781.21" font-size="787.402" lengthAdjust="spacingAndGlyphs"
text-anchor="start" opacity="0">Size: A4</text>
<path d="M70221 76265
L70305 76293
L70446 76293
L70502 76265
L70530 76237
L70559 76181
L70559 76124
L70530 76068
L70502 76040
L70446 76012
L70334 75984
L70277 75956
L70249 75928
L70221 75871
L70221 75815
L70249 75759
L70277 75731
L70334 75703
L70474 75703
L70559 75731
" />
<path d="M70812 76293
L70812 75899
" />
<path d="M70812 75703
L70784 75731
L70812 75759
L70840 75731
L70812 75703
L70812 75759
" />
<path d="M71037 75899
L71346 75899
L71037 76293
L71346 76293
" />
<path d="M71796 76265
L71740 76293
L71627 76293
L71571 76265
L71543 76209
L71543 75984
L71571 75928
L71627 75899
L71740 75899
L71796 75928
L71824 75984
L71824 76040
L71543 76096
" />
<path d="M72077 76237
L72105 76265
L72077 76293
L72049 76265
L72077 76237
L72077 76293
" />
<path d="M72077 75928
L72105 75956
L72077 75984
L72049 75956
L72077 75928
L72077 75984
" />
<path d="M72780 76124
L73061 76124
" />
<path d="M72724 76293
L72921 75703
L73118 76293
" />
<path d="M73568 75899
L73568 76293
" />
<path d="M73427 75674
L73286 76096
L73652 76096
" />
</g>
<g style="fill:#000000; fill-opacity:0.0; 
stroke:#000000; stroke-width:39.3701; stroke-opacity:1; 
stroke-linecap:round; stroke-linejoin:round;">
</g>
<g style="fill:#000000; fill-opacity:0.0; 
stroke:#000000; stroke-width:59.0551; stroke-opacity:1; 
stroke-linecap:round; stroke-linejoin:round;">
<text x="103544" y="77424.1"
textLength="3349.27" font-size="787.402" lengthAdjust="spacingAndGlyphs"
text-anchor="start" opacity="0">Id: 1/1</text>
<path d="M103714 77395
L103714 76805
" />
<path d="M104248 77395
L104248 76805
" />
<path d="M104248 77367
L104192 77395
L104079 77395
L104023 77367
L103995 77339
L103967 77283
L103967 77114
L103995 77058
L104023 77030
L104079 77002
L104192 77002
L104248 77030
" />
<path d="M104529 77339
L104557 77367
L104529 77395
L104501 77367
L104529 77339
L104529 77395
" />
<path d="M104529 77030
L104557 77058
L104529 77086
L104501 77058
L104529 77030
L104529 77086
" />
<path d="M105570 77395
L105232 77395
" />
<path d="M105401 77395
L105401 76805
L105345 76889
L105289 76946
L105232 76974
" />
<path d="M106245 76777
L105739 77536
" />
<path d="M106751 77395
L106413 77395
" />
<path d="M106582 77395
L106582 76805
L106526 76889
L106470 76946
L106413 76974
" />
</g>
<g style="fill:#000000; fill-opacity:0.0; 
stroke:#000000; stroke-width:39.3701; stroke-opacity:1; 
stroke-linecap:round; stroke-linejoin:round;">
</g>
<g style="fill:#000000; fill-opacity:0.0; 
stroke:#000000; stroke-width:59.0551; stroke-opacity:1; 
stroke-linecap:round; stroke-linejoin:round;">
<path d="M69685 73821
L112205 73821
" />
</g>
<g style="fill:#000000; fill-opacity:0.0; 
stroke:#000000; stroke-width:39.3701; stroke-opacity:1; 
stroke-linecap:round; stroke-linejoin:round;">
</g>
<g style="fill:#000000; fill-opacity:0.0; 
stroke:#000000; stroke-width:157.48; stroke-opacity:1; 
stroke-linecap:round; stroke-linejoin:round;">
<text x="70079.6" y="74924.1"
textLength="3701.14" font-size="1049.87" lengthAdjust="spacingAndGlyphs"
text-anchor="start" opacity="0">Title: </text>
<path d="M70360 74099
L70810 74099
" />
<path d="M70486 74886
L70585 74099
" />
<path d="M70974 74886
L71039 74361
" />
<path d="M71072 74099
L71030 74136
L71063 74174
L71105 74136
L71072 74099
L71063 74174
" />
<path d="M71302 74361
L71602 74361
" />
<path d="M71447 74099
L71363 74774
L71391 74849
L71461 74886
L71536 74886
" />
<path d="M71911 74886
L71841 74849
L71813 74774
L71897 74099
" />
<path d="M72516 74849
L72436 74886
L72286 74886
L72216 74849
L72187 74774
L72225 74474
L72272 74399
L72352 74361
L72501 74361
L72572 74399
L72600 74474
L72591 74549
L72206 74624
" />
<path d="M72895 74811
L72928 74849
L72886 74886
L72853 74849
L72895 74811
L72886 74886
" />
<path d="M72947 74399
L72980 74436
L72937 74474
L72905 74436
L72947 74399
L72937 74474
" />
</g>
<g style="fill:#000000; fill-opacity:0.0; 
stroke:#000000; stroke-width:39.3701; stroke-opacity:1; 
stroke-linecap:round; stroke-linejoin:round;">
</g>
<g style="fill:#000000; fill-opacity:0.0; 
stroke:#000000; stroke-width:59.0551; stroke-opacity:1; 
stroke-linecap:round; stroke-linejoin:round;">
<text x="70079.6" y="73408.3"
textLength="8894.26" font-size="787.402" lengthAdjust="spacingAndGlyphs"
text-anchor="start" opacity="0">File: diy_.kicad_pcb</text>
<path d="M70446 73070
L70249 73070
" />
<path d="M70249 73380
L70249 72789
L70530 72789
" />
<path d="M70755 73380
L70755 72986
" />
<path d="M70755 72789
L70727 72817
L70755 72845
L70784 72817
L70755 72789
L70755 72845
" />
<path d="M71121 73380
L71065 73352
L71037 73295
L71037 72789
" />
<path d="M71571 73352
L71515 73380
L71402 73380
L71346 73352
L71318 73295
L71318 73070
L71346 73014
L71402 72986
L71515 72986
L71571 73014
L71599 73070
L71599 73127
L71318 73183
" />
<path d="M71852 73323
L71880 73352
L71852 73380
L71824 73352
L71852 73323
L71852 73380
" />
<path d="M71852 73014
L71880 73042
L71852 73070
L71824 73042
L71852 73014
L71852 73070
" />
<path d="M72836 73380
L72836 72789
" />
<path d="M72836 73352
L72780 73380
L72668 73380
L72611 73352
L72583 73323
L72555 73267
L72555 73099
L72583 73042
L72611 73014
L72668 72986
L72780 72986
L72836 73014
" />
<path d="M73118 73380
L73118 72986
" />
<path d="M73118 72789
L73090 72817
L73118 72845
L73146 72817
L73118 72789
L73118 72845
" />
<path d="M73343 72986
L73483 73380
" />
<path d="M73624 72986
L73483 73380
L73427 73520
L73399 73548
L73343 73577
" />
<path d="M73708 73436
L74158 73436
" />
<path d="M74299 73323
L74327 73352
L74299 73380
L74271 73352
L74299 73323
L74299 73380
" />
<path d="M74580 73380
L74580 72789
" />
<path d="M74636 73155
L74805 73380
" />
<path d="M74805 72986
L74580 73211
" />
<path d="M75058 73380
L75058 72986
" />
<path d="M75058 72789
L75030 72817
L75058 72845
L75086 72817
L75058 72789
L75058 72845
" />
<path d="M75592 73352
L75536 73380
L75424 73380
L75367 73352
L75339 73323
L75311 73267
L75311 73099
L75339 73042
L75367 73014
L75424 72986
L75536 72986
L75592 73014
" />
<path d="M76099 73380
L76099 73070
L76070 73014
L76014 72986
L75902 72986
L75845 73014
" />
<path d="M76099 73352
L76042 73380
L75902 73380
L75845 73352
L75817 73295
L75817 73239
L75845 73183
L75902 73155
L76042 73155
L76099 73127
" />
<path d="M76633 73380
L76633 72789
" />
<path d="M76633 73352
L76577 73380
L76464 73380
L76408 73352
L76380 73323
L76352 73267
L76352 73099
L76380 73042
L76408 73014
L76464 72986
L76577 72986
L76633 73014
" />
<path d="M76773 73436
L77223 73436
" />
<path d="M77364 72986
L77364 73577
" />
<path d="M77364 73014
L77420 72986
L77533 72986
L77589 73014
L77617 73042
L77645 73099
L77645 73267
L77617 73323
L77589 73352
L77533 73380
L77420 73380
L77364 73352
" />
<path d="M78151 73352
L78095 73380
L77983 73380
L77926 73352
L77898 73323
L77870 73267
L77870 73099
L77898 73042
L77926 73014
L77983 72986
L78095 72986
L78151 73014
" />
<path d="M78404 73380
L78404 72789
" />
<path d="M78404 73014
L78461 72986
L78573 72986
L78629 73014
L78658 73042
L78686 73099
L78686 73267
L78658 73323
L78629 73352
L78573 73380
L78461 73380
L78404 73352
" />
</g>
<g style="fill:#000000; fill-opacity:0.0; 
stroke:#000000; stroke-width:39.3701; stroke-opacity:1; 
stroke-linecap:round; stroke-linejoin:round;">
</g>
<g style="fill:#000000; fill-opacity:0.0; 
stroke:#000000; stroke-width:59.0551; stroke-opacity:1; 
stroke-linecap:round; stroke-linejoin:round;">
<path d="M69685 71459
L112205 71459
" />
</g>
<g style="fill:#000000; fill-opacity:0.0; 
stroke:#000000; stroke-width:39.3701; stroke-opacity:1; 
stroke-linecap:round; stroke-linejoin:round;">
</g>
<g style="fill:#000000; fill-opacity:0.0; 
stroke:#000000; stroke-width:59.0551; stroke-opacity:1; 
stroke-linecap:round; stroke-linejoin:round;">
<text x="70079.6" y="72345.4"
textLength="3236.78" font-size="787.402" lengthAdjust="spacingAndGlyphs"
text-anchor="start" opacity="0">Sheet: </text>
<path d="M70221 72289
L70305 72317
L70446 72317
L70502 72289
L70530 72260
L70559 72204
L70559 72148
L70530 72092
L70502 72064
L70446 72036
L70334 72007
L70277 71979
L70249 71951
L70221 71895
L70221 71839
L70249 71782
L70277 71754
L70334 71726
L70474 71726
L70559 71754
" />
<path d="M70812 72317
L70812 71726
" />
<path d="M71065 72317
L71065 72007
L71037 71951
L70980 71923
L70896 71923
L70840 71951
L70812 71979
" />
<path d="M71571 72289
L71515 72317
L71402 72317
L71346 72289
L71318 72232
L71318 72007
L71346 71951
L71402 71923
L71515 71923
L71571 71951
L71599 72007
L71599 72064
L71318 72120
" />
<path d="M72077 72289
L72021 72317
L71908 72317
L71852 72289
L71824 72232
L71824 72007
L71852 71951
L71908 71923
L72021 71923
L72077 71951
L72105 72007
L72105 72064
L71824 72120
" />
<path d="M72274 71923
L72499 71923
" />
<path d="M72358 71726
L72358 72232
L72386 72289
L72443 72317
L72499 72317
" />
<path d="M72696 72260
L72724 72289
L72696 72317
L72668 72289
L72696 72260
L72696 72317
" />
<path d="M72696 71951
L72724 71979
L72696 72007
L72668 71979
L72696 71951
L72696 72007
" />
</g>
<g style="fill:#000000; fill-opacity:0.0; 
stroke:#000000; stroke-width:39.3701; stroke-opacity:1; 
stroke-linecap:round; stroke-linejoin:round;">
</g>
<g style="fill:#000000; fill-opacity:0.0; 
stroke:#000000; stroke-width:59.0551; stroke-opacity:1; 
stroke-linecap:round; stroke-linejoin:round;">
<path d="M77559 75396
L77559 76577
" />
</g>
<g style="fill:#000000; fill-opacity:0.0; 
stroke:#000000; stroke-width:39.3701; stroke-opacity:1; 
stroke-linecap:round; stroke-linejoin:round;">
</g>
<g style="fill:#000000; fill-opacity:0.0; 
stroke:#000000; stroke-width:59.0551; stroke-opacity:1; 
stroke-linecap:round; stroke-linejoin:round;">
<path d="M102756 75396
L102756 77955
" />
<g >
</g>
<g >
</g>
<g >
</g>
<g >
</g>
<g >
</g>
<g style="fill:#008400; fill-opacity:0.0; 
stroke:#008400; stroke-width:59.0551; stroke-opacity:1; 
stroke-linecap:round; stroke-linejoin:round;">
</g>
<g style="fill:#008400; fill-opacity:0.0; 
stroke:#008400; stroke-width:0; stroke-opacity:1; 
stroke-linecap:round; stroke-linejoin:round;">
</g>
<g style="fill:#008400; fill-opacity:1.0; 
stroke:#008400; stroke-width:0; stroke-opacity:1; 
stroke-linecap:round; stroke-linejoin:round;">
<path style="fill:#008400; fill-opacity:1.0; 
stroke:#008400; stroke-width:0; stroke-opacity:1; 
stroke-linecap:round; stroke-linejoin:round;fill-rule:evenodd;"
d="M 49655.7,40605.6
49665.3,40607
49674.6,40609.4
49683.7,40612.6
49692.5,40616.7
49700.7,40621.7
49708.5,40627.5
49715.7,40633.9
49722.1,40641.1
49727.9,40648.9
49732.9,40657.1
49737,40665.9
49740.2,40675
49742.6,40684.3
49744,40693.9
49744.5,40703.5
49744.5,40998.8
49744,41008.5
49742.6,41018
49740.2,41027.4
49737,41036.5
49732.9,41045.2
49727.9,41053.5
49722.1,41061.3
49715.7,41068.4
49708.5,41074.9
49700.7,41080.7
49692.5,41085.6
49683.7,41089.8
49674.6,41093
49665.3,41095.4
49655.7,41096.8
49646.1,41097.2
49153.9,41097.2
49144.3,41096.8
49134.7,41095.4
49125.4,41093
49116.3,41089.8
49107.5,41085.6
49099.3,41080.7
49091.5,41074.9
49084.3,41068.4
49077.9,41061.3
49072.1,41053.5
49067.1,41045.2
49063,41036.5
49059.8,41027.4
49057.4,41018
49056,41008.5
49055.5,40998.8
49055.5,40703.5
49056,40693.9
49057.4,40684.3
49059.8,40675
49063,40665.9
49067.1,40657.1
49072.1,40648.9
49077.9,40641.1
49084.3,40633.9
49091.5,40627.5
49099.3,40621.7
49107.5,40616.7
49116.3,40612.6
49125.4,40609.4
49134.7,40607
49144.3,40605.6
49153.9,40605.1
49646.1,40605.1
Z" /> 
<path style="fill:#008400; fill-opacity:1.0; 
stroke:#008400; stroke-width:0; stroke-opacity:1; 
stroke-linecap:round; stroke-linejoin:round;fill-rule:evenodd;"
d="M 49655.7,39503.2
49665.3,39504.6
49674.6,39507
49683.7,39510.2
49692.5,39514.4
49700.7,39519.3
49708.5,39525.1
49715.7,39531.6
49722.1,39538.7
49727.9,39546.5
49732.9,39554.8
49737,39563.5
49740.2,39572.6
49742.6,39582
49744,39591.5
49744.5,39601.2
49744.5,39896.5
49744,39906.1
49742.6,39915.7
49740.2,39925
49737,39934.1
49732.9,39942.9
49727.9,39951.1
49722.1,39958.9
49715.7,39966.1
49708.5,39972.5
49700.7,39978.3
49692.5,39983.3
49683.7,39987.4
49674.6,39990.6
49665.3,39993
49655.7,39994.4
49646.1,39994.9
49153.9,39994.9
49144.3,39994.4
49134.7,39993
49125.4,39990.6
49116.3,39987.4
49107.5,39983.3
49099.3,39978.3
49091.5,39972.5
49084.3,39966.1
49077.9,39958.9
49072.1,39951.1
49067.1,39942.9
49063,39934.1
49059.8,39925
49057.4,39915.7
49056,39906.1
49055.5,39896.5
49055.5,39601.2
49056,39591.5
49057.4,39582
49059.8,39572.6
49063,39563.5
49067.1,39554.8
49072.1,39546.5
49077.9,39538.7
49084.3,39531.6
49091.5,39525.1
49099.3,39519.3
49107.5,39514.4
49116.3,39510.2
49125.4,39507
49134.7,39504.6
49144.3,39503.2
49153.9,39502.8
49646.1,39502.8
Z" /> 
</g>
<g >
</g>
<g >
</g>
<g style="fill:#008400; fill-opacity:1.0; 
stroke:#008400; stroke-width:0; stroke-opacity:1; 
stroke-linecap:round; stroke-linejoin:round;">
<path style="fill:#008400; fill-opacity:1.0; 
stroke:#008400; stroke-width:0; stroke-opacity:1; 
stroke-linecap:round; stroke-linejoin:round;fill-rule:evenodd;"
d="M 46454.9,43756
46464.5,43757.4
46473.8,43759.8
46482.9,43763
46491.7,43767.1
46500,43772.1
46507.7,43777.9
46514.9,43784.3
46521.4,43791.5
46527.1,43799.3
46532.1,43807.5
46536.2,43816.3
46539.5,43825.4
46541.8,43834.7
46543.2,43844.3
46543.7,43853.9
46543.7,44346.1
46543.2,44355.7
46541.8,44365.3
46539.5,44374.6
46536.2,44383.7
46532.1,44392.5
46527.1,44400.7
46521.4,44408.5
46514.9,44415.7
46507.7,44422.1
46500,44427.9
46491.7,44432.9
46482.9,44437
46473.8,44440.2
46464.5,44442.6
46454.9,44444
46445.3,44444.5
46150,44444.5
46140.4,44444
46130.8,44442.6
46121.4,44440.2
46112.3,44437
46103.6,44432.9
46095.3,44427.9
46087.6,44422.1
46080.4,44415.7
46073.9,44408.5
46068.2,44400.7
46063.2,44392.5
46059.1,44383.7
46055.8,44374.6
46053.5,44365.3
46052,44355.7
46051.6,44346.1
46051.6,43853.9
46052,43844.3
46053.5,43834.7
46055.8,43825.4
46059.1,43816.3
46063.2,43807.5
46068.2,43799.3
46073.9,43791.5
46080.4,43784.3
46087.6,43777.9
46095.3,43772.1
46103.6,43767.1
46112.3,43763
46121.4,43759.8
46130.8,43757.4
46140.4,43756
46150,43755.5
46445.3,43755.5
Z" /> 
<path style="fill:#008400; fill-opacity:1.0; 
stroke:#008400; stroke-width:0; stroke-opacity:1; 
stroke-linecap:round; stroke-linejoin:round;fill-rule:evenodd;"
d="M 47557.3,43756
47566.8,43757.4
47576.2,43759.8
47585.3,43763
47594,43767.1
47602.3,43772.1
47610.1,43777.9
47617.2,43784.3
47623.7,43791.5
47629.5,43799.3
47634.4,43807.5
47638.6,43816.3
47641.8,43825.4
47644.2,43834.7
47645.6,43844.3
47646.1,43853.9
47646.1,44346.1
47645.6,44355.7
47644.2,44365.3
47641.8,44374.6
47638.6,44383.7
47634.4,44392.5
47629.5,44400.7
47623.7,44408.5
47617.2,44415.7
47610.1,44422.1
47602.3,44427.9
47594,44432.9
47585.3,44437
47576.2,44440.2
47566.8,44442.6
47557.3,44444
47547.6,44444.5
47252.4,44444.5
47242.7,44444
47233.2,44442.6
47223.8,44440.2
47214.7,44437
47206,44432.9
47197.7,44427.9
47189.9,44422.1
47182.8,44415.7
47176.3,44408.5
47170.5,44400.7
47165.6,44392.5
47161.4,44383.7
47158.2,44374.6
47155.8,44365.3
47154.4,44355.7
47153.9,44346.1
47153.9,43853.9
47154.4,43844.3
47155.8,43834.7
47158.2,43825.4
47161.4,43816.3
47165.6,43807.5
47170.5,43799.3
47176.3,43791.5
47182.8,43784.3
47189.9,43777.9
47197.7,43772.1
47206,43767.1
47214.7,43763
47223.8,43759.8
47233.2,43757.4
47242.7,43756
47252.4,43755.5
47547.6,43755.5
Z" /> 
</g>
<g >
</g>
<g style="fill:#008400; fill-opacity:1.0; 
stroke:#008400; stroke-width:0; stroke-opacity:1; 
stroke-linecap:round; stroke-linejoin:round;">
<path style="fill:#008400; fill-opacity:1.0; 
stroke:#008400; stroke-width:0; stroke-opacity:1; 
stroke-linecap:round; stroke-linejoin:round;fill-rule:evenodd;"
d="M 48855.7,46154.4
48865.3,46155.8
48874.6,46158.2
48883.7,46161.4
48892.5,46165.6
48900.7,46170.5
48908.5,46176.3
48915.7,46182.8
48922.1,46189.9
48927.9,46197.7
48932.9,46206
48937,46214.7
48940.2,46223.8
48942.6,46233.2
48944,46242.7
48944.5,46252.4
48944.5,46547.6
48944,46557.3
48942.6,46566.8
48940.2,46576.2
48937,46585.3
48932.9,46594
48927.9,46602.3
48922.1,46610.1
48915.7,46617.2
48908.5,46623.7
48900.7,46629.5
48892.5,46634.4
48883.7,46638.6
48874.6,46641.8
48865.3,46644.2
48855.7,46645.6
48846.1,46646.1
48353.9,46646.1
48344.3,46645.6
48334.7,46644.2
48325.4,46641.8
48316.3,46638.6
48307.5,46634.4
48299.3,46629.5
48291.5,46623.7
48284.3,46617.2
48277.9,46610.1
48272.1,46602.3
48267.1,46594
48263,46585.3
48259.8,46576.2
48257.4,46566.8
48256,46557.3
48255.5,46547.6
48255.5,46252.4
48256,46242.7
48257.4,46233.2
48259.8,46223.8
48263,46214.7
48267.1,46206
48272.1,46197.7
48277.9,46189.9
48284.3,46182.8
48291.5,46176.3
48299.3,46170.5
48307.5,46165.6
48316.3,46161.4
48325.4,46158.2
48334.7,46155.8
48344.3,46154.4
48353.9,46153.9
48846.1,46153.9
Z" /> 
<path style="fill:#008400; fill-opacity:1.0; 
stroke:#008400; stroke-width:0; stroke-opacity:1; 
stroke-linecap:round; stroke-linejoin:round;fill-rule:evenodd;"
d="M 48855.7,45052
48865.3,45053.5
48874.6,45055.8
48883.7,45059.1
48892.5,45063.2
48900.7,45068.2
48908.5,45073.9
48915.7,45080.4
48922.1,45087.6
48927.9,45095.3
48932.9,45103.6
48937,45112.3
48940.2,45121.4
48942.6,45130.8
48944,45140.4
48944.5,45150
48944.5,45445.3
48944,45454.9
48942.6,45464.5
48940.2,45473.8
48937,45482.9
48932.9,45491.7
48927.9,45500
48922.1,45507.7
48915.7,45514.9
48908.5,45521.4
48900.7,45527.1
48892.5,45532.1
48883.7,45536.2
48874.6,45539.5
48865.3,45541.8
48855.7,45543.2
48846.1,45543.7
48353.9,45543.7
48344.3,45543.2
48334.7,45541.8
48325.4,45539.5
48316.3,45536.2
48307.5,45532.1
48299.3,45527.1
48291.5,45521.4
48284.3,45514.9
48277.9,45507.7
48272.1,45500
48267.1,45491.7
48263,45482.9
48259.8,45473.8
48257.4,45464.5
48256,45454.9
48255.5,45445.3
48255.5,45150
48256,45140.4
48257.4,45130.8
48259.8,45121.4
48263,45112.3
48267.1,45103.6
48272.1,45095.3
48277.9,45087.6
48284.3,45080.4
48291.5,45073.9
48299.3,45068.2
48307.5,45063.2
48316.3,45059.1
48325.4,45055.8
48334.7,45053.5
48344.3,45052
48353.9,45051.6
48846.1,45051.6
Z" /> 
</g>
<g >
</g>
<g >
</g>
<g style="fill:#008400; fill-opacity:1.0; 
stroke:#008400; stroke-width:0; stroke-opacity:1; 
stroke-linecap:round; stroke-linejoin:round;">
<path style="fill:#008400; fill-opacity:1.0; 
stroke:#008400; stroke-width:0; stroke-opacity:1; 
stroke-linecap:round; stroke-linejoin:round;fill-rule:evenodd;"
d="M 35389,42839.4
35398.3,42840.8
35407.5,42843.1
35416.3,42846.3
35424.9,42850.3
35432.9,42855.1
35440.5,42860.8
35447.5,42867.1
35453.8,42874.1
35459.4,42881.6
35464.3,42889.7
35468.3,42898.2
35471.5,42907.1
35473.7,42916.2
35475.1,42925.5
35475.6,42934.9
35475.6,43126.9
35475.1,43136.3
35473.7,43145.6
35471.5,43154.7
35468.3,43163.6
35464.3,43172.1
35459.4,43180.2
35453.8,43187.7
35447.5,43194.7
35440.5,43201.1
35432.9,43206.7
35424.9,43211.5
35416.3,43215.5
35407.5,43218.7
35398.3,43221
35389,43222.4
35379.6,43222.8
35020.4,43222.8
35011,43222.4
35001.7,43221
34992.5,43218.7
34983.7,43215.5
34975.1,43211.5
34967.1,43206.7
34959.5,43201.1
34952.5,43194.7
34946.2,43187.7
34940.6,43180.2
34935.7,43172.1
34931.7,43163.6
34928.5,43154.7
34926.3,43145.6
34924.9,43136.3
34924.4,43126.9
34924.4,42934.9
34924.9,42925.5
34926.3,42916.2
34928.5,42907.1
34931.7,42898.2
34935.7,42889.7
34940.6,42881.6
34946.2,42874.1
34952.5,42867.1
34959.5,42860.8
34967.1,42855.1
34975.1,42850.3
34983.7,42846.3
34992.5,42843.1
35001.7,42840.8
35011,42839.4
35020.4,42839
35379.6,42839
Z" /> 
<path style="fill:#008400; fill-opacity:1.0; 
stroke:#008400; stroke-width:0; stroke-opacity:1; 
stroke-linecap:round; stroke-linejoin:round;fill-rule:evenodd;"
d="M 35389,43577.6
35398.3,43579
35407.5,43581.3
35416.3,43584.5
35424.9,43588.5
35432.9,43593.3
35440.5,43598.9
35447.5,43605.3
35453.8,43612.3
35459.4,43619.8
35464.3,43627.9
35468.3,43636.4
35471.5,43645.3
35473.7,43654.4
35475.1,43663.7
35475.6,43673.1
35475.6,43865.1
35475.1,43874.5
35473.7,43883.8
35471.5,43892.9
35468.3,43901.8
35464.3,43910.3
35459.4,43918.4
35453.8,43925.9
35447.5,43932.9
35440.5,43939.2
35432.9,43944.9
35424.9,43949.7
35416.3,43953.7
35407.5,43956.9
35398.3,43959.2
35389,43960.6
35379.6,43961
35020.4,43961
35011,43960.6
35001.7,43959.2
34992.5,43956.9
34983.7,43953.7
34975.1,43949.7
34967.1,43944.9
34959.5,43939.2
34952.5,43932.9
34946.2,43925.9
34940.6,43918.4
34935.7,43910.3
34931.7,43901.8
34928.5,43892.9
34926.3,43883.8
34924.9,43874.5
34924.4,43865.1
34924.4,43673.1
34924.9,43663.7
34926.3,43654.4
34928.5,43645.3
34931.7,43636.4
34935.7,43627.9
34940.6,43619.8
34946.2,43612.3
34952.5,43605.3
34959.5,43598.9
34967.1,43593.3
34975.1,43588.5
34983.7,43584.5
34992.5,43581.3
35001.7,43579
35011,43577.6
35020.4,43577.2
35379.6,43577.2
Z" /> 
</g>
<g >
</g>
<g >
</g>
<g style="fill:#008400; fill-opacity:1.0; 
stroke:#008400; stroke-width:0; stroke-opacity:1; 
stroke-linecap:round; stroke-linejoin:round;">
<path style="fill:#008400; fill-opacity:1.0; 
stroke:#008400; stroke-width:0; stroke-opacity:1; 
stroke-linecap:round; stroke-linejoin:round;fill-rule:evenodd;"
d="M 31136.3,47724.9
31145.6,47726.3
31154.7,47728.5
31163.6,47731.7
31172.1,47735.7
31180.2,47740.6
31187.7,47746.2
31194.7,47752.5
31201.1,47759.5
31206.7,47767.1
31211.5,47775.1
31215.5,47783.7
31218.7,47792.5
31221,47801.7
31222.4,47811
31222.8,47820.4
31222.8,48179.6
31222.4,48189
31221,48198.3
31218.7,48207.5
31215.5,48216.3
31211.5,48224.9
31206.7,48232.9
31201.1,48240.5
31194.7,48247.5
31187.7,48253.8
31180.2,48259.4
31172.1,48264.3
31163.6,48268.3
31154.7,48271.5
31145.6,48273.7
31136.3,48275.1
31126.9,48275.6
30934.9,48275.6
30925.5,48275.1
30916.2,48273.7
30907.1,48271.5
30898.2,48268.3
30889.7,48264.3
30881.6,48259.4
30874.1,48253.8
30867.1,48247.5
30860.8,48240.5
30855.1,48232.9
30850.3,48224.9
30846.3,48216.3
30843.1,48207.5
30840.8,48198.3
30839.4,48189
30839,48179.6
30839,47820.4
30839.4,47811
30840.8,47801.7
30843.1,47792.5
30846.3,47783.7
30850.3,47775.1
30855.1,47767.1
30860.8,47759.5
30867.1,47752.5
30874.1,47746.2
30881.6,47740.6
30889.7,47735.7
30898.2,47731.7
30907.1,47728.5
30916.2,47726.3
30925.5,47724.9
30934.9,47724.4
31126.9,47724.4
Z" /> 
<path style="fill:#008400; fill-opacity:1.0; 
stroke:#008400; stroke-width:0; stroke-opacity:1; 
stroke-linecap:round; stroke-linejoin:round;fill-rule:evenodd;"
d="M 31874.5,47724.9
31883.8,47726.3
31892.9,47728.5
31901.8,47731.7
31910.3,47735.7
31918.4,47740.6
31925.9,47746.2
31932.9,47752.5
31939.2,47759.5
31944.9,47767.1
31949.7,47775.1
31953.7,47783.7
31956.9,47792.5
31959.2,47801.7
31960.6,47811
31961,47820.4
31961,48179.6
31960.6,48189
31959.2,48198.3
31956.9,48207.5
31953.7,48216.3
31949.7,48224.9
31944.9,48232.9
31939.2,48240.5
31932.9,48247.5
31925.9,48253.8
31918.4,48259.4
31910.3,48264.3
31901.8,48268.3
31892.9,48271.5
31883.8,48273.7
31874.5,48275.1
31865.1,48275.6
31673.1,48275.6
31663.7,48275.1
31654.4,48273.7
31645.3,48271.5
31636.4,48268.3
31627.9,48264.3
31619.8,48259.4
31612.3,48253.8
31605.3,48247.5
31598.9,48240.5
31593.3,48232.9
31588.5,48224.9
31584.5,48216.3
31581.3,48207.5
31579,48198.3
31577.6,48189
31577.2,48179.6
31577.2,47820.4
31577.6,47811
31579,47801.7
31581.3,47792.5
31584.5,47783.7
31588.5,47775.1
31593.3,47767.1
31598.9,47759.5
31605.3,47752.5
31612.3,47746.2
31619.8,47740.6
31627.9,47735.7
31636.4,47731.7
31645.3,47728.5
31654.4,47726.3
31663.7,47724.9
31673.1,47724.4
31865.1,47724.4
Z" /> 
</g>
<g >
</g>
<g style="fill:#008400; fill-opacity:1.0; 
stroke:#008400; stroke-width:0; stroke-opacity:1; 
stroke-linecap:round; stroke-linejoin:round;">
<path style="fill:#008400; fill-opacity:1.0; 
stroke:#008400; stroke-width:0; stroke-opacity:1; 
stroke-linecap:round; stroke-linejoin:round;fill-rule:evenodd;"
d="M 38306.1,46456
38315.7,46457.4
38325,46459.8
38334.1,46463
38342.9,46467.1
38351.1,46472.1
38358.9,46477.9
38366.1,46484.3
38372.5,46491.5
38378.3,46499.3
38383.3,46507.5
38387.4,46516.3
38390.6,46525.4
38393,46534.7
38394.4,46544.3
38394.9,46553.9
38394.9,47046.1
38394.4,47055.7
38393,47065.3
38390.6,47074.6
38387.4,47083.7
38383.3,47092.5
38378.3,47100.7
38372.5,47108.5
38366.1,47115.7
38358.9,47122.1
38351.1,47127.9
38342.9,47132.9
38334.1,47137
38325,47140.2
38315.7,47142.6
38306.1,47144
38296.5,47144.5
38001.2,47144.5
37991.5,47144
37982,47142.6
37972.6,47140.2
37963.5,47137
37954.8,47132.9
37946.5,47127.9
37938.7,47122.1
37931.6,47115.7
37925.1,47108.5
37919.3,47100.7
37914.4,47092.5
37910.2,47083.7
37907,47074.6
37904.6,47065.3
37903.2,47055.7
37902.8,47046.1
37902.8,46553.9
37903.2,46544.3
37904.6,46534.7
37907,46525.4
37910.2,46516.3
37914.4,46507.5
37919.3,46499.3
37925.1,46491.5
37931.6,46484.3
37938.7,46477.9
37946.5,46472.1
37954.8,46467.1
37963.5,46463
37972.6,46459.8
37982,46457.4
37991.5,46456
38001.2,46455.5
38296.5,46455.5
Z" /> 
<path style="fill:#008400; fill-opacity:1.0; 
stroke:#008400; stroke-width:0; stroke-opacity:1; 
stroke-linecap:round; stroke-linejoin:round;fill-rule:evenodd;"
d="M 39408.5,46456
39418,46457.4
39427.4,46459.8
39436.5,46463
39445.2,46467.1
39453.5,46472.1
39461.3,46477.9
39468.4,46484.3
39474.9,46491.5
39480.7,46499.3
39485.6,46507.5
39489.8,46516.3
39493,46525.4
39495.4,46534.7
39496.8,46544.3
39497.2,46553.9
39497.2,47046.1
39496.8,47055.7
39495.4,47065.3
39493,47074.6
39489.8,47083.7
39485.6,47092.5
39480.7,47100.7
39474.9,47108.5
39468.4,47115.7
39461.3,47122.1
39453.5,47127.9
39445.2,47132.9
39436.5,47137
39427.4,47140.2
39418,47142.6
39408.5,47144
39398.8,47144.5
39103.5,47144.5
39093.9,47144
39084.3,47142.6
39075,47140.2
39065.9,47137
39057.1,47132.9
39048.9,47127.9
39041.1,47122.1
39033.9,47115.7
39027.5,47108.5
39021.7,47100.7
39016.7,47092.5
39012.6,47083.7
39009.4,47074.6
39007,47065.3
39005.6,47055.7
39005.1,47046.1
39005.1,46553.9
39005.6,46544.3
39007,46534.7
39009.4,46525.4
39012.6,46516.3
39016.7,46507.5
39021.7,46499.3
39027.5,46491.5
39033.9,46484.3
39041.1,46477.9
39048.9,46472.1
39057.1,46467.1
39065.9,46463
39075,46459.8
39084.3,46457.4
39093.9,46456
39103.5,46455.5
39398.8,46455.5
Z" /> 
</g>
<g >
</g>
<g style="fill:#008400; fill-opacity:1.0; 
stroke:#008400; stroke-width:0; stroke-opacity:1; 
stroke-linecap:round; stroke-linejoin:round;">
<path style="fill:#008400; fill-opacity:1.0; 
stroke:#008400; stroke-width:0; stroke-opacity:1; 
stroke-linecap:round; stroke-linejoin:round;fill-rule:evenodd;"
d="M 50955.7,39503.2
50965.3,39504.6
50974.6,39507
50983.7,39510.2
50992.5,39514.4
51000.7,39519.3
51008.5,39525.1
51015.7,39531.6
51022.1,39538.7
51027.9,39546.5
51032.9,39554.8
51037,39563.5
51040.2,39572.6
51042.6,39582
51044,39591.5
51044.5,39601.2
51044.5,39896.5
51044,39906.1
51042.6,39915.7
51040.2,39925
51037,39934.1
51032.9,39942.9
51027.9,39951.1
51022.1,39958.9
51015.7,39966.1
51008.5,39972.5
51000.7,39978.3
50992.5,39983.3
50983.7,39987.4
50974.6,39990.6
50965.3,39993
50955.7,39994.4
50946.1,39994.9
50453.9,39994.9
50444.3,39994.4
50434.7,39993
50425.4,39990.6
50416.3,39987.4
50407.5,39983.3
50399.3,39978.3
50391.5,39972.5
50384.3,39966.1
50377.9,39958.9
50372.1,39951.1
50367.1,39942.9
50363,39934.1
50359.8,39925
50357.4,39915.7
50356,39906.1
50355.5,39896.5
50355.5,39601.2
50356,39591.5
50357.4,39582
50359.8,39572.6
50363,39563.5
50367.1,39554.8
50372.1,39546.5
50377.9,39538.7
50384.3,39531.6
50391.5,39525.1
50399.3,39519.3
50407.5,39514.4
50416.3,39510.2
50425.4,39507
50434.7,39504.6
50444.3,39503.2
50453.9,39502.8
50946.1,39502.8
Z" /> 
<path style="fill:#008400; fill-opacity:1.0; 
stroke:#008400; stroke-width:0; stroke-opacity:1; 
stroke-linecap:round; stroke-linejoin:round;fill-rule:evenodd;"
d="M 50955.7,40605.6
50965.3,40607
50974.6,40609.4
50983.7,40612.6
50992.5,40616.7
51000.7,40621.7
51008.5,40627.5
51015.7,40633.9
51022.1,40641.1
51027.9,40648.9
51032.9,40657.1
51037,40665.9
51040.2,40675
51042.6,40684.3
51044,40693.9
51044.5,40703.5
51044.5,40998.8
51044,41008.5
51042.6,41018
51040.2,41027.4
51037,41036.5
51032.9,41045.2
51027.9,41053.5
51022.1,41061.3
51015.7,41068.4
51008.5,41074.9
51000.7,41080.7
50992.5,41085.6
50983.7,41089.8
50974.6,41093
50965.3,41095.4
50955.7,41096.8
50946.1,41097.2
50453.9,41097.2
50444.3,41096.8
50434.7,41095.4
50425.4,41093
50416.3,41089.8
50407.5,41085.6
50399.3,41080.7
50391.5,41074.9
50384.3,41068.4
50377.9,41061.3
50372.1,41053.5
50367.1,41045.2
50363,41036.5
50359.8,41027.4
50357.4,41018
50356,41008.5
50355.5,40998.8
50355.5,40703.5
50356,40693.9
50357.4,40684.3
50359.8,40675
50363,40665.9
50367.1,40657.1
50372.1,40648.9
50377.9,40641.1
50384.3,40633.9
50391.5,40627.5
50399.3,40621.7
50407.5,40616.7
50416.3,40612.6
50425.4,40609.4
50434.7,40607
50444.3,40605.6
50453.9,40605.1
50946.1,40605.1
Z" /> 
</g>
<g >
</g>
<g >
</g>
<g >
</g>
<g >
</g>
<g >
</g>
<g >
</g>
<g >
</g>
<g >
</g>
<g style="fill:#008400; fill-opacity:1.0; 
stroke:#008400; stroke-width:0; stroke-opacity:1; 
stroke-linecap:round; stroke-linejoin:round;">
<path style="fill:#008400; fill-opacity:1.0; 
stroke:#008400; stroke-width:0; stroke-opacity:1; 
stroke-linecap:round; stroke-linejoin:round;fill-rule:evenodd;"
d="M 44455.7,44052
44465.3,44053.5
44474.6,44055.8
44483.7,44059.1
44492.5,44063.2
44500.7,44068.2
44508.5,44073.9
44515.7,44080.4
44522.1,44087.6
44527.9,44095.3
44532.9,44103.6
44537,44112.3
44540.2,44121.4
44542.6,44130.8
44544,44140.4
44544.5,44150
44544.5,44445.3
44544,44454.9
44542.6,44464.5
44540.2,44473.8
44537,44482.9
44532.9,44491.7
44527.9,44500
44522.1,44507.7
44515.7,44514.9
44508.5,44521.4
44500.7,44527.1
44492.5,44532.1
44483.7,44536.2
44474.6,44539.5
44465.3,44541.8
44455.7,44543.2
44446.1,44543.7
43953.9,44543.7
43944.3,44543.2
43934.7,44541.8
43925.4,44539.5
43916.3,44536.2
43907.5,44532.1
43899.3,44527.1
43891.5,44521.4
43884.3,44514.9
43877.9,44507.7
43872.1,44500
43867.1,44491.7
43863,44482.9
43859.8,44473.8
43857.4,44464.5
43856,44454.9
43855.5,44445.3
43855.5,44150
43856,44140.4
43857.4,44130.8
43859.8,44121.4
43863,44112.3
43867.1,44103.6
43872.1,44095.3
43877.9,44087.6
43884.3,44080.4
43891.5,44073.9
43899.3,44068.2
43907.5,44063.2
43916.3,44059.1
43925.4,44055.8
43934.7,44053.5
43944.3,44052
43953.9,44051.6
44446.1,44051.6
Z" /> 
<path style="fill:#008400; fill-opacity:1.0; 
stroke:#008400; stroke-width:0; stroke-opacity:1; 
stroke-linecap:round; stroke-linejoin:round;fill-rule:evenodd;"
d="M 44455.7,45154.4
44465.3,45155.8
44474.6,45158.2
44483.7,45161.4
44492.5,45165.6
44500.7,45170.5
44508.5,45176.3
44515.7,45182.8
44522.1,45189.9
44527.9,45197.7
44532.9,45206
44537,45214.7
44540.2,45223.8
44542.6,45233.2
44544,45242.7
44544.5,45252.4
44544.5,45547.6
44544,45557.3
44542.6,45566.8
44540.2,45576.2
44537,45585.3
44532.9,45594
44527.9,45602.3
44522.1,45610.1
44515.7,45617.2
44508.5,45623.7
44500.7,45629.5
44492.5,45634.4
44483.7,45638.6
44474.6,45641.8
44465.3,45644.2
44455.7,45645.6
44446.1,45646.1
43953.9,45646.1
43944.3,45645.6
43934.7,45644.2
43925.4,45641.8
43916.3,45638.6
43907.5,45634.4
43899.3,45629.5
43891.5,45623.7
43884.3,45617.2
43877.9,45610.1
43872.1,45602.3
43867.1,45594
43863,45585.3
43859.8,45576.2
43857.4,45566.8
43856,45557.3
43855.5,45547.6
43855.5,45252.4
43856,45242.7
43857.4,45233.2
43859.8,45223.8
43863,45214.7
43867.1,45206
43872.1,45197.7
43877.9,45189.9
43884.3,45182.8
43891.5,45176.3
43899.3,45170.5
43907.5,45165.6
43916.3,45161.4
43925.4,45158.2
43934.7,45155.8
43944.3,45154.4
43953.9,45153.9
44446.1,45153.9
Z" /> 
</g>
<g >
</g>
<g >
</g>
<g style="fill:#008400; fill-opacity:1.0; 
stroke:#008400; stroke-width:0; stroke-opacity:1; 
stroke-linecap:round; stroke-linejoin:round;">
<path style="fill:#008400; fill-opacity:1.0; 
stroke:#008400; stroke-width:0; stroke-opacity:1; 
stroke-linecap:round; stroke-linejoin:round;fill-rule:evenodd;"
d="M 45254.9,46956
45264.5,46957.4
45273.8,46959.8
45282.9,46963
45291.7,46967.1
45300,46972.1
45307.7,46977.9
45314.9,46984.3
45321.4,46991.5
45327.1,46999.3
45332.1,47007.5
45336.2,47016.3
45339.5,47025.4
45341.8,47034.7
45343.2,47044.3
45343.7,47053.9
45343.7,47546.1
45343.2,47555.7
45341.8,47565.3
45339.5,47574.6
45336.2,47583.7
45332.1,47592.5
45327.1,47600.7
45321.4,47608.5
45314.9,47615.7
45307.7,47622.1
45300,47627.9
45291.7,47632.9
45282.9,47637
45273.8,47640.2
45264.5,47642.6
45254.9,47644
45245.3,47644.5
44950,47644.5
44940.4,47644
44930.8,47642.6
44921.4,47640.2
44912.3,47637
44903.6,47632.9
44895.3,47627.9
44887.6,47622.1
44880.4,47615.7
44873.9,47608.5
44868.2,47600.7
44863.2,47592.5
44859.1,47583.7
44855.8,47574.6
44853.5,47565.3
44852,47555.7
44851.6,47546.1
44851.6,47053.9
44852,47044.3
44853.5,47034.7
44855.8,47025.4
44859.1,47016.3
44863.2,47007.5
44868.2,46999.3
44873.9,46991.5
44880.4,46984.3
44887.6,46977.9
44895.3,46972.1
44903.6,46967.1
44912.3,46963
44921.4,46959.8
44930.8,46957.4
44940.4,46956
44950,46955.5
45245.3,46955.5
Z" /> 
<path style="fill:#008400; fill-opacity:1.0; 
stroke:#008400; stroke-width:0; stroke-opacity:1; 
stroke-linecap:round; stroke-linejoin:round;fill-rule:evenodd;"
d="M 46357.3,46956
46366.8,46957.4
46376.2,46959.8
46385.3,46963
46394,46967.1
46402.3,46972.1
46410.1,46977.9
46417.2,46984.3
46423.7,46991.5
46429.5,46999.3
46434.4,47007.5
46438.6,47016.3
46441.8,47025.4
46444.2,47034.7
46445.6,47044.3
46446.1,47053.9
46446.1,47546.1
46445.6,47555.7
46444.2,47565.3
46441.8,47574.6
46438.6,47583.7
46434.4,47592.5
46429.5,47600.7
46423.7,47608.5
46417.2,47615.7
46410.1,47622.1
46402.3,47627.9
46394,47632.9
46385.3,47637
46376.2,47640.2
46366.8,47642.6
46357.3,47644
46347.6,47644.5
46052.4,47644.5
46042.7,47644
46033.2,47642.6
46023.8,47640.2
46014.7,47637
46006,47632.9
45997.7,47627.9
45989.9,47622.1
45982.8,47615.7
45976.3,47608.5
45970.5,47600.7
45965.6,47592.5
45961.4,47583.7
45958.2,47574.6
45955.8,47565.3
45954.4,47555.7
45953.9,47546.1
45953.9,47053.9
45954.4,47044.3
45955.8,47034.7
45958.2,47025.4
45961.4,47016.3
45965.6,47007.5
45970.5,46999.3
45976.3,46991.5
45982.8,46984.3
45989.9,46977.9
45997.7,46972.1
46006,46967.1
46014.7,46963
46023.8,46959.8
46033.2,46957.4
46042.7,46956
46052.4,46955.5
46347.6,46955.5
Z" /> 
</g>
<g >
</g>
<g style="fill:#008400; fill-opacity:1.0; 
stroke:#008400; stroke-width:0; stroke-opacity:1; 
stroke-linecap:round; stroke-linejoin:round;">
<path style="fill:#008400; fill-opacity:1.0; 
stroke:#008400; stroke-width:0; stroke-opacity:1; 
stroke-linecap:round; stroke-linejoin:round;fill-rule:evenodd;"
d="M 32955.7,42652
32965.3,42653.5
32974.6,42655.8
32983.7,42659.1
32992.5,42663.2
33000.7,42668.2
33008.5,42673.9
33015.7,42680.4
33022.1,42687.6
33027.9,42695.3
33032.9,42703.6
33037,42712.3
33040.2,42721.4
33042.6,42730.8
33044,42740.4
33044.5,42750
33044.5,43045.3
33044,43054.9
33042.6,43064.5
33040.2,43073.8
33037,43082.9
33032.9,43091.7
33027.9,43100
33022.1,43107.7
33015.7,43114.9
33008.5,43121.4
33000.7,43127.1
32992.5,43132.1
32983.7,43136.2
32974.6,43139.5
32965.3,43141.8
32955.7,43143.2
32946.1,43143.7
32453.9,43143.7
32444.3,43143.2
32434.7,43141.8
32425.4,43139.5
32416.3,43136.2
32407.5,43132.1
32399.3,43127.1
32391.5,43121.4
32384.3,43114.9
32377.9,43107.7
32372.1,43100
32367.1,43091.7
32363,43082.9
32359.8,43073.8
32357.4,43064.5
32356,43054.9
32355.5,43045.3
32355.5,42750
32356,42740.4
32357.4,42730.8
32359.8,42721.4
32363,42712.3
32367.1,42703.6
32372.1,42695.3
32377.9,42687.6
32384.3,42680.4
32391.5,42673.9
32399.3,42668.2
32407.5,42663.2
32416.3,42659.1
32425.4,42655.8
32434.7,42653.5
32444.3,42652
32453.9,42651.6
32946.1,42651.6
Z" /> 
<path style="fill:#008400; fill-opacity:1.0; 
stroke:#008400; stroke-width:0; stroke-opacity:1; 
stroke-linecap:round; stroke-linejoin:round;fill-rule:evenodd;"
d="M 32955.7,43754.4
32965.3,43755.8
32974.6,43758.2
32983.7,43761.4
32992.5,43765.6
33000.7,43770.5
33008.5,43776.3
33015.7,43782.8
33022.1,43789.9
33027.9,43797.7
33032.9,43806
33037,43814.7
33040.2,43823.8
33042.6,43833.2
33044,43842.7
33044.5,43852.4
33044.5,44147.6
33044,44157.3
33042.6,44166.8
33040.2,44176.2
33037,44185.3
33032.9,44194
33027.9,44202.3
33022.1,44210.1
33015.7,44217.2
33008.5,44223.7
33000.7,44229.5
32992.5,44234.4
32983.7,44238.6
32974.6,44241.8
32965.3,44244.2
32955.7,44245.6
32946.1,44246.1
32453.9,44246.1
32444.3,44245.6
32434.7,44244.2
32425.4,44241.8
32416.3,44238.6
32407.5,44234.4
32399.3,44229.5
32391.5,44223.7
32384.3,44217.2
32377.9,44210.1
32372.1,44202.3
32367.1,44194
32363,44185.3
32359.8,44176.2
32357.4,44166.8
32356,44157.3
32355.5,44147.6
32355.5,43852.4
32356,43842.7
32357.4,43833.2
32359.8,43823.8
32363,43814.7
32367.1,43806
32372.1,43797.7
32377.9,43789.9
32384.3,43782.8
32391.5,43776.3
32399.3,43770.5
32407.5,43765.6
32416.3,43761.4
32425.4,43758.2
32434.7,43755.8
32444.3,43754.4
32453.9,43753.9
32946.1,43753.9
Z" /> 
</g>
<g >
</g>
<g style="fill:#008400; fill-opacity:1.0; 
stroke:#008400; stroke-width:0; stroke-opacity:1; 
stroke-linecap:round; stroke-linejoin:round;">
<path style="fill:#008400; fill-opacity:1.0; 
stroke:#008400; stroke-width:0; stroke-opacity:1; 
stroke-linecap:round; stroke-linejoin:round;fill-rule:evenodd;"
d="M 35655.7,44652
35665.3,44653.5
35674.6,44655.8
35683.7,44659.1
35692.5,44663.2
35700.7,44668.2
35708.5,44673.9
35715.7,44680.4
35722.1,44687.6
35727.9,44695.3
35732.9,44703.6
35737,44712.3
35740.2,44721.4
35742.6,44730.8
35744,44740.4
35744.5,44750
35744.5,45045.3
35744,45054.9
35742.6,45064.5
35740.2,45073.8
35737,45082.9
35732.9,45091.7
35727.9,45100
35722.1,45107.7
35715.7,45114.9
35708.5,45121.4
35700.7,45127.1
35692.5,45132.1
35683.7,45136.2
35674.6,45139.5
35665.3,45141.8
35655.7,45143.2
35646.1,45143.7
35153.9,45143.7
35144.3,45143.2
35134.7,45141.8
35125.4,45139.5
35116.3,45136.2
35107.5,45132.1
35099.3,45127.1
35091.5,45121.4
35084.3,45114.9
35077.9,45107.7
35072.1,45100
35067.1,45091.7
35063,45082.9
35059.8,45073.8
35057.4,45064.5
35056,45054.9
35055.5,45045.3
35055.5,44750
35056,44740.4
35057.4,44730.8
35059.8,44721.4
35063,44712.3
35067.1,44703.6
35072.1,44695.3
35077.9,44687.6
35084.3,44680.4
35091.5,44673.9
35099.3,44668.2
35107.5,44663.2
35116.3,44659.1
35125.4,44655.8
35134.7,44653.5
35144.3,44652
35153.9,44651.6
35646.1,44651.6
Z" /> 
<path style="fill:#008400; fill-opacity:1.0; 
stroke:#008400; stroke-width:0; stroke-opacity:1; 
stroke-linecap:round; stroke-linejoin:round;fill-rule:evenodd;"
d="M 35655.7,45754.4
35665.3,45755.8
35674.6,45758.2
35683.7,45761.4
35692.5,45765.6
35700.7,45770.5
35708.5,45776.3
35715.7,45782.8
35722.1,45789.9
35727.9,45797.7
35732.9,45806
35737,45814.7
35740.2,45823.8
35742.6,45833.2
35744,45842.7
35744.5,45852.4
35744.5,46147.6
35744,46157.3
35742.6,46166.8
35740.2,46176.2
35737,46185.3
35732.9,46194
35727.9,46202.3
35722.1,46210.1
35715.7,46217.2
35708.5,46223.7
35700.7,46229.5
35692.5,46234.4
35683.7,46238.6
35674.6,46241.8
35665.3,46244.2
35655.7,46245.6
35646.1,46246.1
35153.9,46246.1
35144.3,46245.6
35134.7,46244.2
35125.4,46241.8
35116.3,46238.6
35107.5,46234.4
35099.3,46229.5
35091.5,46223.7
35084.3,46217.2
35077.9,46210.1
35072.1,46202.3
35067.1,46194
35063,46185.3
35059.8,46176.2
35057.4,46166.8
35056,46157.3
35055.5,46147.6
35055.5,45852.4
35056,45842.7
35057.4,45833.2
35059.8,45823.8
35063,45814.7
35067.1,45806
35072.1,45797.7
35077.9,45789.9
35084.3,45782.8
35091.5,45776.3
35099.3,45770.5
35107.5,45765.6
35116.3,45761.4
35125.4,45758.2
35134.7,45755.8
35144.3,45754.4
35153.9,45753.9
35646.1,45753.9
Z" /> 
</g>
<g >
</g>
<g >
</g>
<g style="fill:#008400; fill-opacity:1.0; 
stroke:#008400; stroke-width:0; stroke-opacity:1; 
stroke-linecap:round; stroke-linejoin:round;">
<path style="fill:#008400; fill-opacity:1.0; 
stroke:#008400; stroke-width:0; stroke-opacity:1; 
stroke-linecap:round; stroke-linejoin:round;fill-rule:evenodd;"
d="M 38455.7,44905.6
38465.3,44907
38474.6,44909.4
38483.7,44912.6
38492.5,44916.7
38500.7,44921.7
38508.5,44927.5
38515.7,44933.9
38522.1,44941.1
38527.9,44948.9
38532.9,44957.1
38537,44965.9
38540.2,44975
38542.6,44984.3
38544,44993.9
38544.5,45003.5
38544.5,45298.8
38544,45308.5
38542.6,45318
38540.2,45327.4
38537,45336.5
38532.9,45345.2
38527.9,45353.5
38522.1,45361.3
38515.7,45368.4
38508.5,45374.9
38500.7,45380.7
38492.5,45385.6
38483.7,45389.8
38474.6,45393
38465.3,45395.4
38455.7,45396.8
38446.1,45397.2
37953.9,45397.2
37944.3,45396.8
37934.7,45395.4
37925.4,45393
37916.3,45389.8
37907.5,45385.6
37899.3,45380.7
37891.5,45374.9
37884.3,45368.4
37877.9,45361.3
37872.1,45353.5
37867.1,45345.2
37863,45336.5
37859.8,45327.4
37857.4,45318
37856,45308.5
37855.5,45298.8
37855.5,45003.5
37856,44993.9
37857.4,44984.3
37859.8,44975
37863,44965.9
37867.1,44957.1
37872.1,44948.9
37877.9,44941.1
37884.3,44933.9
37891.5,44927.5
37899.3,44921.7
37907.5,44916.7
37916.3,44912.6
37925.4,44909.4
37934.7,44907
37944.3,44905.6
37953.9,44905.1
38446.1,44905.1
Z" /> 
<path style="fill:#008400; fill-opacity:1.0; 
stroke:#008400; stroke-width:0; stroke-opacity:1; 
stroke-linecap:round; stroke-linejoin:round;fill-rule:evenodd;"
d="M 38455.7,43803.2
38465.3,43804.6
38474.6,43807
38483.7,43810.2
38492.5,43814.4
38500.7,43819.3
38508.5,43825.1
38515.7,43831.6
38522.1,43838.7
38527.9,43846.5
38532.9,43854.8
38537,43863.5
38540.2,43872.6
38542.6,43882
38544,43891.5
38544.5,43901.2
38544.5,44196.5
38544,44206.1
38542.6,44215.7
38540.2,44225
38537,44234.1
38532.9,44242.9
38527.9,44251.1
38522.1,44258.9
38515.7,44266.1
38508.5,44272.5
38500.7,44278.3
38492.5,44283.3
38483.7,44287.4
38474.6,44290.6
38465.3,44293
38455.7,44294.4
38446.1,44294.9
37953.9,44294.9
37944.3,44294.4
37934.7,44293
37925.4,44290.6
37916.3,44287.4
37907.5,44283.3
37899.3,44278.3
37891.5,44272.5
37884.3,44266.1
37877.9,44258.9
37872.1,44251.1
37867.1,44242.9
37863,44234.1
37859.8,44225
37857.4,44215.7
37856,44206.1
37855.5,44196.5
37855.5,43901.2
37856,43891.5
37857.4,43882
37859.8,43872.6
37863,43863.5
37867.1,43854.8
37872.1,43846.5
37877.9,43838.7
37884.3,43831.6
37891.5,43825.1
37899.3,43819.3
37907.5,43814.4
37916.3,43810.2
37925.4,43807
37934.7,43804.6
37944.3,43803.2
37953.9,43802.8
38446.1,43802.8
Z" /> 
</g>
<g >
</g>
<g >
</g>
<g >
</g>
<g >
</g>
<g >
</g>
<g >
</g>
<g >
</g>
<g >
</g>
<g >
</g>
<g >
</g>
<g >
</g>
<g >
</g>
<g >
</g>
<g >
</g>
<g >
</g>
<g style="fill:#008400; fill-opacity:1.0; 
stroke:#008400; stroke-width:0; stroke-opacity:1; 
stroke-linecap:round; stroke-linejoin:round;">
<path style="fill:#008400; fill-opacity:1.0; 
stroke:#008400; stroke-width:0; stroke-opacity:1; 
stroke-linecap:round; stroke-linejoin:round;fill-rule:evenodd;"
d="M 47605,44832.2
47610.7,44833
47616.4,44834.4
47621.8,44836.4
47627.1,44838.9
47632,44841.8
47636.7,44845.3
47641,44849.2
47644.9,44853.5
47648.3,44858.1
47651.3,44863.1
47653.8,44868.3
47655.7,44873.8
47657.1,44879.4
47658,44885.2
47658.3,44890.9
47658.3,45009.1
47658,45014.8
47657.1,45020.6
47655.7,45026.2
47653.8,45031.7
47651.3,45036.9
47648.3,45041.9
47644.9,45046.5
47641,45050.8
47636.7,45054.7
47632,45058.2
47627.1,45061.1
47621.8,45063.6
47616.4,45065.6
47610.7,45067
47605,45067.8
47599.2,45068.1
46949.6,45068.1
46943.8,45067.8
46938.1,45067
46932.5,45065.6
46927,45063.6
46921.8,45061.1
46916.8,45058.2
46912.1,45054.7
46907.8,45050.8
46904,45046.5
46900.5,45041.9
46897.5,45036.9
46895,45031.7
46893.1,45026.2
46891.7,45020.6
46890.8,45014.8
46890.6,45009.1
46890.6,44890.9
46890.8,44885.2
46891.7,44879.4
46893.1,44873.8
46895,44868.3
46897.5,44863.1
46900.5,44858.1
46904,44853.5
46907.8,44849.2
46912.1,44845.3
46916.8,44841.8
46921.8,44838.9
46927,44836.4
46932.5,44834.4
46938.1,44833
46943.8,44832.2
46949.6,44831.9
47599.2,44831.9
Z" /> 
<path style="fill:#008400; fill-opacity:1.0; 
stroke:#008400; stroke-width:0; stroke-opacity:1; 
stroke-linecap:round; stroke-linejoin:round;fill-rule:evenodd;"
d="M 47605,45332.2
47610.7,45333
47616.4,45334.4
47621.8,45336.4
47627.1,45338.9
47632,45341.8
47636.7,45345.3
47641,45349.2
47644.9,45353.5
47648.3,45358.1
47651.3,45363.1
47653.8,45368.3
47655.7,45373.8
47657.1,45379.4
47658,45385.2
47658.3,45390.9
47658.3,45509.1
47658,45514.8
47657.1,45520.6
47655.7,45526.2
47653.8,45531.7
47651.3,45536.9
47648.3,45541.9
47644.9,45546.5
47641,45550.8
47636.7,45554.7
47632,45558.2
47627.1,45561.1
47621.8,45563.6
47616.4,45565.6
47610.7,45567
47605,45567.8
47599.2,45568.1
46949.6,45568.1
46943.8,45567.8
46938.1,45567
46932.5,45565.6
46927,45563.6
46921.8,45561.1
46916.8,45558.2
46912.1,45554.7
46907.8,45550.8
46904,45546.5
46900.5,45541.9
46897.5,45536.9
46895,45531.7
46893.1,45526.2
46891.7,45520.6
46890.8,45514.8
46890.6,45509.1
46890.6,45390.9
46890.8,45385.2
46891.7,45379.4
46893.1,45373.8
46895,45368.3
46897.5,45363.1
46900.5,45358.1
46904,45353.5
46907.8,45349.2
46912.1,45345.3
46916.8,45341.8
46921.8,45338.9
46927,45336.4
46932.5,45334.4
46938.1,45333
46943.8,45332.2
46949.6,45331.9
47599.2,45331.9
Z" /> 
<path style="fill:#008400; fill-opacity:1.0; 
stroke:#008400; stroke-width:0; stroke-opacity:1; 
stroke-linecap:round; stroke-linejoin:round;fill-rule:evenodd;"
d="M 47605,45832.2
47610.7,45833
47616.4,45834.4
47621.8,45836.4
47627.1,45838.9
47632,45841.8
47636.7,45845.3
47641,45849.2
47644.9,45853.5
47648.3,45858.1
47651.3,45863.1
47653.8,45868.3
47655.7,45873.8
47657.1,45879.4
47658,45885.2
47658.3,45890.9
47658.3,46009.1
47658,46014.8
47657.1,46020.6
47655.7,46026.2
47653.8,46031.7
47651.3,46036.9
47648.3,46041.9
47644.9,46046.5
47641,46050.8
47636.7,46054.7
47632,46058.2
47627.1,46061.1
47621.8,46063.6
47616.4,46065.6
47610.7,46067
47605,46067.8
47599.2,46068.1
46949.6,46068.1
46943.8,46067.8
46938.1,46067
46932.5,46065.6
46927,46063.6
46921.8,46061.1
46916.8,46058.2
46912.1,46054.7
46907.8,46050.8
46904,46046.5
46900.5,46041.9
46897.5,46036.9
46895,46031.7
46893.1,46026.2
46891.7,46020.6
46890.8,46014.8
46890.6,46009.1
46890.6,45890.9
46890.8,45885.2
46891.7,45879.4
46893.1,45873.8
46895,45868.3
46897.5,45863.1
46900.5,45858.1
46904,45853.5
46907.8,45849.2
46912.1,45845.3
46916.8,45841.8
46921.8,45838.9
46927,45836.4
46932.5,45834.4
46938.1,45833
46943.8,45832.2
46949.6,45831.9
47599.2,45831.9
Z" /> 
<path style="fill:#008400; fill-opacity:1.0; 
stroke:#008400; stroke-width:0; stroke-opacity:1; 
stroke-linecap:round; stroke-linejoin:round;fill-rule:evenodd;"
d="M 47605,46332.2
47610.7,46333
47616.4,46334.4
47621.8,46336.4
47627.1,46338.9
47632,46341.8
47636.7,46345.3
47641,46349.2
47644.9,46353.5
47648.3,46358.1
47651.3,46363.1
47653.8,46368.3
47655.7,46373.8
47657.1,46379.4
47658,46385.2
47658.3,46390.9
47658.3,46509.1
47658,46514.8
47657.1,46520.6
47655.7,46526.2
47653.8,46531.7
47651.3,46536.9
47648.3,46541.9
47644.9,46546.5
47641,46550.8
47636.7,46554.7
47632,46558.2
47627.1,46561.1
47621.8,46563.6
47616.4,46565.6
47610.7,46567
47605,46567.8
47599.2,46568.1
46949.6,46568.1
46943.8,46567.8
46938.1,46567
46932.5,46565.6
46927,46563.6
46921.8,46561.1
46916.8,46558.2
46912.1,46554.7
46907.8,46550.8
46904,46546.5
46900.5,46541.9
46897.5,46536.9
46895,46531.7
46893.1,46526.2
46891.7,46520.6
46890.8,46514.8
46890.6,46509.1
46890.6,46390.9
46890.8,46385.2
46891.7,46379.4
46893.1,46373.8
46895,46368.3
46897.5,46363.1
46900.5,46358.1
46904,46353.5
46907.8,46349.2
46912.1,46345.3
46916.8,46341.8
46921.8,46338.9
46927,46336.4
46932.5,46334.4
46938.1,46333
46943.8,46332.2
46949.6,46331.9
47599.2,46331.9
Z" /> 
<path style="fill:#008400; fill-opacity:1.0; 
stroke:#008400; stroke-width:0; stroke-opacity:1; 
stroke-linecap:round; stroke-linejoin:round;fill-rule:evenodd;"
d="M 45656.2,46332.2
45661.9,46333
45667.5,46334.4
45673,46336.4
45678.2,46338.9
45683.2,46341.8
45687.9,46345.3
45692.2,46349.2
45696,46353.5
45699.5,46358.1
45702.5,46363.1
45705,46368.3
45706.9,46373.8
45708.3,46379.4
45709.2,46385.2
45709.4,46390.9
45709.4,46509.1
45709.2,46514.8
45708.3,46520.6
45706.9,46526.2
45705,46531.7
45702.5,46536.9
45699.5,46541.9
45696,46546.5
45692.2,46550.8
45687.9,46554.7
45683.2,46558.2
45678.2,46561.1
45673,46563.6
45667.5,46565.6
45661.9,46567
45656.2,46567.8
45650.4,46568.1
45000.8,46568.1
44995,46567.8
44989.3,46567
44983.6,46565.6
44978.2,46563.6
44972.9,46561.1
44968,46558.2
44963.3,46554.7
44959,46550.8
44955.1,46546.5
44951.7,46541.9
44948.7,46536.9
44946.2,46531.7
44944.3,46526.2
44942.9,46520.6
44942,46514.8
44941.7,46509.1
44941.7,46390.9
44942,46385.2
44942.9,46379.4
44944.3,46373.8
44946.2,46368.3
44948.7,46363.1
44951.7,46358.1
44955.1,46353.5
44959,46349.2
44963.3,46345.3
44968,46341.8
44972.9,46338.9
44978.2,46336.4
44983.6,46334.4
44989.3,46333
44995,46332.2
45000.8,46331.9
45650.4,46331.9
Z" /> 
<path style="fill:#008400; fill-opacity:1.0; 
stroke:#008400; stroke-width:0; stroke-opacity:1; 
stroke-linecap:round; stroke-linejoin:round;fill-rule:evenodd;"
d="M 45656.2,45832.2
45661.9,45833
45667.5,45834.4
45673,45836.4
45678.2,45838.9
45683.2,45841.8
45687.9,45845.3
45692.2,45849.2
45696,45853.5
45699.5,45858.1
45702.5,45863.1
45705,45868.3
45706.9,45873.8
45708.3,45879.4
45709.2,45885.2
45709.4,45890.9
45709.4,46009.1
45709.2,46014.8
45708.3,46020.6
45706.9,46026.2
45705,46031.7
45702.5,46036.9
45699.5,46041.9
45696,46046.5
45692.2,46050.8
45687.9,46054.7
45683.2,46058.2
45678.2,46061.1
45673,46063.6
45667.5,46065.6
45661.9,46067
45656.2,46067.8
45650.4,46068.1
45000.8,46068.1
44995,46067.8
44989.3,46067
44983.6,46065.6
44978.2,46063.6
44972.9,46061.1
44968,46058.2
44963.3,46054.7
44959,46050.8
44955.1,46046.5
44951.7,46041.9
44948.7,46036.9
44946.2,46031.7
44944.3,46026.2
44942.9,46020.6
44942,46014.8
44941.7,46009.1
44941.7,45890.9
44942,45885.2
44942.9,45879.4
44944.3,45873.8
44946.2,45868.3
44948.7,45863.1
44951.7,45858.1
44955.1,45853.5
44959,45849.2
44963.3,45845.3
44968,45841.8
44972.9,45838.9
44978.2,45836.4
44983.6,45834.4
44989.3,45833
44995,45832.2
45000.8,45831.9
45650.4,45831.9
Z" /> 
<path style="fill:#008400; fill-opacity:1.0; 
stroke:#008400; stroke-width:0; stroke-opacity:1; 
stroke-linecap:round; stroke-linejoin:round;fill-rule:evenodd;"
d="M 45656.2,45332.2
45661.9,45333
45667.5,45334.4
45673,45336.4
45678.2,45338.9
45683.2,45341.8
45687.9,45345.3
45692.2,45349.2
45696,45353.5
45699.5,45358.1
45702.5,45363.1
45705,45368.3
45706.9,45373.8
45708.3,45379.4
45709.2,45385.2
45709.4,45390.9
45709.4,45509.1
45709.2,45514.8
45708.3,45520.6
45706.9,45526.2
45705,45531.7
45702.5,45536.9
45699.5,45541.9
45696,45546.5
45692.2,45550.8
45687.9,45554.7
45683.2,45558.2
45678.2,45561.1
45673,45563.6
45667.5,45565.6
45661.9,45567
45656.2,45567.8
45650.4,45568.1
45000.8,45568.1
44995,45567.8
44989.3,45567
44983.6,45565.6
44978.2,45563.6
44972.9,45561.1
44968,45558.2
44963.3,45554.7
44959,45550.8
44955.1,45546.5
44951.7,45541.9
44948.7,45536.9
44946.2,45531.7
44944.3,45526.2
44942.9,45520.6
44942,45514.8
44941.7,45509.1
44941.7,45390.9
44942,45385.2
44942.9,45379.4
44944.3,45373.8
44946.2,45368.3
44948.7,45363.1
44951.7,45358.1
44955.1,45353.5
44959,45349.2
44963.3,45345.3
44968,45341.8
44972.9,45338.9
44978.2,45336.4
44983.6,45334.4
44989.3,45333
44995,45332.2
45000.8,45331.9
45650.4,45331.9
Z" /> 
<path style="fill:#008400; fill-opacity:1.0; 
stroke:#008400; stroke-width:0; stroke-opacity:1; 
stroke-linecap:round; stroke-linejoin:round;fill-rule:evenodd;"
d="M 45656.2,44832.2
45661.9,44833
45667.5,44834.4
45673,44836.4
45678.2,44838.9
45683.2,44841.8
45687.9,44845.3
45692.2,44849.2
45696,44853.5
45699.5,44858.1
45702.5,44863.1
45705,44868.3
45706.9,44873.8
45708.3,44879.4
45709.2,44885.2
45709.4,44890.9
45709.4,45009.1
45709.2,45014.8
45708.3,45020.6
45706.9,45026.2
45705,45031.7
45702.5,45036.9
45699.5,45041.9
45696,45046.5
45692.2,45050.8
45687.9,45054.7
45683.2,45058.2
45678.2,45061.1
45673,45063.6
45667.5,45065.6
45661.9,45067
45656.2,45067.8
45650.4,45068.1
45000.8,45068.1
44995,45067.8
44989.3,45067
44983.6,45065.6
44978.2,45063.6
44972.9,45061.1
44968,45058.2
44963.3,45054.7
44959,45050.8
44955.1,45046.5
44951.7,45041.9
44948.7,45036.9
44946.2,45031.7
44944.3,45026.2
44942.9,45020.6
44942,45014.8
44941.7,45009.1
44941.7,44890.9
44942,44885.2
44942.9,44879.4
44944.3,44873.8
44946.2,44868.3
44948.7,44863.1
44951.7,44858.1
44955.1,44853.5
44959,44849.2
44963.3,44845.3
44968,44841.8
44972.9,44838.9
44978.2,44836.4
44983.6,44834.4
44989.3,44833
44995,44832.2
45000.8,44831.9
45650.4,44831.9
Z" /> 
</g>
<g >
</g>
<g style="fill:#008400; fill-opacity:1.0; 
stroke:#008400; stroke-width:0; stroke-opacity:1; 
stroke-linecap:round; stroke-linejoin:round;">
<path style="fill:#008400; fill-opacity:1.0; 
stroke:#008400; stroke-width:0; stroke-opacity:1; 
stroke-linecap:round; stroke-linejoin:round;fill-rule:evenodd;"
d="M 45642.8,40732.2
45648.5,40733
45654.2,40734.4
45659.6,40736.4
45664.8,40738.9
45669.8,40741.8
45674.5,40745.3
45678.8,40749.2
45682.7,40753.5
45686.1,40758.1
45689.1,40763.1
45691.6,40768.3
45693.5,40773.8
45694.9,40779.4
45695.8,40785.2
45696.1,40790.9
45696.1,40909.1
45695.8,40914.8
45694.9,40920.6
45693.5,40926.2
45691.6,40931.7
45689.1,40936.9
45686.1,40941.9
45682.7,40946.5
45678.8,40950.8
45674.5,40954.7
45669.8,40958.2
45664.8,40961.1
45659.6,40963.6
45654.2,40965.6
45648.5,40967
45642.8,40967.8
45637,40968.1
45007.1,40968.1
45001.3,40967.8
44995.6,40967
44989.9,40965.6
44984.5,40963.6
44979.2,40961.1
44974.3,40958.2
44969.6,40954.7
44965.3,40950.8
44961.4,40946.5
44958,40941.9
44955,40936.9
44952.5,40931.7
44950.6,40926.2
44949.2,40920.6
44948.3,40914.8
44948,40909.1
44948,40790.9
44948.3,40785.2
44949.2,40779.4
44950.6,40773.8
44952.5,40768.3
44955,40763.1
44958,40758.1
44961.4,40753.5
44965.3,40749.2
44969.6,40745.3
44974.3,40741.8
44979.2,40738.9
44984.5,40736.4
44989.9,40734.4
44995.6,40733
45001.3,40732.2
45007.1,40731.9
45637,40731.9
Z" /> 
<path style="fill:#008400; fill-opacity:1.0; 
stroke:#008400; stroke-width:0; stroke-opacity:1; 
stroke-linecap:round; stroke-linejoin:round;fill-rule:evenodd;"
d="M 45642.8,40232.2
45648.5,40233
45654.2,40234.4
45659.6,40236.4
45664.8,40238.9
45669.8,40241.8
45674.5,40245.3
45678.8,40249.2
45682.7,40253.5
45686.1,40258.1
45689.1,40263.1
45691.6,40268.3
45693.5,40273.8
45694.9,40279.4
45695.8,40285.2
45696.1,40290.9
45696.1,40409.1
45695.8,40414.8
45694.9,40420.6
45693.5,40426.2
45691.6,40431.7
45689.1,40436.9
45686.1,40441.9
45682.7,40446.5
45678.8,40450.8
45674.5,40454.7
45669.8,40458.2
45664.8,40461.1
45659.6,40463.6
45654.2,40465.6
45648.5,40467
45642.8,40467.8
45637,40468.1
45007.1,40468.1
45001.3,40467.8
44995.6,40467
44989.9,40465.6
44984.5,40463.6
44979.2,40461.1
44974.3,40458.2
44969.6,40454.7
44965.3,40450.8
44961.4,40446.5
44958,40441.9
44955,40436.9
44952.5,40431.7
44950.6,40426.2
44949.2,40420.6
44948.3,40414.8
44948,40409.1
44948,40290.9
44948.3,40285.2
44949.2,40279.4
44950.6,40273.8
44952.5,40268.3
44955,40263.1
44958,40258.1
44961.4,40253.5
44965.3,40249.2
44969.6,40245.3
44974.3,40241.8
44979.2,40238.9
44984.5,40236.4
44989.9,40234.4
44995.6,40233
45001.3,40232.2
45007.1,40231.9
45637,40231.9
Z" /> 
<path style="fill:#008400; fill-opacity:1.0; 
stroke:#008400; stroke-width:0; stroke-opacity:1; 
stroke-linecap:round; stroke-linejoin:round;fill-rule:evenodd;"
d="M 45642.8,39732.2
45648.5,39733
45654.2,39734.4
45659.6,39736.4
45664.8,39738.9
45669.8,39741.8
45674.5,39745.3
45678.8,39749.2
45682.7,39753.5
45686.1,39758.1
45689.1,39763.1
45691.6,39768.3
45693.5,39773.8
45694.9,39779.4
45695.8,39785.2
45696.1,39790.9
45696.1,39909.1
45695.8,39914.8
45694.9,39920.6
45693.5,39926.2
45691.6,39931.7
45689.1,39936.9
45686.1,39941.9
45682.7,39946.5
45678.8,39950.8
45674.5,39954.7
45669.8,39958.2
45664.8,39961.1
45659.6,39963.6
45654.2,39965.6
45648.5,39967
45642.8,39967.8
45637,39968.1
45007.1,39968.1
45001.3,39967.8
44995.6,39967
44989.9,39965.6
44984.5,39963.6
44979.2,39961.1
44974.3,39958.2
44969.6,39954.7
44965.3,39950.8
44961.4,39946.5
44958,39941.9
44955,39936.9
44952.5,39931.7
44950.6,39926.2
44949.2,39920.6
44948.3,39914.8
44948,39909.1
44948,39790.9
44948.3,39785.2
44949.2,39779.4
44950.6,39773.8
44952.5,39768.3
44955,39763.1
44958,39758.1
44961.4,39753.5
44965.3,39749.2
44969.6,39745.3
44974.3,39741.8
44979.2,39738.9
44984.5,39736.4
44989.9,39734.4
44995.6,39733
45001.3,39732.2
45007.1,39731.9
45637,39731.9
Z" /> 
<path style="fill:#008400; fill-opacity:1.0; 
stroke:#008400; stroke-width:0; stroke-opacity:1; 
stroke-linecap:round; stroke-linejoin:round;fill-rule:evenodd;"
d="M 45642.8,39232.2
45648.5,39233
45654.2,39234.4
45659.6,39236.4
45664.8,39238.9
45669.8,39241.8
45674.5,39245.3
45678.8,39249.2
45682.7,39253.5
45686.1,39258.1
45689.1,39263.1
45691.6,39268.3
45693.5,39273.8
45694.9,39279.4
45695.8,39285.2
45696.1,39290.9
45696.1,39409.1
45695.8,39414.8
45694.9,39420.6
45693.5,39426.2
45691.6,39431.7
45689.1,39436.9
45686.1,39441.9
45682.7,39446.5
45678.8,39450.8
45674.5,39454.7
45669.8,39458.2
45664.8,39461.1
45659.6,39463.6
45654.2,39465.6
45648.5,39467
45642.8,39467.8
45637,39468.1
45007.1,39468.1
45001.3,39467.8
44995.6,39467
44989.9,39465.6
44984.5,39463.6
44979.2,39461.1
44974.3,39458.2
44969.6,39454.7
44965.3,39450.8
44961.4,39446.5
44958,39441.9
44955,39436.9
44952.5,39431.7
44950.6,39426.2
44949.2,39420.6
44948.3,39414.8
44948,39409.1
44948,39290.9
44948.3,39285.2
44949.2,39279.4
44950.6,39273.8
44952.5,39268.3
44955,39263.1
44958,39258.1
44961.4,39253.5
44965.3,39249.2
44969.6,39245.3
44974.3,39241.8
44979.2,39238.9
44984.5,39236.4
44989.9,39234.4
44995.6,39233
45001.3,39232.2
45007.1,39231.9
45637,39231.9
Z" /> 
<path style="fill:#008400; fill-opacity:1.0; 
stroke:#008400; stroke-width:0; stroke-opacity:1; 
stroke-linecap:round; stroke-linejoin:round;fill-rule:evenodd;"
d="M 48398.7,39232.2
48404.4,39233
48410.1,39234.4
48415.5,39236.4
48420.8,39238.9
48425.7,39241.8
48430.4,39245.3
48434.7,39249.2
48438.6,39253.5
48442,39258.1
48445,39263.1
48447.5,39268.3
48449.4,39273.8
48450.8,39279.4
48451.7,39285.2
48452,39290.9
48452,39409.1
48451.7,39414.8
48450.8,39420.6
48449.4,39426.2
48447.5,39431.7
48445,39436.9
48442,39441.9
48438.6,39446.5
48434.7,39450.8
48430.4,39454.7
48425.7,39458.2
48420.8,39461.1
48415.5,39463.6
48410.1,39465.6
48404.4,39467
48398.7,39467.8
48392.9,39468.1
47763,39468.1
47757.2,39467.8
47751.5,39467
47745.8,39465.6
47740.4,39463.6
47735.2,39461.1
47730.2,39458.2
47725.5,39454.7
47721.2,39450.8
47717.3,39446.5
47713.9,39441.9
47710.9,39436.9
47708.4,39431.7
47706.5,39426.2
47705.1,39420.6
47704.2,39414.8
47703.9,39409.1
47703.9,39290.9
47704.2,39285.2
47705.1,39279.4
47706.5,39273.8
47708.4,39268.3
47710.9,39263.1
47713.9,39258.1
47717.3,39253.5
47721.2,39249.2
47725.5,39245.3
47730.2,39241.8
47735.2,39238.9
47740.4,39236.4
47745.8,39234.4
47751.5,39233
47757.2,39232.2
47763,39231.9
48392.9,39231.9
Z" /> 
<path style="fill:#008400; fill-opacity:1.0; 
stroke:#008400; stroke-width:0; stroke-opacity:1; 
stroke-linecap:round; stroke-linejoin:round;fill-rule:evenodd;"
d="M 48398.7,39732.2
48404.4,39733
48410.1,39734.4
48415.5,39736.4
48420.8,39738.9
48425.7,39741.8
48430.4,39745.3
48434.7,39749.2
48438.6,39753.5
48442,39758.1
48445,39763.1
48447.5,39768.3
48449.4,39773.8
48450.8,39779.4
48451.7,39785.2
48452,39790.9
48452,39909.1
48451.7,39914.8
48450.8,39920.6
48449.4,39926.2
48447.5,39931.7
48445,39936.9
48442,39941.9
48438.6,39946.5
48434.7,39950.8
48430.4,39954.7
48425.7,39958.2
48420.8,39961.1
48415.5,39963.6
48410.1,39965.6
48404.4,39967
48398.7,39967.8
48392.9,39968.1
47763,39968.1
47757.2,39967.8
47751.5,39967
47745.8,39965.6
47740.4,39963.6
47735.2,39961.1
47730.2,39958.2
47725.5,39954.7
47721.2,39950.8
47717.3,39946.5
47713.9,39941.9
47710.9,39936.9
47708.4,39931.7
47706.5,39926.2
47705.1,39920.6
47704.2,39914.8
47703.9,39909.1
47703.9,39790.9
47704.2,39785.2
47705.1,39779.4
47706.5,39773.8
47708.4,39768.3
47710.9,39763.1
47713.9,39758.1
47717.3,39753.5
47721.2,39749.2
47725.5,39745.3
47730.2,39741.8
47735.2,39738.9
47740.4,39736.4
47745.8,39734.4
47751.5,39733
47757.2,39732.2
47763,39731.9
48392.9,39731.9
Z" /> 
<path style="fill:#008400; fill-opacity:1.0; 
stroke:#008400; stroke-width:0; stroke-opacity:1; 
stroke-linecap:round; stroke-linejoin:round;fill-rule:evenodd;"
d="M 48398.7,40232.2
48404.4,40233
48410.1,40234.4
48415.5,40236.4
48420.8,40238.9
48425.7,40241.8
48430.4,40245.3
48434.7,40249.2
48438.6,40253.5
48442,40258.1
48445,40263.1
48447.5,40268.3
48449.4,40273.8
48450.8,40279.4
48451.7,40285.2
48452,40290.9
48452,40409.1
48451.7,40414.8
48450.8,40420.6
48449.4,40426.2
48447.5,40431.7
48445,40436.9
48442,40441.9
48438.6,40446.5
48434.7,40450.8
48430.4,40454.7
48425.7,40458.2
48420.8,40461.1
48415.5,40463.6
48410.1,40465.6
48404.4,40467
48398.7,40467.8
48392.9,40468.1
47763,40468.1
47757.2,40467.8
47751.5,40467
47745.8,40465.6
47740.4,40463.6
47735.2,40461.1
47730.2,40458.2
47725.5,40454.7
47721.2,40450.8
47717.3,40446.5
47713.9,40441.9
47710.9,40436.9
47708.4,40431.7
47706.5,40426.2
47705.1,40420.6
47704.2,40414.8
47703.9,40409.1
47703.9,40290.9
47704.2,40285.2
47705.1,40279.4
47706.5,40273.8
47708.4,40268.3
47710.9,40263.1
47713.9,40258.1
47717.3,40253.5
47721.2,40249.2
47725.5,40245.3
47730.2,40241.8
47735.2,40238.9
47740.4,40236.4
47745.8,40234.4
47751.5,40233
47757.2,40232.2
47763,40231.9
48392.9,40231.9
Z" /> 
<path style="fill:#008400; fill-opacity:1.0; 
stroke:#008400; stroke-width:0; stroke-opacity:1; 
stroke-linecap:round; stroke-linejoin:round;fill-rule:evenodd;"
d="M 48398.7,40732.2
48404.4,40733
48410.1,40734.4
48415.5,40736.4
48420.8,40738.9
48425.7,40741.8
48430.4,40745.3
48434.7,40749.2
48438.6,40753.5
48442,40758.1
48445,40763.1
48447.5,40768.3
48449.4,40773.8
48450.8,40779.4
48451.7,40785.2
48452,40790.9
48452,40909.1
48451.7,40914.8
48450.8,40920.6
48449.4,40926.2
48447.5,40931.7
48445,40936.9
48442,40941.9
48438.6,40946.5
48434.7,40950.8
48430.4,40954.7
48425.7,40958.2
48420.8,40961.1
48415.5,40963.6
48410.1,40965.6
48404.4,40967
48398.7,40967.8
48392.9,40968.1
47763,40968.1
47757.2,40967.8
47751.5,40967
47745.8,40965.6
47740.4,40963.6
47735.2,40961.1
47730.2,40958.2
47725.5,40954.7
47721.2,40950.8
47717.3,40946.5
47713.9,40941.9
47710.9,40936.9
47708.4,40931.7
47706.5,40926.2
47705.1,40920.6
47704.2,40914.8
47703.9,40909.1
47703.9,40790.9
47704.2,40785.2
47705.1,40779.4
47706.5,40773.8
47708.4,40768.3
47710.9,40763.1
47713.9,40758.1
47717.3,40753.5
47721.2,40749.2
47725.5,40745.3
47730.2,40741.8
47735.2,40738.9
47740.4,40736.4
47745.8,40734.4
47751.5,40733
47757.2,40732.2
47763,40731.9
48392.9,40731.9
Z" /> 
</g>
<g >
</g>
<g >
</g>
<g >
</g>
</g>
<g style="fill:#000000; fill-opacity:1.0; 
stroke:#000000; stroke-width:0; stroke-opacity:1; 
stroke-linecap:round; stroke-linejoin:round;">
</g>
<g style="fill:#C2C200; fill-opacity:1.0; 
stroke:#C2C200; stroke-width:0; stroke-opacity:1; 
stroke-linecap:round; stroke-linejoin:round;">
</g>
<g style="fill:#C2C200; fill-opacity:0.0; 
stroke:#C2C200; stroke-width:19.685; stroke-opacity:1; 
stroke-linecap:round; stroke-linejoin:round;">
<circle cx="31600" cy="35700" r="656.168" /> 
<path d="M30615 35700
L32584 35700
" />
<path d="M31600 34715
L31600 36684
" />
<path d="M30000 49000
L53200 49000
" />
<path d="M30000 34100
L30000 49000
" />
<path d="M53200 34100
L30000 34100
" />
<path d="M53200 49000
L53200 34100
" />
<g >
</g>
<g >
</g>
<g >
</g>
<g >
</g>
<g >
</g>
<g >
</g>
<g >
</g>
<g >
</g>
<g >
</g>
<g >
</g>
<g >
</g>
<g >
</g>
<g >
</g>
<g >
</g>
<g >
</g>
<g >
</g>
<g >
</g>
<g >
</g>
<g >
</g>
<g >
</g>
<g >
</g>
<g >
</g>
<g >
</g>
<g >
</g>
<g >
</g>
<g >
</g>
<g >
</g>
<g >
</g>
<g >
</g>
<g >
</g>
<g >
</g>
<g >
</g>
<g >
</g>
<g >
</g>
<g >
</g>
<g >
</g>
<g >
</g>
<g >
</g>
<g >
</g>
<g >
</g>
<g >
</g>
<g >
</g>
<g >
</g>
<g >
</g>
<g >
</g>
</g> 
</svg>
