%TF.GenerationSoftware,KiCad,Pcbnew,5.1.6+dfsg1-1~bpo10+1*%
%TF.CreationDate,2020-09-26T21:27:15+02:00*%
%TF.ProjectId,diy_,6469795f-2e6b-4696-9361-645f70636258,rev?*%
%TF.SameCoordinates,Original*%
%TF.FileFunction,Copper,L1,Top*%
%TF.FilePolarity,Positive*%
%FSLAX46Y46*%
G04 Gerber Fmt 4.6, Leading zero omitted, Abs format (unit mm)*
G04 Created by KiCad (PCBNEW 5.1.6+dfsg1-1~bpo10+1) date 2020-09-26 21:27:15*
%MOMM*%
%LPD*%
G01*
G04 APERTURE LIST*
%TA.AperFunction,ComponentPad*%
%ADD10R,1.700000X1.700000*%
%TD*%
%TA.AperFunction,ComponentPad*%
%ADD11O,1.700000X1.700000*%
%TD*%
%TA.AperFunction,ComponentPad*%
%ADD12C,1.600000*%
%TD*%
%TA.AperFunction,ComponentPad*%
%ADD13O,1.600000X1.600000*%
%TD*%
%TA.AperFunction,ComponentPad*%
%ADD14R,3.000000X3.000000*%
%TD*%
%TA.AperFunction,ComponentPad*%
%ADD15C,3.000000*%
%TD*%
%TA.AperFunction,SMDPad,CuDef*%
%ADD16R,1.300000X1.300000*%
%TD*%
%TA.AperFunction,SMDPad,CuDef*%
%ADD17R,1.300000X2.000000*%
%TD*%
%TA.AperFunction,ComponentPad*%
%ADD18C,2.200000*%
%TD*%
%TA.AperFunction,ComponentPad*%
%ADD19R,2.400000X1.600000*%
%TD*%
%TA.AperFunction,ComponentPad*%
%ADD20O,2.400000X1.600000*%
%TD*%
%TA.AperFunction,ViaPad*%
%ADD21C,0.800000*%
%TD*%
%TA.AperFunction,Conductor*%
%ADD22C,0.250000*%
%TD*%
G04 APERTURE END LIST*
%TO.P,C1,2*%
%TO.N,GND*%
%TA.AperFunction,SMDPad,CuDef*%
G36*
G01*
X116544000Y-91940000D02*
X117644000Y-91940000D01*
G75*
G02*
X117894000Y-92190000I0J-250000D01*
G01*
X117894000Y-94290000D01*
G75*
G02*
X117644000Y-94540000I-250000J0D01*
G01*
X116544000Y-94540000D01*
G75*
G02*
X116294000Y-94290000I0J250000D01*
G01*
X116294000Y-92190000D01*
G75*
G02*
X116544000Y-91940000I250000J0D01*
G01*
G37*
%TD.AperFunction*%
%TO.P,C1,1*%
%TO.N,+15V*%
%TA.AperFunction,SMDPad,CuDef*%
G36*
G01*
X116544000Y-88340000D02*
X117644000Y-88340000D01*
G75*
G02*
X117894000Y-88590000I0J-250000D01*
G01*
X117894000Y-90690000D01*
G75*
G02*
X117644000Y-90940000I-250000J0D01*
G01*
X116544000Y-90940000D01*
G75*
G02*
X116294000Y-90690000I0J250000D01*
G01*
X116294000Y-88590000D01*
G75*
G02*
X116544000Y-88340000I250000J0D01*
G01*
G37*
%TD.AperFunction*%
%TD*%
%TO.P,C2,1*%
%TO.N,GND*%
%TA.AperFunction,SMDPad,CuDef*%
G36*
G01*
X94530000Y-94794000D02*
X93430000Y-94794000D01*
G75*
G02*
X93180000Y-94544000I0J250000D01*
G01*
X93180000Y-92444000D01*
G75*
G02*
X93430000Y-92194000I250000J0D01*
G01*
X94530000Y-92194000D01*
G75*
G02*
X94780000Y-92444000I0J-250000D01*
G01*
X94780000Y-94544000D01*
G75*
G02*
X94530000Y-94794000I-250000J0D01*
G01*
G37*
%TD.AperFunction*%
%TO.P,C2,2*%
%TO.N,-15V*%
%TA.AperFunction,SMDPad,CuDef*%
G36*
G01*
X94530000Y-91194000D02*
X93430000Y-91194000D01*
G75*
G02*
X93180000Y-90944000I0J250000D01*
G01*
X93180000Y-88844000D01*
G75*
G02*
X93430000Y-88594000I250000J0D01*
G01*
X94530000Y-88594000D01*
G75*
G02*
X94780000Y-88844000I0J-250000D01*
G01*
X94780000Y-90944000D01*
G75*
G02*
X94530000Y-91194000I-250000J0D01*
G01*
G37*
%TD.AperFunction*%
%TD*%
%TO.P,C4,1*%
%TO.N,GND*%
%TA.AperFunction,SMDPad,CuDef*%
G36*
G01*
X112515000Y-105547000D02*
X112515000Y-106797000D01*
G75*
G02*
X112265000Y-107047000I-250000J0D01*
G01*
X111515000Y-107047000D01*
G75*
G02*
X111265000Y-106797000I0J250000D01*
G01*
X111265000Y-105547000D01*
G75*
G02*
X111515000Y-105297000I250000J0D01*
G01*
X112265000Y-105297000D01*
G75*
G02*
X112515000Y-105547000I0J-250000D01*
G01*
G37*
%TD.AperFunction*%
%TO.P,C4,2*%
%TO.N,-15V*%
%TA.AperFunction,SMDPad,CuDef*%
G36*
G01*
X109715000Y-105547000D02*
X109715000Y-106797000D01*
G75*
G02*
X109465000Y-107047000I-250000J0D01*
G01*
X108715000Y-107047000D01*
G75*
G02*
X108465000Y-106797000I0J250000D01*
G01*
X108465000Y-105547000D01*
G75*
G02*
X108715000Y-105297000I250000J0D01*
G01*
X109465000Y-105297000D01*
G75*
G02*
X109715000Y-105547000I0J-250000D01*
G01*
G37*
%TD.AperFunction*%
%TD*%
%TO.P,C7,1*%
%TO.N,GND*%
%TA.AperFunction,SMDPad,CuDef*%
G36*
G01*
X117231000Y-112783000D02*
X118481000Y-112783000D01*
G75*
G02*
X118731000Y-113033000I0J-250000D01*
G01*
X118731000Y-113783000D01*
G75*
G02*
X118481000Y-114033000I-250000J0D01*
G01*
X117231000Y-114033000D01*
G75*
G02*
X116981000Y-113783000I0J250000D01*
G01*
X116981000Y-113033000D01*
G75*
G02*
X117231000Y-112783000I250000J0D01*
G01*
G37*
%TD.AperFunction*%
%TO.P,C7,2*%
%TO.N,Net-(C7-Pad2)*%
%TA.AperFunction,SMDPad,CuDef*%
G36*
G01*
X117231000Y-115583000D02*
X118481000Y-115583000D01*
G75*
G02*
X118731000Y-115833000I0J-250000D01*
G01*
X118731000Y-116583000D01*
G75*
G02*
X118481000Y-116833000I-250000J0D01*
G01*
X117231000Y-116833000D01*
G75*
G02*
X116981000Y-116583000I0J250000D01*
G01*
X116981000Y-115833000D01*
G75*
G02*
X117231000Y-115583000I250000J0D01*
G01*
G37*
%TD.AperFunction*%
%TD*%
%TO.P,C9,1*%
%TO.N,Net-(C10-Pad1)*%
%TA.AperFunction,SMDPad,CuDef*%
G36*
G01*
X81102500Y-121717750D02*
X81102500Y-122630250D01*
G75*
G02*
X80858750Y-122874000I-243750J0D01*
G01*
X80371250Y-122874000D01*
G75*
G02*
X80127500Y-122630250I0J243750D01*
G01*
X80127500Y-121717750D01*
G75*
G02*
X80371250Y-121474000I243750J0D01*
G01*
X80858750Y-121474000D01*
G75*
G02*
X81102500Y-121717750I0J-243750D01*
G01*
G37*
%TD.AperFunction*%
%TO.P,C9,2*%
%TO.N,Net-(C10-Pad2)*%
%TA.AperFunction,SMDPad,CuDef*%
G36*
G01*
X79227500Y-121717750D02*
X79227500Y-122630250D01*
G75*
G02*
X78983750Y-122874000I-243750J0D01*
G01*
X78496250Y-122874000D01*
G75*
G02*
X78252500Y-122630250I0J243750D01*
G01*
X78252500Y-121717750D01*
G75*
G02*
X78496250Y-121474000I243750J0D01*
G01*
X78983750Y-121474000D01*
G75*
G02*
X79227500Y-121717750I0J-243750D01*
G01*
G37*
%TD.AperFunction*%
%TD*%
D10*
%TO.P,D1,1*%
%TO.N,GND*%
X111252000Y-118618000D03*
D11*
%TO.P,D1,2*%
%TO.N,Net-(D1-Pad2)*%
X111252000Y-121158000D03*
%TD*%
D10*
%TO.P,D2,1*%
%TO.N,Net-(C8-Pad2)*%
X82804000Y-115570000D03*
D11*
%TO.P,D2,2*%
%TO.N,-15V*%
X82804000Y-118110000D03*
%TD*%
D12*
%TO.P,D3,1*%
%TO.N,Net-(C11-Pad1)*%
X100838000Y-115824000D03*
D13*
%TO.P,D3,2*%
%TO.N,Net-(D3-Pad2)*%
X100838000Y-103124000D03*
%TD*%
D11*
%TO.P,D4,2*%
%TO.N,Net-(D4-Pad2)*%
X128270000Y-107696000D03*
D10*
%TO.P,D4,1*%
%TO.N,GND*%
X125730000Y-107696000D03*
%TD*%
D14*
%TO.P,+15v / 0 / -15v,1*%
%TO.N,-15V*%
X110236000Y-90170000D03*
D15*
%TO.P,+15v / 0 / -15v,2*%
%TO.N,GND*%
X105156000Y-90170000D03*
%TO.P,+15v / 0 / -15v,3*%
%TO.N,+15V*%
X100076000Y-90170000D03*
%TD*%
D14*
%TO.P,J2,1*%
%TO.N,Net-(J2-Pad1)*%
X129032000Y-90170000D03*
D15*
%TO.P,J2,2*%
%TO.N,GND*%
X123952000Y-90170000D03*
%TD*%
D12*
%TO.P,L1,1*%
%TO.N,Net-(C10-Pad2)*%
X78994000Y-119380000D03*
D13*
%TO.P,L1,2*%
%TO.N,Net-(C8-Pad1)*%
X78994000Y-109220000D03*
%TD*%
%TO.P,R2,2*%
%TO.N,Net-(C7-Pad2)*%
%TA.AperFunction,SMDPad,CuDef*%
G36*
G01*
X115303000Y-121041000D02*
X115303000Y-122291000D01*
G75*
G02*
X115053000Y-122541000I-250000J0D01*
G01*
X114303000Y-122541000D01*
G75*
G02*
X114053000Y-122291000I0J250000D01*
G01*
X114053000Y-121041000D01*
G75*
G02*
X114303000Y-120791000I250000J0D01*
G01*
X115053000Y-120791000D01*
G75*
G02*
X115303000Y-121041000I0J-250000D01*
G01*
G37*
%TD.AperFunction*%
%TO.P,R2,1*%
%TO.N,Net-(R2-Pad1)*%
%TA.AperFunction,SMDPad,CuDef*%
G36*
G01*
X118103000Y-121041000D02*
X118103000Y-122291000D01*
G75*
G02*
X117853000Y-122541000I-250000J0D01*
G01*
X117103000Y-122541000D01*
G75*
G02*
X116853000Y-122291000I0J250000D01*
G01*
X116853000Y-121041000D01*
G75*
G02*
X117103000Y-120791000I250000J0D01*
G01*
X117853000Y-120791000D01*
G75*
G02*
X118103000Y-121041000I0J-250000D01*
G01*
G37*
%TD.AperFunction*%
%TD*%
%TO.P,R6,1*%
%TO.N,GND*%
%TA.AperFunction,SMDPad,CuDef*%
G36*
G01*
X97653000Y-118227000D02*
X96403000Y-118227000D01*
G75*
G02*
X96153000Y-117977000I0J250000D01*
G01*
X96153000Y-117227000D01*
G75*
G02*
X96403000Y-116977000I250000J0D01*
G01*
X97653000Y-116977000D01*
G75*
G02*
X97903000Y-117227000I0J-250000D01*
G01*
X97903000Y-117977000D01*
G75*
G02*
X97653000Y-118227000I-250000J0D01*
G01*
G37*
%TD.AperFunction*%
%TO.P,R6,2*%
%TO.N,Net-(R6-Pad2)*%
%TA.AperFunction,SMDPad,CuDef*%
G36*
G01*
X97653000Y-115427000D02*
X96403000Y-115427000D01*
G75*
G02*
X96153000Y-115177000I0J250000D01*
G01*
X96153000Y-114427000D01*
G75*
G02*
X96403000Y-114177000I250000J0D01*
G01*
X97653000Y-114177000D01*
G75*
G02*
X97903000Y-114427000I0J-250000D01*
G01*
X97903000Y-115177000D01*
G75*
G02*
X97653000Y-115427000I-250000J0D01*
G01*
G37*
%TD.AperFunction*%
%TD*%
%TO.P,R8,2*%
%TO.N,Net-(C11-Pad1)*%
%TA.AperFunction,SMDPad,CuDef*%
G36*
G01*
X99073000Y-121021000D02*
X99073000Y-119771000D01*
G75*
G02*
X99323000Y-119521000I250000J0D01*
G01*
X100073000Y-119521000D01*
G75*
G02*
X100323000Y-119771000I0J-250000D01*
G01*
X100323000Y-121021000D01*
G75*
G02*
X100073000Y-121271000I-250000J0D01*
G01*
X99323000Y-121271000D01*
G75*
G02*
X99073000Y-121021000I0J250000D01*
G01*
G37*
%TD.AperFunction*%
%TO.P,R8,1*%
%TO.N,GND*%
%TA.AperFunction,SMDPad,CuDef*%
G36*
G01*
X96273000Y-121021000D02*
X96273000Y-119771000D01*
G75*
G02*
X96523000Y-119521000I250000J0D01*
G01*
X97273000Y-119521000D01*
G75*
G02*
X97523000Y-119771000I0J-250000D01*
G01*
X97523000Y-121021000D01*
G75*
G02*
X97273000Y-121271000I-250000J0D01*
G01*
X96523000Y-121271000D01*
G75*
G02*
X96273000Y-121021000I0J250000D01*
G01*
G37*
%TD.AperFunction*%
%TD*%
%TO.P,R9,1*%
%TO.N,Net-(R10-Pad2)*%
%TA.AperFunction,SMDPad,CuDef*%
G36*
G01*
X117993000Y-100461000D02*
X119243000Y-100461000D01*
G75*
G02*
X119493000Y-100711000I0J-250000D01*
G01*
X119493000Y-101461000D01*
G75*
G02*
X119243000Y-101711000I-250000J0D01*
G01*
X117993000Y-101711000D01*
G75*
G02*
X117743000Y-101461000I0J250000D01*
G01*
X117743000Y-100711000D01*
G75*
G02*
X117993000Y-100461000I250000J0D01*
G01*
G37*
%TD.AperFunction*%
%TO.P,R9,2*%
%TO.N,+15V*%
%TA.AperFunction,SMDPad,CuDef*%
G36*
G01*
X117993000Y-103261000D02*
X119243000Y-103261000D01*
G75*
G02*
X119493000Y-103511000I0J-250000D01*
G01*
X119493000Y-104261000D01*
G75*
G02*
X119243000Y-104511000I-250000J0D01*
G01*
X117993000Y-104511000D01*
G75*
G02*
X117743000Y-104261000I0J250000D01*
G01*
X117743000Y-103511000D01*
G75*
G02*
X117993000Y-103261000I250000J0D01*
G01*
G37*
%TD.AperFunction*%
%TD*%
%TO.P,R10,2*%
%TO.N,Net-(R10-Pad2)*%
%TA.AperFunction,SMDPad,CuDef*%
G36*
G01*
X111265000Y-98161000D02*
X111265000Y-96911000D01*
G75*
G02*
X111515000Y-96661000I250000J0D01*
G01*
X112265000Y-96661000D01*
G75*
G02*
X112515000Y-96911000I0J-250000D01*
G01*
X112515000Y-98161000D01*
G75*
G02*
X112265000Y-98411000I-250000J0D01*
G01*
X111515000Y-98411000D01*
G75*
G02*
X111265000Y-98161000I0J250000D01*
G01*
G37*
%TD.AperFunction*%
%TO.P,R10,1*%
%TO.N,GND*%
%TA.AperFunction,SMDPad,CuDef*%
G36*
G01*
X108465000Y-98161000D02*
X108465000Y-96911000D01*
G75*
G02*
X108715000Y-96661000I250000J0D01*
G01*
X109465000Y-96661000D01*
G75*
G02*
X109715000Y-96911000I0J-250000D01*
G01*
X109715000Y-98161000D01*
G75*
G02*
X109465000Y-98411000I-250000J0D01*
G01*
X108715000Y-98411000D01*
G75*
G02*
X108465000Y-98161000I0J250000D01*
G01*
G37*
%TD.AperFunction*%
%TD*%
%TO.P,R11,1*%
%TO.N,+15V*%
%TA.AperFunction,SMDPad,CuDef*%
G36*
G01*
X129657000Y-99053000D02*
X128407000Y-99053000D01*
G75*
G02*
X128157000Y-98803000I0J250000D01*
G01*
X128157000Y-98053000D01*
G75*
G02*
X128407000Y-97803000I250000J0D01*
G01*
X129657000Y-97803000D01*
G75*
G02*
X129907000Y-98053000I0J-250000D01*
G01*
X129907000Y-98803000D01*
G75*
G02*
X129657000Y-99053000I-250000J0D01*
G01*
G37*
%TD.AperFunction*%
%TO.P,R11,2*%
%TO.N,Net-(J2-Pad1)*%
%TA.AperFunction,SMDPad,CuDef*%
G36*
G01*
X129657000Y-96253000D02*
X128407000Y-96253000D01*
G75*
G02*
X128157000Y-96003000I0J250000D01*
G01*
X128157000Y-95253000D01*
G75*
G02*
X128407000Y-95003000I250000J0D01*
G01*
X129657000Y-95003000D01*
G75*
G02*
X129907000Y-95253000I0J-250000D01*
G01*
X129907000Y-96003000D01*
G75*
G02*
X129657000Y-96253000I-250000J0D01*
G01*
G37*
%TD.AperFunction*%
%TD*%
%TO.P,R12,2*%
%TO.N,Net-(D4-Pad2)*%
%TA.AperFunction,SMDPad,CuDef*%
G36*
G01*
X127645000Y-102987000D02*
X127645000Y-101737000D01*
G75*
G02*
X127895000Y-101487000I250000J0D01*
G01*
X128645000Y-101487000D01*
G75*
G02*
X128895000Y-101737000I0J-250000D01*
G01*
X128895000Y-102987000D01*
G75*
G02*
X128645000Y-103237000I-250000J0D01*
G01*
X127895000Y-103237000D01*
G75*
G02*
X127645000Y-102987000I0J250000D01*
G01*
G37*
%TD.AperFunction*%
%TO.P,R12,1*%
%TO.N,Net-(J2-Pad1)*%
%TA.AperFunction,SMDPad,CuDef*%
G36*
G01*
X124845000Y-102987000D02*
X124845000Y-101737000D01*
G75*
G02*
X125095000Y-101487000I250000J0D01*
G01*
X125845000Y-101487000D01*
G75*
G02*
X126095000Y-101737000I0J-250000D01*
G01*
X126095000Y-102987000D01*
G75*
G02*
X125845000Y-103237000I-250000J0D01*
G01*
X125095000Y-103237000D01*
G75*
G02*
X124845000Y-102987000I0J250000D01*
G01*
G37*
%TD.AperFunction*%
%TD*%
D16*
%TO.P,RV1,1*%
%TO.N,Net-(R1-Pad2)*%
X119976000Y-119246000D03*
D17*
%TO.P,RV1,2*%
%TO.N,Net-(R2-Pad1)*%
X125476000Y-120396000D03*
D16*
%TO.P,RV1,3*%
X119976000Y-121546000D03*
%TD*%
D18*
%TO.P,TP1,1*%
%TO.N,Net-(R3-Pad1)*%
X128016000Y-115570000D03*
%TD*%
%TO.P,TP2,1*%
%TO.N,Net-(C8-Pad1)*%
X79502000Y-106172000D03*
%TD*%
%TO.P,TP3,1*%
%TO.N,Net-(C10-Pad1)*%
X89916000Y-121412000D03*
%TD*%
%TO.P,TP4,1*%
%TO.N,Net-(D3-Pad2)*%
X91694000Y-105156000D03*
%TD*%
%TO.P,TP5,1*%
%TO.N,Net-(C11-Pad1)*%
X110490000Y-102108000D03*
%TD*%
%TO.P,TP6,1*%
%TO.N,Net-(R10-Pad2)*%
X116332000Y-107696000D03*
%TD*%
%TO.P,TP7,1*%
%TO.N,Net-(J2-Pad1)*%
X123952000Y-96266000D03*
%TD*%
D19*
%TO.P,U1,1*%
%TO.N,Net-(C8-Pad1)*%
X86360000Y-109220000D03*
D20*
%TO.P,U1,5*%
%TO.N,Net-(C10-Pad1)*%
X93980000Y-116840000D03*
%TO.P,U1,2*%
%TO.N,Net-(C8-Pad2)*%
X86360000Y-111760000D03*
%TO.P,U1,6*%
%TO.N,Net-(R6-Pad2)*%
X93980000Y-114300000D03*
%TO.P,U1,3*%
%TO.N,GND*%
X86360000Y-114300000D03*
%TO.P,U1,7*%
%TO.N,Net-(D3-Pad2)*%
X93980000Y-111760000D03*
%TO.P,U1,4*%
%TO.N,-15V*%
X86360000Y-116840000D03*
%TO.P,U1,8*%
%TO.N,+15V*%
X93980000Y-109220000D03*
%TD*%
D21*
%TO.N,GND*%
X95504000Y-118872000D03*
X117094000Y-95504000D03*
X107442000Y-97536000D03*
X96012000Y-94742000D03*
X112014000Y-108204000D03*
X122428000Y-113030000D03*
X102616000Y-94742000D03*
%TO.N,+15V*%
X114548000Y-112516000D03*
X118114653Y-118114653D03*
X102616000Y-88900000D03*
X120142000Y-103886000D03*
X131064000Y-100838000D03*
%TO.N,-15V*%
X96012000Y-89408000D03*
X106934000Y-93980000D03*
%TO.N,Net-(C5-Pad2)*%
X113030000Y-118872000D03*
X115316000Y-111506000D03*
%TO.N,Net-(C7-Pad2)*%
X117602000Y-115062000D03*
X116078000Y-119380000D03*
%TO.N,Net-(C10-Pad1)*%
X82296000Y-122936000D03*
%TO.N,Net-(C10-Pad2)*%
X77216000Y-121920000D03*
%TO.N,Net-(C11-Pad1)*%
X99568000Y-122428000D03*
%TO.N,Net-(D4-Pad2)*%
X127254000Y-105410000D03*
%TO.N,Net-(J2-Pad1)*%
X123952000Y-102362000D03*
X129032000Y-93980000D03*
%TO.N,Net-(R1-Pad2)*%
X113030000Y-117094000D03*
%TO.N,Net-(R6-Pad2)*%
X99060000Y-114808000D03*
%TO.N,Net-(R10-Pad2)*%
X116840000Y-101092000D03*
%TD*%
D22*
%TO.N,GND*%
X95504000Y-119002000D02*
X96898000Y-120396000D01*
X95504000Y-118872000D02*
X95504000Y-119002000D01*
X95504000Y-118872000D02*
X95504000Y-118618000D01*
X96520000Y-117602000D02*
X97028000Y-117602000D01*
X95504000Y-118618000D02*
X96520000Y-117602000D01*
X117094000Y-93240000D02*
X117094000Y-95504000D01*
X109090000Y-97536000D02*
X107442000Y-97536000D01*
X93980000Y-93494000D02*
X95228000Y-94742000D01*
X95228000Y-94742000D02*
X96012000Y-94742000D01*
X111890000Y-106172000D02*
X111890000Y-108080000D01*
X111890000Y-108080000D02*
X112014000Y-108204000D01*
X117856000Y-113408000D02*
X122050000Y-113408000D01*
X122050000Y-113408000D02*
X122428000Y-113030000D01*
X96012000Y-94742000D02*
X102616000Y-94742000D01*
%TO.N,+15V*%
X114548000Y-112516000D02*
X114548000Y-115818000D01*
X114548000Y-115818000D02*
X116844653Y-118114653D01*
X116844653Y-118114653D02*
X118114653Y-118114653D01*
X117094000Y-89640000D02*
X115084000Y-87630000D01*
X115084000Y-87630000D02*
X103886000Y-87630000D01*
X103886000Y-87630000D02*
X102616000Y-88900000D01*
X120142000Y-103886000D02*
X118618000Y-103886000D01*
X131064000Y-100838000D02*
X131064000Y-99568000D01*
X129924000Y-98428000D02*
X129032000Y-98428000D01*
X131064000Y-99568000D02*
X129924000Y-98428000D01*
X117094000Y-89640000D02*
X120142000Y-92688000D01*
X120142000Y-92688000D02*
X120142000Y-103886000D01*
X115830000Y-112516000D02*
X114548000Y-112516000D01*
X120142000Y-108204000D02*
X115830000Y-112516000D01*
X120142000Y-103886000D02*
X120142000Y-108204000D01*
%TO.N,-15V*%
X94466000Y-89408000D02*
X93980000Y-89894000D01*
X96012000Y-89408000D02*
X94466000Y-89408000D01*
X109090000Y-106172000D02*
X107442000Y-106172000D01*
X107442000Y-106172000D02*
X105156000Y-103886000D01*
X105156000Y-103886000D02*
X105156000Y-95758000D01*
X105156000Y-95758000D02*
X106934000Y-93980000D01*
%TO.N,Net-(C5-Pad2)*%
X113030000Y-118872000D02*
X113030000Y-119634000D01*
X113030000Y-119634000D02*
X112776000Y-119888000D01*
X112776000Y-119888000D02*
X109982000Y-119888000D01*
X109982000Y-119888000D02*
X109728000Y-119634000D01*
X109728000Y-119634000D02*
X109728000Y-115062000D01*
X109728000Y-115062000D02*
X113284000Y-111506000D01*
X113284000Y-111506000D02*
X115316000Y-111506000D01*
%TO.N,Net-(C7-Pad2)*%
X117602000Y-115954000D02*
X117856000Y-116208000D01*
X117602000Y-115062000D02*
X117602000Y-115954000D01*
X116078000Y-120266000D02*
X114678000Y-121666000D01*
X116078000Y-119380000D02*
X116078000Y-120266000D01*
X117980000Y-116208000D02*
X117856000Y-116208000D01*
%TO.N,Net-(C10-Pad1)*%
X80615000Y-122174000D02*
X81534000Y-122174000D01*
X81534000Y-122174000D02*
X82296000Y-122936000D01*
%TO.N,Net-(C10-Pad2)*%
X78486000Y-121920000D02*
X78740000Y-122174000D01*
X77216000Y-121920000D02*
X78486000Y-121920000D01*
%TO.N,Net-(C11-Pad1)*%
X99568000Y-120526000D02*
X99698000Y-120396000D01*
X99568000Y-122428000D02*
X99568000Y-120526000D01*
%TO.N,Net-(D3-Pad2)*%
X91694000Y-105156000D02*
X91948000Y-104902000D01*
%TO.N,Net-(D4-Pad2)*%
X127254000Y-105410000D02*
X127254000Y-103378000D01*
X127254000Y-103378000D02*
X128270000Y-102362000D01*
%TO.N,Net-(J2-Pad1)*%
X125470000Y-99190000D02*
X129032000Y-95628000D01*
X125470000Y-102362000D02*
X125470000Y-99190000D01*
X125470000Y-102362000D02*
X123952000Y-102362000D01*
X129032000Y-95628000D02*
X129032000Y-93980000D01*
%TO.N,Net-(R1-Pad2)*%
X117017002Y-119246000D02*
X116135002Y-118364000D01*
X119976000Y-119246000D02*
X117017002Y-119246000D01*
X116135002Y-118364000D02*
X114300000Y-118364000D01*
X114300000Y-118364000D02*
X113030000Y-117094000D01*
%TO.N,Net-(R2-Pad1)*%
X119856000Y-121666000D02*
X119976000Y-121546000D01*
X117478000Y-121666000D02*
X119856000Y-121666000D01*
X124326000Y-121546000D02*
X125476000Y-120396000D01*
X119976000Y-121546000D02*
X124326000Y-121546000D01*
%TO.N,Net-(R6-Pad2)*%
X97034000Y-114808000D02*
X97028000Y-114802000D01*
X99060000Y-114808000D02*
X97034000Y-114808000D01*
%TO.N,Net-(R10-Pad2)*%
X118612000Y-101092000D02*
X118618000Y-101086000D01*
X116840000Y-101092000D02*
X118612000Y-101092000D01*
X116840000Y-101092000D02*
X113792000Y-101092000D01*
X111890000Y-99190000D02*
X111890000Y-97536000D01*
X113792000Y-101092000D02*
X111890000Y-99190000D01*
%TD*%
M02*
